<?xml version="1.0" standalone="no"?>
<!DOCTYPE svg PUBLIC "-//W3C//DTD SVG 1.1//EN" "http://www.w3.org/Graphics/SVG/1.1/DTD/svg11.dtd" >
<svg xmlns="http://www.w3.org/2000/svg">
<metadata></metadata>
<defs>
<font id="ralewayextralight" horiz-adv-x="872" >
<font-face units-per-em="2048" ascent="1638" descent="-410" />
<missing-glyph horiz-adv-x="542" />
<glyph horiz-adv-x="0" />
<glyph horiz-adv-x="682" />
<glyph horiz-adv-x="0" />
<glyph horiz-adv-x="0" />
<glyph unicode="&#xd;" horiz-adv-x="0" />
<glyph unicode=" "  horiz-adv-x="542" />
<glyph unicode="&#x09;" horiz-adv-x="542" />
<glyph unicode="&#xa0;" horiz-adv-x="542" />
<glyph unicode="!" horiz-adv-x="450" d="M190 0v188h70v-188h-70zM190 426v1042h70v-1042h-70z" />
<glyph unicode="&#x22;" horiz-adv-x="460" d="M133 1260v198h64v-198h-64zM262 1260v198h66v-198h-66z" />
<glyph unicode="#" horiz-adv-x="1357" d="M84 444v62h246l112 465h-276v59h291l102 424h66l-105 -424h461l102 424h66l-105 -424h234v-59h-250l-113 -465h279v-62h-293l-106 -444h-66l109 444h-461l-107 -444h-65l110 444h-231zM393 506h461l113 465h-463z" />
<glyph unicode="$" horiz-adv-x="1245" d="M78 211l41 51q187 -196 481 -211v649q-100 20 -167.5 39t-130 48t-98 65.5t-56.5 89.5t-21 123q0 182 126 285t345 112v207h51v-205q135 -2 239.5 -43.5t190.5 -128.5l-39 -53q-76 84 -170 121t-223 39v-641q105 -22 176 -42t140.5 -52t110 -71.5t65 -97.5t24.5 -133 q0 -179 -137.5 -274.5t-376.5 -97.5v-187h-51v189q-307 12 -520 219zM199 1075q0 -71 22 -119.5t74.5 -83.5t122 -57.5t182.5 -46.5v629q-205 -7 -303 -91.5t-98 -230.5zM647 51q208 0 325.5 77t117.5 226q0 144 -101.5 215t-341.5 121v-639z" />
<glyph unicode="%" horiz-adv-x="1411" d="M100 1188q0 119 84.5 203t204.5 84t204.5 -84t84.5 -203q0 -118 -84.5 -201.5t-204.5 -83.5t-204.5 83.5t-84.5 201.5zM113 33l571 710l567 715l45 -35l-573 -714l-565 -713zM160 1188q0 -97 67.5 -165.5t161.5 -68.5q95 0 162 70t67 164q0 97 -68.5 165t-160.5 68 q-95 0 -162 -69.5t-67 -163.5zM733 266q0 118 85.5 201.5t205.5 83.5t204.5 -83.5t84.5 -201.5q0 -120 -84.5 -203t-204.5 -83t-205.5 83t-85.5 203zM793 266q0 -98 67.5 -165.5t163.5 -67.5q95 0 162 69.5t67 163.5q0 95 -69 164.5t-160 69.5q-95 0 -163 -70t-68 -164z" />
<glyph unicode="&#x26;" horiz-adv-x="1329" d="M106 356q0 72 25 134.5t76 118.5t103 98t132 96q-125 131 -174 211t-49 155q0 123 102 213.5t248 90.5q134 0 225 -78t91 -191q0 -49 -20.5 -96.5t-48 -83.5t-81 -81.5t-91.5 -73t-107 -74.5l467 -484q100 176 100 385h63q0 -241 -120 -430l256 -266h-95l-202 211 q-82 -108 -198 -169.5t-253 -61.5q-117 0 -218 43t-166 130.5t-65 202.5zM174 352q0 -76 35 -137.5t91.5 -98.5t124.5 -57t138 -20q123 0 226 57t176 158l-482 506q-57 -39 -97.5 -70t-83 -72t-68.5 -79.5t-43 -87t-17 -99.5zM287 1169q0 -59 42.5 -131t166.5 -200 q70 48 109.5 76.5t86 68t70 70t39.5 69t16 78.5q0 91 -71.5 151t-178.5 60q-118 0 -199 -71t-81 -171z" />
<glyph unicode="'" horiz-adv-x="292" d="M115 1298v160h63v-160h-63z" />
<glyph unicode="(" horiz-adv-x="505" d="M102 707q0 133 39.5 274t95 255.5t142.5 258.5l53 -33q-104 -153 -184 -369t-80 -393q0 -159 69.5 -352.5t194.5 -374.5l-53 -32q-277 406 -277 766z" />
<glyph unicode=")" horiz-adv-x="505" d="M74 1462l55 33q134 -225 205.5 -410.5t71.5 -377.5q0 -355 -277 -766l-53 32q124 182 194 375.5t70 351.5q0 176 -81 392t-185 370z" />
<glyph unicode="*" horiz-adv-x="638" d="M139 1309l15 49l139 -47l-6 145h63l-6 -145l139 47l15 -49l-138 -45l86 -119l-43 -31l-86 121l-84 -121l-40 31l83 119z" />
<glyph unicode="+" horiz-adv-x="849" d="M115 696v62h276v299h68v-299h276v-62h-276v-299h-68v299h-276z" />
<glyph unicode="," horiz-adv-x="387" d="M135 -29q33 0 33 33v148h63v-152q0 -43 -26.5 -65.5t-69.5 -22.5v59z" />
<glyph unicode="-" d="M143 522v68h586v-68h-586z" />
<glyph unicode="." horiz-adv-x="350" d="M143 0v152h64v-152h-64z" />
<glyph unicode="/" horiz-adv-x="1144" d="M61 0l943 1454h83l-944 -1454h-82z" />
<glyph unicode="0" horiz-adv-x="1261" d="M125 600q0 178 65 320.5t180.5 222.5t260.5 80t260.5 -80t180.5 -222.5t65 -320.5t-65 -319.5t-180.5 -221t-260.5 -79.5t-260.5 79.5t-180.5 221t-65 319.5zM195 600q0 -247 121 -400t315 -153q193 0 313.5 153t120.5 400t-121 401t-313 154q-194 0 -315 -154t-121 -401 z" />
<glyph unicode="1" horiz-adv-x="808" d="M96 901v74q63 0 146 47.5t133.5 91.5t56.5 55h72v-1103h260v-66h-623v66h291v1007q-37 -51 -148 -111.5t-188 -60.5z" />
<glyph unicode="2" horiz-adv-x="1054" d="M117 0q0 38 4 74.5t14.5 89t35 101t60.5 99t96 96t136 79.5q17 8 59.5 25.5t66 28t62 30t61.5 35.5t51.5 41t43.5 50t26 58t11 70q0 98 -83 172.5t-233 74.5q-56 0 -109 -15.5t-88.5 -36t-69 -48t-48.5 -44t-27 -32.5l-51 47q11 13 22.5 26t52.5 47t83.5 58t109 44 t134.5 20q175 0 276.5 -92t101.5 -217q0 -44 -11.5 -83t-28 -68t-46.5 -58t-54 -47t-65 -39.5t-64.5 -32.5t-66.5 -29.5t-59 -25.5q-87 -39 -154 -100.5t-102.5 -125t-53 -115.5t-20.5 -91h748v-66h-821z" />
<glyph unicode="3" horiz-adv-x="1073" d="M92 -47l55 37q37 -102 139 -164t240 -62q170 0 271.5 92.5t101.5 249.5q0 160 -103 253.5t-284 93.5h-47v63h49q171 0 264.5 75.5t93.5 207.5q0 143 -97.5 229t-250.5 86q-124 0 -220 -60t-138 -161l-51 35q43 114 156.5 183t256.5 69q180 0 298 -104.5t118 -264.5 q0 -130 -79.5 -220.5t-211.5 -107.5q142 -20 229 -125t87 -256q0 -180 -124 -291.5t-321 -111.5q-153 0 -269 68.5t-163 185.5z" />
<glyph unicode="4" horiz-adv-x="1087" d="M43 135v60l750 974h49v-968h180v-66h-180v-395h-70v395h-729zM127 201h649v852z" />
<glyph unicode="5" horiz-adv-x="1124" d="M88 -12l59 20q56 -112 164.5 -180t237.5 -68q176 0 297 115.5t121 294.5q0 171 -117.5 283t-288.5 112q-112 0 -211.5 -49.5t-161.5 -140.5h-71l159 794h695v-67h-639l-125 -623q68 72 161.5 112t196.5 40q129 0 236.5 -58.5t171 -164.5t63.5 -238q0 -139 -67 -248.5 t-178 -168t-242 -58.5q-152 0 -276 80.5t-185 212.5z" />
<glyph unicode="6" horiz-adv-x="1239" d="M121 557q0 453 141 680t381 227q148 0 262 -79t164 -214l-55 -32q-38 117 -140.5 188.5t-228.5 71.5q-206 0 -329 -198t-123 -548q46 143 171.5 231.5t282.5 88.5q205 0 350.5 -145.5t145.5 -350.5q0 -207 -147 -352t-359 -145q-110 0 -205 40t-164 113.5t-108 182.5 t-39 241zM201 477q0 -116 59.5 -215.5t160.5 -158t218 -58.5q180 0 308 126.5t128 303.5q0 117 -59.5 217t-160 158.5t-216.5 58.5q-180 0 -309 -127.5t-129 -304.5z" />
<glyph unicode="7" horiz-adv-x="1099" d="M102 1126v68h961l-741 -1454h-80l708 1386h-848z" />
<glyph unicode="8" horiz-adv-x="1212" d="M113 395q0 140 95.5 243t227.5 142q-118 43 -194 126t-76 196q0 108 66 190.5t164.5 122t209.5 39.5q110 0 208 -39.5t164 -122t66 -190.5q0 -112 -77 -195.5t-195 -126.5q142 -43 233 -147t91 -242q0 -120 -69.5 -214t-182 -142.5t-246.5 -48.5q-107 0 -199 33.5 t-154 89.5t-97 130.5t-35 155.5zM184 393q0 -79 38.5 -146t100.5 -109.5t136.5 -66.5t148.5 -24q76 0 150 25t134 69t97 111t37 145q0 80 -38.5 148t-100.5 111.5t-136.5 67.5t-148.5 24q-103 0 -198 -43t-157.5 -126t-62.5 -186zM236 1096q0 -66 33.5 -122t87.5 -91 t118.5 -54.5t128.5 -19.5q88 0 171.5 33.5t141.5 102t58 155.5q0 88 -54.5 155.5t-138.5 100.5t-180 33q-149 0 -257.5 -80.5t-108.5 -212.5z" />
<glyph unicode="9" horiz-adv-x="1206" d="M84 672q0 207 147 352t359 145q110 0 205 -40t164 -113.5t108 -182.5t39 -241q0 -453 -141 -680t-381 -227q-148 0 -262 78.5t-164 213.5l55 33q38 -117 140.5 -188.5t228.5 -71.5q206 0 329 198t123 548q-46 -143 -171.5 -231.5t-282.5 -88.5q-135 0 -249 66.5 t-180.5 180.5t-66.5 249zM152 674q0 -117 59.5 -217t160 -158.5t216.5 -58.5q180 0 309 127.5t129 304.5q0 116 -59.5 215.5t-160.5 158t-218 58.5q-180 0 -308 -126.5t-128 -303.5z" />
<glyph unicode=":" horiz-adv-x="356" d="M145 0v152h64v-152h-64zM145 907v152h64v-152h-64z" />
<glyph unicode=";" horiz-adv-x="393" d="M139 -29q31 0 31 33v148h63v-152q0 -43 -25.5 -65.5t-68.5 -22.5v59zM170 907v152h63v-152h-63z" />
<glyph unicode="&#x3c;" horiz-adv-x="1034" d="M72 506v47l854 512v-76l-754 -459l754 -460v-76z" />
<glyph unicode="=" horiz-adv-x="909" d="M152 451v59h606v-59h-606zM152 621v59h606v-59h-606z" />
<glyph unicode="&#x3e;" horiz-adv-x="1034" d="M106 -6v76l756 460l-756 459v76l857 -512v-47z" />
<glyph unicode="?" horiz-adv-x="968" d="M74 1208q55 124 173.5 194.5t252.5 70.5q103 0 189 -42t142 -131.5t56 -212.5q0 -44 -8 -82t-19 -66t-33.5 -55.5t-39.5 -44t-49.5 -37.5t-50 -31t-56 -30t-53.5 -28q-40 -22 -64.5 -42t-49.5 -56.5t-36.5 -94t-11.5 -139.5h-64q0 87 12 150t37 105t54 68.5t73 49.5 q17 9 48 24t50.5 25.5t48 28t47.5 33t40 40t33 51t20 62t8 76.5q0 78 -27 140t-73 99.5t-103 56.5t-120 19q-118 0 -220 -63t-153 -166zM352 0v186h66v-186h-66z" />
<glyph unicode="@" horiz-adv-x="1681" d="M111 471q0 165 62 309t165.5 243t239 155.5t280.5 56.5q149 0 284 -60.5t234 -163.5t157 -248t58 -308q0 -31 -2 -65t-9.5 -83.5t-19.5 -94t-34 -90.5t-51.5 -79.5t-74.5 -54.5t-100 -21q-38 0 -65.5 11t-43.5 27t-26 45t-14 53.5t-8 64.5q-57 -64 -150 -106t-194 -42 q-137 0 -219 74.5t-82 192.5q0 71 32.5 124t87.5 81.5t118 41.5t134 13q141 0 273 -47q0 68 -7.5 122t-25.5 101t-47.5 78t-76 49t-107.5 18q-155 0 -293 -98l-29 47q163 107 326 107q58 0 105 -12.5t79.5 -34t56.5 -53.5t38 -66t22.5 -78t11 -83t2.5 -87v-299 q0 -101 21.5 -147t85.5 -46q65 0 113.5 44t73.5 114.5t36.5 141t11.5 139.5q0 200 -91 367.5t-248 264.5t-345 97q-137 0 -263.5 -54t-222 -147t-153 -227.5t-57.5 -286.5q0 -197 92 -363t251.5 -262t348.5 -96q161 0 311 78l23 -45q-158 -82 -334 -82q-150 0 -286.5 59.5 t-236.5 161.5t-159 245.5t-59 303.5zM553 287q0 -96 72 -153.5t176 -57.5t196 45q46 22 76.5 50t44.5 60.5t18.5 60t4.5 62.5v92q-9 1 -49.5 13.5t-102.5 24.5t-127 12q-61 0 -113.5 -10.5t-98 -33.5t-71.5 -65t-26 -100z" />
<glyph unicode="A" horiz-adv-x="1396" d="M43 0l627 1454h59l627 -1454h-78l-215 502h-729l-215 -502h-76zM354 563h686l-340 801z" />
<glyph unicode="B" horiz-adv-x="1355" d="M201 0v1454h659q98 0 176 -55.5t117 -139t39 -176.5q0 -110 -57 -202.5t-152 -135.5q123 -36 196.5 -138t73.5 -230q0 -155 -110.5 -266t-265.5 -111h-676zM270 66h607q126 0 215.5 97t89.5 220q0 128 -84 223.5t-207 95.5h-621v-636zM270 766h564q122 0 205 95t83 216 q0 128 -78.5 220t-197.5 92h-576v-623z" />
<glyph unicode="C" horiz-adv-x="1429" d="M102 737q0 105 29 209t87.5 197t139 164t192 113t238.5 42q187 0 325.5 -86.5t207.5 -230.5l-61 -29q-38 75 -94 130.5t-120 87t-130 46.5t-136 15q-113 0 -212 -38t-170.5 -102.5t-123 -149.5t-77 -180.5t-25.5 -193.5q0 -176 81 -331.5t223 -250t310 -94.5q96 0 189 30 t179.5 98.5t137.5 166.5l62 -24q-47 -105 -142.5 -183.5t-207.5 -116.5t-226 -38q-115 0 -221.5 42t-187.5 115.5t-142 168t-93 204t-32 219.5z" />
<glyph unicode="D" horiz-adv-x="1470" d="M201 0v1454h473q135 0 247.5 -37t192.5 -103t136 -157t83 -199t27 -229q0 -331 -186 -530t-500 -199h-473zM270 66h404q149 0 267 50.5t194 140t115.5 209.5t39.5 263q0 115 -26 215.5t-77.5 182t-125 140t-172 90.5t-215.5 32h-404v-1323z" />
<glyph unicode="E" horiz-adv-x="1263" d="M201 0v1454h942v-65h-873v-613h764v-65h-764v-645h891v-66h-960z" />
<glyph unicode="F" horiz-adv-x="1214" d="M201 0v1454h940v-65h-871v-615h742v-63h-742v-711h-69z" />
<glyph unicode="G" horiz-adv-x="1490" d="M104 727q0 114 31.5 223.5t91 201.5t140 162.5t184.5 110t217 39.5q396 0 555 -317l-59 -31q-150 281 -496 281q-107 0 -202.5 -37.5t-166 -102.5t-122 -150.5t-77.5 -182.5t-26 -197q0 -175 81.5 -329t224.5 -247.5t311 -93.5q276 0 503 265v315h-336v61h402v-698h-66 v238q-217 -248 -506 -248q-145 0 -274.5 64.5t-218 169t-140 236.5t-51.5 267z" />
<glyph unicode="H" horiz-adv-x="1507" d="M201 0v1454h69v-678h967v678h72v-1454h-72v711h-967v-711h-69z" />
<glyph unicode="I" horiz-adv-x="471" d="M201 0v1452h69v-1452h-69z" />
<glyph unicode="J" horiz-adv-x="987" d="M45 68l27 57q116 -80 288 -80q62 0 111.5 11t87 35t65.5 54.5t47 77t31.5 95t19 115.5t9 131.5t2.5 150.5v737h70v-737q0 -103 -4 -180.5t-15.5 -158.5t-31.5 -138t-53 -109t-79.5 -83.5t-111.5 -50t-148 -18.5q-182 0 -315 91z" />
<glyph unicode="K" horiz-adv-x="1286" d="M201 0v1452h69v-913l889 915h88l-612 -637l643 -817h-84l-606 774l-318 -323v-451h-69z" />
<glyph unicode="L" horiz-adv-x="1210" d="M201 0v1454h69v-1388h893v-66h-962z" />
<glyph unicode="M" horiz-adv-x="1812" d="M201 0v1454h65l641 -1083l639 1083h66v-1454h-70v1315l-612 -1032h-47l-613 1032v-1315h-69z" />
<glyph unicode="N" horiz-adv-x="1593" d="M201 0v1454h53l1069 -1341v1339h70v-1452h-70l-1053 1319v-1319h-69z" />
<glyph unicode="O" horiz-adv-x="1564" d="M104 727q0 192 88.5 361t246.5 272.5t345 103.5q145 0 274 -64.5t215.5 -168.5t136.5 -236t50 -268q0 -145 -52.5 -280t-142 -235.5t-216.5 -161t-267 -60.5q-146 1 -274.5 64t-215.5 165.5t-137.5 235.5t-50.5 272zM174 727q0 -130 46 -251.5t125 -214t193.5 -148.5 t243.5 -56q132 0 248 58.5t194 153t122.5 214.5t44.5 244q0 173 -78.5 326.5t-220 248.5t-310.5 95q-132 0 -248 -58t-193.5 -152.5t-122 -214.5t-44.5 -245z" />
<glyph unicode="P" horiz-adv-x="1273" d="M201 0v1454h594q88 0 166.5 -38.5t132 -101t85 -142.5t31.5 -162q0 -116 -49 -218t-142.5 -166.5t-209.5 -64.5h-539v-561h-69zM270 627h537q99 0 177 56.5t117.5 143t39.5 183.5q0 151 -102.5 265t-245.5 114h-523v-762z" />
<glyph unicode="Q" horiz-adv-x="1564" d="M104 727q0 192 88.5 361t246.5 272.5t345 103.5q145 0 274 -64.5t215.5 -168.5t136.5 -236t50 -268q0 -153 -58 -293.5t-159 -245.5l154 -188h-78l-121 147q-181 -157 -416 -157q-146 1 -274.5 64t-215.5 165.5t-137.5 235.5t-50.5 272zM174 727q0 -130 46 -251.5 t125 -214t193.5 -148.5t243.5 -56q214 0 375 142l-162 200h78l127 -157q90 96 140.5 224.5t50.5 260.5q0 173 -78.5 326.5t-220 248.5t-310.5 95q-132 0 -248 -58t-193.5 -152.5t-122 -214.5t-44.5 -245z" />
<glyph unicode="R" horiz-adv-x="1335" d="M201 0v1454h598q88 0 166.5 -38.5t132 -101t85 -142.5t31.5 -162q0 -169 -100.5 -296.5t-257.5 -144.5l367 -569h-82l-363 561h-508v-561h-69zM270 627h541q99 0 176 56t116.5 142.5t39.5 184.5q0 97 -46.5 184.5t-126.5 141t-173 53.5h-527v-762z" />
<glyph unicode="S" horiz-adv-x="1251" d="M84 211l41 51q205 -211 530 -211q208 0 324.5 77t116.5 226q0 62 -19 109t-53.5 81.5t-94.5 62.5t-130.5 48t-173.5 41q-87 17 -147.5 32.5t-120 37.5t-98 48.5t-69 62t-44 82.5t-13.5 106q0 190 138 294.5t374 104.5q140 0 246 -41.5t194 -130.5l-38 -53 q-76 86 -172 123t-228 37q-226 0 -334 -85t-108 -239q0 -50 10.5 -88t36 -68t58 -52t86.5 -41.5t111.5 -34t141.5 -31.5q106 -22 177.5 -42t141.5 -52t110.5 -71.5t65.5 -98t25 -134.5q0 -180 -138.5 -276t-377.5 -96q-339 0 -569 221z" />
<glyph unicode="T" horiz-adv-x="1251" d="M45 1389v65h1161v-65h-544v-1389h-72v1389h-545z" />
<glyph unicode="U" horiz-adv-x="1554" d="M178 725v729h70v-729q0 -88 11 -166.5t34.5 -155.5t65 -138.5t98 -108.5t138 -73t181.5 -26q121 0 215 38.5t152.5 101.5t96.5 151.5t52.5 180.5t14.5 196v729h71v-729q0 -100 -13.5 -189.5t-42.5 -173t-77 -150.5t-113 -117t-155 -77.5t-199 -27.5q-134 0 -239 41.5 t-172 111t-110.5 166t-61 198.5t-17.5 218z" />
<glyph unicode="V" horiz-adv-x="1390" d="M37 1454h74l585 -1366l582 1366h76l-625 -1454h-67z" />
<glyph unicode="W" horiz-adv-x="2134" d="M37 1454h76l585 -1370l326 758l-258 600h72l227 -537l229 537h70l-258 -600l328 -758l585 1370h78l-627 -1454h-69l-334 774l-336 -774h-67z" />
<glyph unicode="X" horiz-adv-x="1277" d="M18 1454h84l537 -684l539 684h82l-580 -737l563 -717h-82l-522 664l-520 -664h-84l563 717z" />
<glyph unicode="Y" horiz-adv-x="1288" d="M29 1454h77l537 -825l539 825h80l-584 -897v-557h-70v561z" />
<glyph unicode="Z" horiz-adv-x="1280" d="M59 0v61l1076 1328h-1063v65h1147v-61l-1072 -1327h1065v-66h-1153z" />
<glyph unicode="[" horiz-adv-x="452" d="M184 -82v1598h174v-64h-106v-1470h106v-64h-174z" />
<glyph unicode="\" horiz-adv-x="1093" d="M57 1454h84l891 -1454h-82z" />
<glyph unicode="]" horiz-adv-x="452" d="M94 -18h107v1470h-107v64h174v-1598h-174v64z" />
<glyph unicode="^" horiz-adv-x="1060" d="M96 621l406 833h59l404 -833h-68l-365 753l-370 -753h-66z" />
<glyph unicode="_" horiz-adv-x="884" d="M43 0h799v-66h-799v66z" />
<glyph unicode="`" horiz-adv-x="419" d="M102 1495h91l129 -162l-50 -26z" />
<glyph unicode="a" horiz-adv-x="1089" d="M74 307q0 135 123.5 221t318.5 86q196 0 344 -57v115q0 158 -92 254t-244 96q-156 0 -342 -131l-32 51q207 139 378 139q185 0 293.5 -111.5t108.5 -301.5v-557q0 -45 37 -45v-66q-6 -2 -17 -2q-35 0 -60.5 25.5t-25.5 62.5v94q-72 -95 -189 -147.5t-253 -52.5 q-146 0 -247 94.5t-101 232.5zM143 309q0 -114 83 -192t206 -78q128 0 235.5 48t159.5 130q33 45 33 82v201q-155 61 -340 61q-169 0 -273 -69t-104 -183z" />
<glyph unicode="b" horiz-adv-x="1243" d="M164 0v1495h69v-672q177 258 426 258q111 0 205.5 -48.5t156 -127.5t96 -177.5t34.5 -199.5q0 -144 -67 -270t-185.5 -202t-259.5 -76q-122 0 -234.5 66.5t-175.5 170.5v-217h-65zM233 348q7 -79 73.5 -151t155.5 -112t169 -40q126 0 230.5 70.5t161 180.5t56.5 232 q0 126 -53.5 237.5t-153.5 181t-223 69.5q-137 0 -245.5 -84t-170.5 -213v-371z" />
<glyph unicode="c" horiz-adv-x="1112" d="M92 537q0 151 67 275.5t186 196.5t265 72q137 0 245.5 -64t164.5 -177l-70 -25q-49 93 -142 147t-204 54q-186 0 -314 -138.5t-128 -340.5q0 -201 131.5 -346.5t312.5 -145.5q119 0 226.5 63t132.5 148l67 -20q-37 -110 -157 -183t-263 -73q-106 0 -202.5 44.5 t-166 119.5t-110.5 178t-41 215z" />
<glyph unicode="d" horiz-adv-x="1249" d="M92 528q0 110 37 211t101.5 176.5t157 120.5t196.5 45q135 0 245.5 -72.5t180.5 -185.5v672h69v-1384q0 -45 37 -45v-66q-6 -2 -18 -2q-34 0 -59 27.5t-25 60.5v131q-66 -106 -178.5 -171.5t-231.5 -65.5q-144 0 -263 79.5t-184 205t-65 263.5zM162 528q0 -95 35 -183.5 t95 -154.5t144 -105.5t176 -39.5q59 0 127 25t126 66t99 98.5t46 117.5v367q-44 122 -168 209.5t-248 87.5q-95 0 -177.5 -42t-137.5 -110.5t-86 -156t-31 -179.5z" />
<glyph unicode="e" horiz-adv-x="1189" d="M92 539q0 110 39.5 210.5t107.5 173t162.5 115.5t200.5 43q143 0 262 -74t187 -200t69 -275q0 -4 -1 -17l-1 -13h-954q13 -196 143 -329.5t305 -133.5q119 0 221.5 60t145.5 155l63 -16q-46 -112 -167.5 -185t-264.5 -73q-106 0 -202.5 45t-165.5 120t-109.5 178 t-40.5 216zM162 561h889q-13 200 -139.5 329.5t-307.5 129.5q-180 0 -306 -130.5t-136 -328.5z" />
<glyph unicode="f" horiz-adv-x="669" d="M63 879v61h152v164q0 193 78 302.5t213 109.5q59 0 114.5 -19.5t88.5 -50.5l-35 -45q-58 51 -158 51q-112 0 -171.5 -89.5t-59.5 -258.5v-164h311v-61h-311v-879h-70v879h-152z" />
<glyph unicode="g" horiz-adv-x="1243" d="M92 528q0 145 62 271t176.5 204t255.5 78q248 0 428 -258v242h65v-1098q0 -104 -39.5 -186.5t-108 -133.5t-154.5 -77.5t-183 -26.5q-178 0 -287.5 64.5t-177.5 185.5l51 29q62 -109 171.5 -163t242.5 -54q178 0 297 95t119 267v250q-67 -105 -179 -170t-231 -65 q-142 0 -260.5 79.5t-183 204.5t-64.5 262zM162 528q0 -95 35 -183.5t95 -154.5t144 -105.5t176 -39.5t182.5 46.5t149 117.5t66.5 143v367q-49 129 -167 213t-249 84q-98 0 -181.5 -43.5t-137 -113.5t-83.5 -156.5t-30 -174.5z" />
<glyph unicode="h" horiz-adv-x="1161" d="M164 0v1495h69v-696q66 129 185.5 205.5t253.5 76.5q169 0 253.5 -123.5t84.5 -355.5v-602h-70v594q0 209 -71.5 315.5t-209.5 106.5q-140 0 -263 -100.5t-163 -249.5v-666h-69z" />
<glyph unicode="i" horiz-adv-x="397" d="M164 0v1065h69v-1065h-69zM164 1323v172h69v-172h-69z" />
<glyph unicode="j" horiz-adv-x="397" d="M-264 -283l43 45q58 -51 164 -51q85 0 153 65t68 156v1133h69v-1131q0 -121 -88 -204.5t-196 -83.5q-139 0 -213 71zM164 1323v172h69v-172h-69z" />
<glyph unicode="k" horiz-adv-x="1048" d="M164 0v1495h69v-1071l689 637h86l-455 -426l467 -635h-80l-434 590l-273 -248v-342h-69z" />
<glyph unicode="l" horiz-adv-x="483" d="M174 168v1327h68v-1313q0 -60 36.5 -94.5t96.5 -34.5q51 0 112 21l17 -58q-76 -26 -156 -26q-78 0 -126 48.5t-48 129.5z" />
<glyph unicode="m" horiz-adv-x="1861" d="M164 0v1065h65v-266q69 134 177 208t235 74q132 0 218.5 -81.5t103.5 -217.5q153 299 421 299q167 0 246.5 -120.5t79.5 -358.5v-602h-70v594q0 215 -66.5 318.5t-203.5 103.5q-142 0 -249.5 -97.5t-149.5 -254.5v-664h-70v594q0 218 -65 320t-203 102t-246.5 -96 t-153.5 -254v-666h-69z" />
<glyph unicode="n" horiz-adv-x="1163" d="M164 0v1065h65v-266q66 126 194.5 204t270.5 78q165 0 240.5 -118.5t75.5 -360.5v-602h-70v594q0 219 -61.5 320.5t-196.5 101.5q-147 0 -277 -100t-172 -250v-666h-69z" />
<glyph unicode="o" horiz-adv-x="1208" d="M92 528q0 147 68.5 274.5t186.5 203t257 75.5q140 0 258.5 -75.5t187 -203t68.5 -274.5t-68 -273t-186.5 -200.5t-259.5 -74.5t-259.5 74.5t-185.5 200.5t-67 273zM162 526q0 -198 129.5 -339.5t310.5 -141.5q119 0 221.5 65.5t163 177.5t60.5 242t-60 242t-162.5 178 t-220.5 66t-220 -66.5t-162 -179.5t-60 -244z" />
<glyph unicode="p" horiz-adv-x="1241" d="M164 -436v1501h65v-221q67 106 178.5 171.5t231.5 65.5q144 0 263.5 -81t184 -206.5t64.5 -263.5q0 -148 -60.5 -273t-174.5 -201t-257 -76q-132 0 -242.5 72t-183.5 186v-674h-69zM233 342q56 -128 170 -212.5t246 -84.5q95 0 177 41.5t136.5 110t85.5 155.5t31 178 q0 126 -59 237.5t-163 180t-226 68.5q-79 0 -169 -42t-156 -115t-73 -150v-367z" />
<glyph unicode="q" horiz-adv-x="1241" d="M92 530q0 144 67.5 270.5t185.5 203.5t257 77q123 0 234.5 -67t175.5 -170v221h65v-1389q0 -44 39 -47v-63q-6 -2 -18 -2q-38 0 -64 27t-26 67v580q-174 -258 -426 -258q-142 0 -256 79t-174 204t-60 267zM162 528q0 -127 55 -237.5t155 -178t222 -67.5q136 0 243 82 t171 209v369q-9 79 -72 152t-152 116t-174 43q-95 0 -180 -42.5t-143 -111t-91.5 -156.5t-33.5 -178z" />
<glyph unicode="r" horiz-adv-x="681" d="M164 0v1065h67v-270q55 112 147.5 184t196.5 84q15 0 37 1t29 1v-66q-148 -6 -256.5 -93t-151.5 -236v-670h-69z" />
<glyph unicode="s" horiz-adv-x="974" d="M72 147l39 48q169 -156 376 -156q151 0 242.5 64.5t91.5 177.5q0 35 -9.5 63t-32.5 49.5t-48.5 37.5t-71.5 31.5t-86.5 26.5t-107.5 27q-59 14 -93.5 23t-76 22.5t-64.5 26t-47.5 31t-36 40t-19 50.5t-7.5 65q0 77 30.5 136.5t83.5 96.5t120.5 55.5t146.5 18.5 q124 0 219 -41.5t139 -109.5l-47 -35q-43 60 -129.5 93.5t-187.5 33.5q-135 0 -221.5 -60t-86.5 -178q0 -40 12 -68.5t30 -47.5t59 -35.5t79.5 -27.5t110.5 -27q65 -15 105.5 -25.5t89.5 -26t77.5 -30t58.5 -35.5t45.5 -45t25.5 -56t10 -71q0 -141 -110 -225t-292 -84 q-256 0 -417 167z" />
<glyph unicode="t" horiz-adv-x="626" d="M55 1004v61h152v367h69v-367h254v-61h-254v-828q4 -57 44 -89t96 -32q40 0 82 12.5t61 22.5t27 16l26 -57q-1 0 -22 -10.5t-45 -20.5t-63.5 -19t-78.5 -9q-82 0 -139 48t-57 128v838h-152z" />
<glyph unicode="u" horiz-adv-x="1187" d="M152 459v606h69v-598q0 -214 71 -318t216 -104t269 96t171 248v676h70v-954q0 -45 37 -45v-66q-8 -2 -21 -2q-33 0 -57.5 28t-24.5 60v176q-69 -130 -192 -206t-266 -76q-169 0 -255.5 121.5t-86.5 357.5z" />
<glyph unicode="v" horiz-adv-x="1071" d="M47 1065h74l416 -985l415 985h72l-455 -1065h-67z" />
<glyph unicode="w" horiz-adv-x="1638" d="M47 1065h70l424 -981l241 559l-180 420h66l151 -358l152 358h65l-178 -420l240 -559l424 981h71l-463 -1065h-59l-252 582l-250 -582h-59z" />
<glyph unicode="x" horiz-adv-x="995" d="M35 1065h82l364 -463l17 -27l16 27l365 463h82l-422 -537l417 -528h-82l-360 459l-16 24l-17 -24l-360 -459h-82l418 528z" />
<glyph unicode="y" horiz-adv-x="1107" d="M39 1065h76l446 -991l422 991h70l-611 -1425q-24 -54 -59.5 -74.5t-93.5 -20.5h-41v64q83 0 102 16q22 16 174 375z" />
<glyph unicode="z" horiz-adv-x="991" d="M61 0v57l785 949h-772v59h854v-57l-783 -949h777v-59h-861z" />
<glyph unicode="{" horiz-adv-x="460" d="M123 709v61q26 0 42.5 20.5t20.5 40t4 35.5v588q0 34 16.5 48t31.5 14h131v-64h-113v-596q0 -76 -47 -119q47 -40 47 -119v-618h113v-63h-131q-20 0 -34 15t-14 46v610q0 38 -16.5 67.5t-50.5 33.5z" />
<glyph unicode="|" horiz-adv-x="425" d="M180 -266v1853h66v-1853h-66z" />
<glyph unicode="}" horiz-adv-x="460" d="M94 0h113v618q0 80 45 119q-45 41 -45 119v596h-113v64h131q8 0 17 -4t19.5 -19t10.5 -39v-588q0 -17 4 -36t20 -39.5t42 -20.5v-61q-34 -4 -50 -33t-16 -68v-610q0 -31 -13.5 -46t-33.5 -15h-131v63z" />
<glyph unicode="~" horiz-adv-x="983" d="M145 508q0 8 11 34t31.5 59.5t59 59t85.5 25.5q38 0 81.5 -19t75.5 -42.5t74.5 -42.5t79.5 -19q28 0 53 10.5t41 25.5t27.5 31.5t16.5 28t5 15.5l54 -2q0 -3 -5.5 -18.5t-20.5 -40.5t-36.5 -48.5t-57 -40t-77.5 -16.5q-44 0 -91.5 19t-80.5 42.5t-72 42.5t-69 19 q-38 0 -71 -31t-46.5 -58.5t-13.5 -33.5h-54z" />
<glyph unicode="&#xa2;" horiz-adv-x="1132" d="M100 528q0 103 34.5 200t95.5 173t150.5 124.5t192.5 55.5v240h52v-240q284 -8 401 -241l-65 -25q-106 191 -336 201v-971q65 1 138 26.5t133.5 75t76.5 109.5l69 -20q-28 -81 -99.5 -141t-154 -87.5t-163.5 -27.5v-226h-52v228q-135 11 -245 93t-169 202.5t-59 250.5z M170 528q0 -180 116.5 -320t286.5 -159v965q-93 -6 -170.5 -51t-127.5 -114t-77.5 -152.5t-27.5 -168.5z" />
<glyph unicode="&#xa3;" horiz-adv-x="989" d="M106 692v62h216q-16 30 -50.5 88.5t-52.5 92.5t-34.5 86t-16.5 101q0 141 101.5 241.5t242.5 100.5q104 0 196 -58t148 -157l-49 -43q-49 91 -129.5 143t-169.5 52q-111 0 -190.5 -81t-79.5 -196q0 -60 21 -115.5t71 -140t65 -114.5h357v-62h-330q37 -88 37 -186 q0 -108 -52 -208.5t-182 -240.5q80 17 148 17q64 0 157.5 -19.5t141.5 -19.5q80 0 196 41l19 -60q-112 -47 -219 -47q-59 0 -159 21.5t-163 21.5q-102 0 -201 -26l-24 53q157 165 213.5 262t56.5 201q0 97 -41 190h-244z" />
<glyph unicode="&#xa5;" horiz-adv-x="1351" d="M59 1454h80l535 -825l540 825h78l-483 -741h186v-58h-221l-63 -98v-51h284v-57h-284v-449h-72v449h-283v57h283v55l-59 94h-224v58h189z" />
<glyph unicode="&#xa8;" horiz-adv-x="538" d="M109 1325v168h63v-168h-63zM367 1325v168h63v-168h-63z" />
<glyph unicode="&#xa9;" horiz-adv-x="1710" d="M113 727q0 156 56.5 293t154 234.5t235.5 153.5t295 56q211 0 381.5 -95.5t267 -264.5t96.5 -377q0 -157 -56.5 -294.5t-155 -235.5t-237 -154.5t-296.5 -56.5q-157 0 -295 56.5t-235.5 154.5t-154 235.5t-56.5 294.5zM162 725q0 -146 52.5 -274t144.5 -219.5t221 -144 t276 -52.5q145 0 272 50.5t220 139t146.5 217.5t53.5 279q0 148 -52.5 277t-144 220.5t-220 144t-275.5 52.5t-275.5 -52.5t-220.5 -143.5t-145 -219t-53 -275zM412 727q0 68 16.5 134.5t52 128.5t86 109t125 75t162.5 28q125 0 222.5 -54.5t137.5 -156.5l-65 -22 q-22 50 -58.5 85.5t-80 52t-81 23.5t-75.5 7q-74 0 -136 -24.5t-104.5 -65t-72.5 -94t-44 -111t-14 -115.5q0 -93 35.5 -171.5t91.5 -128.5t122 -77.5t130 -27.5q90 0 180.5 49.5t124.5 128.5l68 -19q-11 -32 -42 -69t-77 -72t-112 -58.5t-136 -23.5q-83 0 -164 32.5 t-146 90.5t-105.5 148.5t-40.5 197.5z" />
<glyph unicode="&#xab;" horiz-adv-x="1107" d="M98 506v47l494 352v-67l-432 -308l432 -307v-67zM477 506v47l492 352v-67l-430 -308l430 -307v-67z" />
<glyph unicode="&#xad;" d="M143 522v68h586v-68h-586z" />
<glyph unicode="&#xae;" horiz-adv-x="1710" d="M113 727q0 156 56.5 293t154 234.5t235.5 153.5t295 56q211 0 381.5 -95.5t267 -264.5t96.5 -377q0 -157 -56.5 -294.5t-155 -235.5t-237 -154.5t-296.5 -56.5q-157 0 -295 56.5t-235.5 154.5t-154 235.5t-56.5 294.5zM164 727q0 -147 52.5 -275.5t143.5 -220.5t219 -145 t275 -53q195 0 352 86t248.5 245t91.5 363q0 145 -52.5 273t-143.5 219t-220 143.5t-276 52.5t-275 -52.5t-219 -143.5t-143.5 -219t-52.5 -273zM553 252v940h387q114 0 191 -88.5t77 -200.5q0 -109 -65 -190.5t-166 -91.5l235 -369h-69l-232 364h-297v-364h-61zM614 672 h334q94 0 147.5 66.5t53.5 164.5q0 97 -59.5 163.5t-151.5 66.5h-324v-461z" />
<glyph unicode="&#xb4;" horiz-adv-x="419" d="M102 1333l127 162h93l-170 -188z" />
<glyph unicode="&#xb8;" horiz-adv-x="534" d="M47 -301l25 45q80 -37 178 -37q60 0 89.5 18t29.5 58q0 76 -101 76q-70 0 -166 -31l113 199l47 -25l-69 -115q35 13 83 13q69 0 106.5 -30t37.5 -85q0 -125 -178 -125q-96 0 -195 39z" />
<glyph unicode="&#xbb;" horiz-adv-x="1107" d="M139 156v67l430 307l-430 308v67l492 -352v-47zM516 156v67l432 307l-432 308v67l494 -352v-47z" />
<glyph unicode="&#xd3;" horiz-adv-x="1564" d="M104 727q0 192 88.5 361t246.5 272.5t345 103.5q145 0 274 -64.5t215.5 -168.5t136.5 -236t50 -268q0 -145 -52.5 -280t-142 -235.5t-216.5 -161t-267 -60.5q-146 1 -274.5 64t-215.5 165.5t-137.5 235.5t-50.5 272zM174 727q0 -130 46 -251.5t125 -214t193.5 -148.5 t243.5 -56q132 0 248 58.5t194 153t122.5 214.5t44.5 244q0 173 -78.5 326.5t-220 248.5t-310.5 95q-132 0 -248 -58t-193.5 -152.5t-122 -214.5t-44.5 -245zM717 1718l127 162h92l-170 -188z" />
<glyph unicode="&#xf3;" horiz-adv-x="1208" d="M92 528q0 147 68.5 274.5t186.5 203t257 75.5q140 0 258.5 -75.5t187 -203t68.5 -274.5t-68 -273t-186.5 -200.5t-259.5 -74.5t-259.5 74.5t-185.5 200.5t-67 273zM162 526q0 -198 129.5 -339.5t310.5 -141.5q119 0 221.5 65.5t163 177.5t60.5 242t-60 242t-162.5 178 t-220.5 66t-220 -66.5t-162 -179.5t-60 -244zM539 1333l127 162h92l-170 -188z" />
<glyph unicode="&#x104;" horiz-adv-x="1396" d="M43 0l627 1454h59l621 -1444l6 -4l-2 -2l2 -4h-10q-87 -59 -122.5 -100.5t-35.5 -85.5q0 -79 96 -97l-29 -47q-58 13 -89 48t-31 85q0 49 33.5 96t107.5 103l-213 500h-729l-215 -502h-76zM354 563h686l-340 801z" />
<glyph unicode="&#x105;" horiz-adv-x="1089" d="M74 307q0 135 123.5 221t318.5 86q196 0 344 -57v115q0 158 -92 254t-244 96q-156 0 -342 -131l-32 51q207 139 378 139q185 0 293.5 -111.5t108.5 -301.5v-557q0 -45 37 -45v-66q-92 -61 -130 -105t-38 -88q0 -78 96 -96l-29 -47q-58 13 -89.5 48t-31.5 85 q0 51 37.5 101.5t122.5 111.5q-41 23 -41 76v94q-72 -95 -189 -147.5t-253 -52.5q-146 0 -247 94.5t-101 232.5zM143 309q0 -114 83 -192t206 -78q128 0 235.5 48t159.5 130q33 45 33 82v201q-155 61 -340 61q-169 0 -273 -69t-104 -183z" />
<glyph unicode="&#x106;" horiz-adv-x="1429" d="M102 737q0 105 29 209t87.5 197t139 164t192 113t238.5 42q187 0 325.5 -86.5t207.5 -230.5l-61 -29q-38 75 -94 130.5t-120 87t-130 46.5t-136 15q-113 0 -212 -38t-170.5 -102.5t-123 -149.5t-77 -180.5t-25.5 -193.5q0 -176 81 -331.5t223 -250t310 -94.5q96 0 189 30 t179.5 98.5t137.5 166.5l62 -24q-47 -105 -142.5 -183.5t-207.5 -116.5t-226 -38q-115 0 -221.5 42t-187.5 115.5t-142 168t-93 204t-32 219.5zM719 1718l127 162h92l-170 -188z" />
<glyph unicode="&#x107;" horiz-adv-x="1112" d="M92 537q0 151 67 275.5t186 196.5t265 72q137 0 245.5 -64t164.5 -177l-70 -25q-49 93 -142 147t-204 54q-186 0 -314 -138.5t-128 -340.5q0 -201 131.5 -346.5t312.5 -145.5q119 0 226.5 63t132.5 148l67 -20q-37 -110 -157 -183t-263 -73q-106 0 -202.5 44.5 t-166 119.5t-110.5 178t-41 215zM539 1333l127 162h92l-170 -188z" />
<glyph unicode="&#x118;" horiz-adv-x="1263" d="M201 0v1454h942v-65h-873v-613h764v-65h-764v-645h891v-66h-428q-92 -61 -130 -105t-38 -88q0 -78 97 -96l-29 -47q-58 13 -89.5 48t-31.5 85t34.5 98t112.5 105h-458z" />
<glyph unicode="&#x119;" horiz-adv-x="1193" d="M94 539q0 110 39.5 210.5t107.5 173t162.5 115.5t200.5 43q143 0 262 -74t187 -200t69 -275q0 -4 -1 -17l-1 -13h-954q13 -196 143 -329.5t305 -133.5q119 0 221.5 60t145.5 155l63 -16q-43 -102 -147.5 -172t-232.5 -82q-91 -61 -128.5 -104.5t-37.5 -88.5q0 -78 96 -96 l-29 -47q-58 13 -89.5 48t-31.5 85q0 49 34 96t108 103q-136 7 -249 84t-178 203t-65 272zM164 561h889q-13 200 -139.5 329.5t-307.5 129.5q-180 0 -306 -130.5t-136 -328.5z" />
<glyph unicode="&#x141;" horiz-adv-x="1222" d="M53 504l160 149v801h70v-735l366 348l33 -45l-399 -381v-575h893v-66h-963v575l-125 -118z" />
<glyph unicode="&#x142;" horiz-adv-x="518" d="M23 657l180 168v670h67v-608l189 176l35 -43l-224 -209v-629q0 -60 36.5 -94.5t96.5 -34.5q52 0 113 21l16 -58q-76 -26 -155 -26q-78 0 -126 48.5t-48 129.5v582l-146 -136z" />
<glyph unicode="&#x143;" horiz-adv-x="1593" d="M201 0v1454h53l1069 -1341v1339h70v-1452h-70l-1053 1319v-1319h-69zM739 1718l127 162h92l-170 -188z" />
<glyph unicode="&#x144;" horiz-adv-x="1163" d="M164 0v1065h65v-266q66 126 194.5 204t270.5 78q165 0 240.5 -118.5t75.5 -360.5v-602h-70v594q0 219 -61.5 320.5t-196.5 101.5q-147 0 -277 -100t-172 -250v-666h-69zM514 1333l127 162h92l-170 -188z" />
<glyph unicode="&#x15a;" horiz-adv-x="1251" d="M84 211l41 51q205 -211 530 -211q208 0 324.5 77t116.5 226q0 62 -19 109t-53.5 81.5t-94.5 62.5t-130.5 48t-173.5 41q-87 17 -147.5 32.5t-120 37.5t-98 48.5t-69 62t-44 82.5t-13.5 106q0 190 138 294.5t374 104.5q140 0 246 -41.5t194 -130.5l-38 -53 q-76 86 -172 123t-228 37q-226 0 -334 -85t-108 -239q0 -50 10.5 -88t36 -68t58 -52t86.5 -41.5t111.5 -34t141.5 -31.5q106 -22 177.5 -42t141.5 -52t110.5 -71.5t65.5 -98t25 -134.5q0 -180 -138.5 -276t-377.5 -96q-339 0 -569 221zM575 1759l127 162h93l-170 -188z" />
<glyph unicode="&#x15b;" horiz-adv-x="974" d="M72 147l39 48q169 -156 376 -156q151 0 242.5 64.5t91.5 177.5q0 35 -9.5 63t-32.5 49.5t-48.5 37.5t-71.5 31.5t-86.5 26.5t-107.5 27q-59 14 -93.5 23t-76 22.5t-64.5 26t-47.5 31t-36 40t-19 50.5t-7.5 65q0 77 30.5 136.5t83.5 96.5t120.5 55.5t146.5 18.5 q124 0 219 -41.5t139 -109.5l-47 -35q-43 60 -129.5 93.5t-187.5 33.5q-135 0 -221.5 -60t-86.5 -178q0 -40 12 -68.5t30 -47.5t59 -35.5t79.5 -27.5t110.5 -27q65 -15 105.5 -25.5t89.5 -26t77.5 -30t58.5 -35.5t45.5 -45t25.5 -56t10 -71q0 -141 -110 -225t-292 -84 q-256 0 -417 167zM428 1333l127 162h92l-170 -188z" />
<glyph unicode="&#x179;" horiz-adv-x="1280" d="M59 0v61l1076 1328h-1063v65h1147v-61l-1072 -1327h1065v-66h-1153zM610 1718l127 162h92l-170 -188z" />
<glyph unicode="&#x17a;" horiz-adv-x="991" d="M61 0v57l785 949h-772v59h854v-57l-783 -949h777v-59h-861zM459 1333l127 162h92l-170 -188z" />
<glyph unicode="&#x17b;" horiz-adv-x="1280" d="M59 0v61l1076 1328h-1063v65h1147v-61l-1072 -1327h1065v-66h-1153zM643 1710v170h66v-170h-66z" />
<glyph unicode="&#x17c;" horiz-adv-x="991" d="M61 0v57l785 949h-772v59h854v-57l-783 -949h777v-59h-861zM492 1325v170h65v-170h-65z" />
<glyph unicode="&#x2c6;" horiz-adv-x="634" d="M98 1337l193 158h53l195 -158l-47 -30l-175 129l-174 -129z" />
<glyph unicode="&#x2da;" horiz-adv-x="493" d="M121 1374q0 52 35.5 86.5t89.5 34.5q55 0 91 -34t36 -87q0 -54 -35.5 -88.5t-91.5 -34.5q-54 0 -89.5 34.5t-35.5 88.5zM164 1374q0 -35 23.5 -59.5t58.5 -24.5q33 0 58.5 24t25.5 60t-24 59t-60 23q-34 0 -58 -23t-24 -59z" />
<glyph unicode="&#x2dc;" horiz-adv-x="798" d="M102 1323q0 8 3 23t13.5 38.5t27 43.5t47.5 34.5t71 14.5q55 0 130.5 -40t125.5 -40q32 0 56 9.5t35.5 22.5t19 28.5t9 24t1.5 13.5h53q0 -9 -3 -23.5t-14.5 -38t-29 -43t-51.5 -33.5t-78 -14q-51 0 -97.5 19.5t-86 39t-74.5 19.5q-30 0 -52.5 -13t-32 -32t-13.5 -32.5 t-4 -20.5h-56z" />
<glyph unicode="&#x2000;" horiz-adv-x="960" />
<glyph unicode="&#x2001;" horiz-adv-x="1921" />
<glyph unicode="&#x2002;" horiz-adv-x="960" />
<glyph unicode="&#x2003;" horiz-adv-x="1921" />
<glyph unicode="&#x2004;" horiz-adv-x="640" />
<glyph unicode="&#x2005;" horiz-adv-x="480" />
<glyph unicode="&#x2006;" horiz-adv-x="320" />
<glyph unicode="&#x2007;" horiz-adv-x="320" />
<glyph unicode="&#x2008;" horiz-adv-x="240" />
<glyph unicode="&#x2009;" horiz-adv-x="384" />
<glyph unicode="&#x200a;" horiz-adv-x="106" />
<glyph unicode="&#x2010;" d="M143 522v68h586v-68h-586z" />
<glyph unicode="&#x2011;" d="M143 522v68h586v-68h-586z" />
<glyph unicode="&#x2012;" d="M143 522v68h586v-68h-586z" />
<glyph unicode="&#x2013;" horiz-adv-x="1134" d="M143 522v68h848v-68h-848z" />
<glyph unicode="&#x2014;" horiz-adv-x="1818" d="M143 522v68h1532v-68h-1532z" />
<glyph unicode="&#x2018;" horiz-adv-x="358" d="M131 1262v233h64v-231q0 -18 7 -24.5t23 -6.5v-62q-42 0 -68 24t-26 67z" />
<glyph unicode="&#x2019;" horiz-adv-x="356" d="M117 1434v61q42 0 68 -23.5t26 -66.5v-234h-64v232q0 18 -7 24.5t-23 6.5z" />
<glyph unicode="&#x201a;" horiz-adv-x="387" d="M135 -29q33 0 33 33v148h63v-152q0 -43 -26.5 -65.5t-69.5 -22.5v59z" />
<glyph unicode="&#x201c;" horiz-adv-x="550" d="M131 1262v233h64v-231q0 -18 7 -24.5t23 -6.5v-62q-42 0 -68 24t-26 67zM324 1262v233h63v-231q0 -18 7.5 -24.5t23.5 -6.5v-62q-42 0 -68 24t-26 67z" />
<glyph unicode="&#x201d;" horiz-adv-x="548" d="M117 1434v61q42 0 68 -23.5t26 -66.5v-234h-64v232q0 18 -7 24.5t-23 6.5zM309 1434v61q42 0 68 -23.5t26 -66.5v-234h-63v232q0 18 -7.5 24.5t-23.5 6.5z" />
<glyph unicode="&#x201e;" horiz-adv-x="557" d="M135 -29q33 0 33 33v148h63v-152q0 -43 -26.5 -65.5t-69.5 -22.5v59zM307 -29q33 0 33 33v148h63v-152q0 -43 -26.5 -65.5t-69.5 -22.5v59z" />
<glyph unicode="&#x2026;" horiz-adv-x="786" d="M143 0v152h64v-152h-64zM362 0v152h64v-152h-64zM580 0v152h63v-152h-63z" />
<glyph unicode="&#x202f;" horiz-adv-x="384" />
<glyph unicode="&#x2039;" horiz-adv-x="729" d="M98 506v47l494 352v-67l-432 -308l432 -307v-67z" />
<glyph unicode="&#x203a;" horiz-adv-x="729" d="M139 156v67l430 307l-430 308v67l492 -352v-47z" />
<glyph unicode="&#x205f;" horiz-adv-x="480" />
<glyph unicode="&#x20ac;" horiz-adv-x="1667" d="M70 582l24 55h213q-6 50 -6 139h-156l25 53h137q12 97 47 188.5t95 172t138 141.5t181 96t219 35q187 0 325.5 -86.5t207.5 -230.5l-62 -29q-38 75 -93.5 130.5t-119.5 87t-130 46.5t-136 15q-127 0 -235.5 -47t-183 -127t-121.5 -180.5t-62 -211.5h774l-25 -53h-753 q-4 -14 -4 -47q0 -30 8 -92h694l-24 -55h-660q47 -224 214 -375.5t384 -151.5q96 0 189 30t179.5 98.5t137.5 166.5l61 -24q-47 -105 -142.5 -183.5t-207 -116.5t-225.5 -38q-124 0 -236.5 48.5t-196.5 131t-143 189.5t-84 225h-247z" />
<glyph unicode="&#x2122;" horiz-adv-x="1378" d="M121 1401v57h446v-57h-194v-520h-58v520h-194zM662 881v573h69l205 -416l203 416h71v-573h-57v477l-192 -391h-50l-192 391v-477h-57z" />
<glyph unicode="&#xe000;" horiz-adv-x="1064" d="M0 0v1065h1065v-1065h-1065z" />
<hkern u1="&#x20;" u2="&#x2019;" k="68" />
<hkern u1="&#x20;" u2="&#x142;" k="29" />
<hkern u1="&#x20;" u2="&#x141;" k="2" />
<hkern u1="&#x20;" u2="y" k="57" />
<hkern u1="&#x20;" u2="w" k="57" />
<hkern u1="&#x20;" u2="v" k="57" />
<hkern u1="&#x20;" u2="Y" k="78" />
<hkern u1="&#x20;" u2="X" k="23" />
<hkern u1="&#x20;" u2="W" k="72" />
<hkern u1="&#x20;" u2="V" k="72" />
<hkern u1="&#x20;" u2="T" k="53" />
<hkern u1="&#x20;" u2="J" k="55" />
<hkern u1="&#x20;" u2="A" k="63" />
<hkern u1="&#x20;" u2="&#x27;" k="68" />
<hkern u1="&#x20;" u2="&#x22;" k="82" />
<hkern u1="&#x22;" u2="&#x20;" k="82" />
<hkern u1="&#x23;" u2="&#x34;" k="23" />
<hkern u1="&#x24;" u2="&#x37;" k="27" />
<hkern u1="&#x24;" u2="&#x33;" k="23" />
<hkern u1="&#x26;" u2="&#x2019;" k="86" />
<hkern u1="&#x26;" u2="z" k="-2" />
<hkern u1="&#x26;" u2="y" k="43" />
<hkern u1="&#x26;" u2="x" k="-6" />
<hkern u1="&#x26;" u2="w" k="41" />
<hkern u1="&#x26;" u2="v" k="41" />
<hkern u1="&#x26;" u2="s" k="-2" />
<hkern u1="&#x26;" u2="Z" k="-2" />
<hkern u1="&#x26;" u2="Y" k="113" />
<hkern u1="&#x26;" u2="X" k="-16" />
<hkern u1="&#x26;" u2="W" k="90" />
<hkern u1="&#x26;" u2="V" k="90" />
<hkern u1="&#x26;" u2="U" k="2" />
<hkern u1="&#x26;" u2="T" k="84" />
<hkern u1="&#x26;" u2="J" k="-4" />
<hkern u1="&#x26;" u2="A" k="-8" />
<hkern u1="&#x26;" u2="&#x27;" k="84" />
<hkern u1="&#x27;" u2="&#x2039;" k="4" />
<hkern u1="&#x27;" u2="s" k="2" />
<hkern u1="&#x27;" u2="o" k="47" />
<hkern u1="&#x27;" u2="f" k="16" />
<hkern u1="&#x27;" u2="d" k="176" />
<hkern u1="&#x27;" u2="a" k="20" />
<hkern u1="&#x27;" u2="O" k="35" />
<hkern u1="&#x27;" u2="J" k="180" />
<hkern u1="&#x27;" u2="A" k="154" />
<hkern u1="&#x27;" u2="&#x40;" k="86" />
<hkern u1="&#x27;" u2="&#x39;" k="37" />
<hkern u1="&#x27;" u2="&#x35;" k="29" />
<hkern u1="&#x27;" u2="&#x34;" k="180" />
<hkern u1="&#x27;" u2="&#x33;" k="25" />
<hkern u1="&#x27;" u2="&#x30;" k="29" />
<hkern u1="&#x27;" u2="&#x2f;" k="193" />
<hkern u1="&#x27;" u2="&#x2e;" k="250" />
<hkern u1="&#x27;" u2="&#x20;" k="68" />
<hkern u1="&#x28;" u2="y" k="29" />
<hkern u1="&#x28;" u2="x" k="-2" />
<hkern u1="&#x28;" u2="w" k="31" />
<hkern u1="&#x28;" u2="v" k="29" />
<hkern u1="&#x28;" u2="u" k="20" />
<hkern u1="&#x28;" u2="o" k="33" />
<hkern u1="&#x28;" u2="j" k="-4" />
<hkern u1="&#x28;" u2="f" k="2" />
<hkern u1="&#x28;" u2="d" k="37" />
<hkern u1="&#x28;" u2="Y" k="-4" />
<hkern u1="&#x28;" u2="X" k="-4" />
<hkern u1="&#x28;" u2="W" k="-4" />
<hkern u1="&#x28;" u2="V" k="-4" />
<hkern u1="&#x28;" u2="O" k="31" />
<hkern u1="&#x28;" u2="J" k="-2" />
<hkern u1="&#x28;" u2="A" k="-4" />
<hkern u1="&#x28;" u2="&#x36;" k="2" />
<hkern u1="&#x28;" u2="&#x30;" k="31" />
<hkern u1="&#x2a;" u2="x" k="-4" />
<hkern u1="&#x2a;" u2="w" k="-4" />
<hkern u1="&#x2a;" u2="v" k="-4" />
<hkern u1="&#x2a;" u2="s" k="39" />
<hkern u1="&#x2a;" u2="o" k="68" />
<hkern u1="&#x2a;" u2="f" k="14" />
<hkern u1="&#x2a;" u2="d" k="104" />
<hkern u1="&#x2a;" u2="a" k="37" />
<hkern u1="&#x2a;" u2="Y" k="-6" />
<hkern u1="&#x2a;" u2="X" k="-6" />
<hkern u1="&#x2a;" u2="W" k="-6" />
<hkern u1="&#x2a;" u2="T" k="-25" />
<hkern u1="&#x2a;" u2="O" k="18" />
<hkern u1="&#x2a;" u2="J" k="188" />
<hkern u1="&#x2a;" u2="A" k="143" />
<hkern u1="&#x2b;" u2="&#x38;" k="18" />
<hkern u1="&#x2b;" u2="&#x37;" k="55" />
<hkern u1="&#x2b;" u2="&#x34;" k="82" />
<hkern u1="&#x2b;" u2="&#x33;" k="47" />
<hkern u1="&#x2b;" u2="&#x32;" k="23" />
<hkern u1="&#x2b;" u2="&#x31;" k="25" />
<hkern u1="&#x2c;" u2="j" k="-6" />
<hkern u1="&#x2d;" u2="z" k="78" />
<hkern u1="&#x2d;" u2="y" k="55" />
<hkern u1="&#x2d;" u2="x" k="72" />
<hkern u1="&#x2d;" u2="w" k="53" />
<hkern u1="&#x2d;" u2="v" k="51" />
<hkern u1="&#x2d;" u2="t" k="18" />
<hkern u1="&#x2d;" u2="s" k="18" />
<hkern u1="&#x2d;" u2="f" k="14" />
<hkern u1="&#x2d;" u2="Z" k="37" />
<hkern u1="&#x2d;" u2="Y" k="152" />
<hkern u1="&#x2d;" u2="X" k="61" />
<hkern u1="&#x2d;" u2="W" k="94" />
<hkern u1="&#x2d;" u2="V" k="94" />
<hkern u1="&#x2d;" u2="T" k="143" />
<hkern u1="&#x2d;" u2="J" k="156" />
<hkern u1="&#x2d;" u2="A" k="33" />
<hkern u1="&#x2d;" u2="&#x37;" k="78" />
<hkern u1="&#x2d;" u2="&#x34;" k="43" />
<hkern u1="&#x2d;" u2="&#x33;" k="98" />
<hkern u1="&#x2d;" u2="&#x32;" k="18" />
<hkern u1="&#x2d;" u2="&#x31;" k="59" />
<hkern u1="&#x2e;" u2="&#x2019;" k="279" />
<hkern u1="&#x2e;" u2="&#x2018;" k="283" />
<hkern u1="&#x2e;" u2="y" k="111" />
<hkern u1="&#x2e;" u2="w" k="106" />
<hkern u1="&#x2e;" u2="v" k="104" />
<hkern u1="&#x2e;" u2="t" k="2" />
<hkern u1="&#x2e;" u2="f" k="2" />
<hkern u1="&#x2e;" u2="d" k="14" />
<hkern u1="&#x2e;" u2="Y" k="170" />
<hkern u1="&#x2e;" u2="W" k="160" />
<hkern u1="&#x2e;" u2="V" k="160" />
<hkern u1="&#x2e;" u2="U" k="45" />
<hkern u1="&#x2e;" u2="T" k="147" />
<hkern u1="&#x2e;" u2="O" k="49" />
<hkern u1="&#x2e;" u2="&#x37;" k="74" />
<hkern u1="&#x2e;" u2="&#x27;" k="250" />
<hkern u1="&#x2f;" u2="z" k="4" />
<hkern u1="&#x2f;" u2="y" k="33" />
<hkern u1="&#x2f;" u2="x" k="2" />
<hkern u1="&#x2f;" u2="w" k="33" />
<hkern u1="&#x2f;" u2="v" k="33" />
<hkern u1="&#x2f;" u2="u" k="41" />
<hkern u1="&#x2f;" u2="s" k="61" />
<hkern u1="&#x2f;" u2="o" k="74" />
<hkern u1="&#x2f;" u2="n" k="43" />
<hkern u1="&#x2f;" u2="f" k="2" />
<hkern u1="&#x2f;" u2="d" k="76" />
<hkern u1="&#x2f;" u2="a" k="61" />
<hkern u1="&#x2f;" u2="Y" k="-4" />
<hkern u1="&#x2f;" u2="X" k="-4" />
<hkern u1="&#x2f;" u2="W" k="-4" />
<hkern u1="&#x2f;" u2="V" k="-4" />
<hkern u1="&#x2f;" u2="S" k="2" />
<hkern u1="&#x2f;" u2="O" k="37" />
<hkern u1="&#x2f;" u2="J" k="170" />
<hkern u1="&#x2f;" u2="A" k="133" />
<hkern u1="&#x2f;" u2="&#x39;" k="55" />
<hkern u1="&#x2f;" u2="&#x38;" k="2" />
<hkern u1="&#x2f;" u2="&#x36;" k="27" />
<hkern u1="&#x2f;" u2="&#x35;" k="66" />
<hkern u1="&#x2f;" u2="&#x34;" k="154" />
<hkern u1="&#x2f;" u2="&#x33;" k="51" />
<hkern u1="&#x2f;" u2="&#x32;" k="43" />
<hkern u1="&#x2f;" u2="&#x31;" k="37" />
<hkern u1="&#x2f;" u2="&#x30;" k="70" />
<hkern u1="&#x2f;" u2="&#x2f;" k="463" />
<hkern u1="&#x30;" u2="\" k="63" />
<hkern u1="&#x30;" u2="Z" k="31" />
<hkern u1="&#x30;" u2="Y" k="102" />
<hkern u1="&#x30;" u2="X" k="29" />
<hkern u1="&#x30;" u2="W" k="70" />
<hkern u1="&#x30;" u2="V" k="68" />
<hkern u1="&#x30;" u2="T" k="131" />
<hkern u1="&#x30;" u2="J" k="20" />
<hkern u1="&#x30;" u2="A" k="37" />
<hkern u1="&#x30;" u2="&#x37;" k="37" />
<hkern u1="&#x30;" u2="&#x2f;" k="2" />
<hkern u1="&#x30;" u2="&#x29;" k="31" />
<hkern u1="&#x30;" u2="&#x27;" k="29" />
<hkern u1="&#x31;" u2="\" k="74" />
<hkern u1="&#x31;" u2="Y" k="102" />
<hkern u1="&#x31;" u2="X" k="-2" />
<hkern u1="&#x31;" u2="W" k="82" />
<hkern u1="&#x31;" u2="V" k="82" />
<hkern u1="&#x31;" u2="U" k="23" />
<hkern u1="&#x31;" u2="T" k="135" />
<hkern u1="&#x31;" u2="A" k="-2" />
<hkern u1="&#x31;" u2="&#x3d;" k="25" />
<hkern u1="&#x31;" u2="&#x37;" k="27" />
<hkern u1="&#x31;" u2="&#x2d;" k="39" />
<hkern u1="&#x31;" u2="&#x2b;" k="45" />
<hkern u1="&#x31;" u2="&#x27;" k="25" />
<hkern u1="&#x31;" u2="&#x23;" k="-2" />
<hkern u1="&#x32;" u2="\" k="47" />
<hkern u1="&#x32;" u2="Y" k="82" />
<hkern u1="&#x32;" u2="W" k="55" />
<hkern u1="&#x32;" u2="V" k="55" />
<hkern u1="&#x32;" u2="T" k="127" />
<hkern u1="&#x33;" u2="\" k="55" />
<hkern u1="&#x33;" u2="Y" k="92" />
<hkern u1="&#x33;" u2="X" k="-2" />
<hkern u1="&#x33;" u2="W" k="61" />
<hkern u1="&#x33;" u2="V" k="61" />
<hkern u1="&#x33;" u2="T" k="129" />
<hkern u1="&#x33;" u2="&#x37;" k="25" />
<hkern u1="&#x33;" u2="&#x27;" k="31" />
<hkern u1="&#x34;" u2="\" k="57" />
<hkern u1="&#x34;" u2="Y" k="88" />
<hkern u1="&#x34;" u2="X" k="-2" />
<hkern u1="&#x34;" u2="W" k="68" />
<hkern u1="&#x34;" u2="V" k="68" />
<hkern u1="&#x34;" u2="T" k="133" />
<hkern u1="&#x34;" u2="A" k="-2" />
<hkern u1="&#x34;" u2="&#x37;" k="29" />
<hkern u1="&#x34;" u2="&#x2d;" k="20" />
<hkern u1="&#x34;" u2="&#x2c;" k="-2" />
<hkern u1="&#x34;" u2="&#x2b;" k="31" />
<hkern u1="&#x34;" u2="&#x27;" k="2" />
<hkern u1="&#x35;" u2="\" k="4" />
<hkern u1="&#x35;" u2="Y" k="43" />
<hkern u1="&#x35;" u2="W" k="25" />
<hkern u1="&#x35;" u2="V" k="25" />
<hkern u1="&#x35;" u2="T" k="115" />
<hkern u1="&#x35;" u2="A" k="-2" />
<hkern u1="&#x35;" u2="&#x2d;" k="29" />
<hkern u1="&#x35;" u2="&#x2b;" k="66" />
<hkern u1="&#x36;" u2="Y" k="51" />
<hkern u1="&#x36;" u2="W" k="37" />
<hkern u1="&#x36;" u2="V" k="37" />
<hkern u1="&#x36;" u2="T" k="27" />
<hkern u1="&#x36;" u2="A" k="31" />
<hkern u1="&#x36;" u2="&#x33;" k="2" />
<hkern u1="&#x37;" u2="&#xa2;" k="35" />
<hkern u1="&#x37;" u2="Z" k="31" />
<hkern u1="&#x37;" u2="T" k="70" />
<hkern u1="&#x37;" u2="J" k="113" />
<hkern u1="&#x37;" u2="A" k="86" />
<hkern u1="&#x37;" u2="&#x3d;" k="31" />
<hkern u1="&#x37;" u2="&#x37;" k="-2" />
<hkern u1="&#x37;" u2="&#x35;" k="29" />
<hkern u1="&#x37;" u2="&#x34;" k="102" />
<hkern u1="&#x37;" u2="&#x2f;" k="100" />
<hkern u1="&#x37;" u2="&#x2e;" k="141" />
<hkern u1="&#x37;" u2="&#x2d;" k="55" />
<hkern u1="&#x37;" u2="&#x2b;" k="29" />
<hkern u1="&#x38;" u2="Y" k="51" />
<hkern u1="&#x38;" u2="W" k="37" />
<hkern u1="&#x38;" u2="V" k="37" />
<hkern u1="&#x38;" u2="T" k="20" />
<hkern u1="&#x38;" u2="A" k="33" />
<hkern u1="&#x38;" u2="&#x2b;" k="18" />
<hkern u1="&#x39;" u2="\" k="63" />
<hkern u1="&#x39;" u2="Y" k="104" />
<hkern u1="&#x39;" u2="W" k="70" />
<hkern u1="&#x39;" u2="V" k="70" />
<hkern u1="&#x39;" u2="T" k="135" />
<hkern u1="&#x39;" u2="&#x37;" k="35" />
<hkern u1="&#x39;" u2="&#x27;" k="47" />
<hkern u1="&#x3a;" u2="Y" k="55" />
<hkern u1="&#x3a;" u2="W" k="29" />
<hkern u1="&#x3a;" u2="V" k="29" />
<hkern u1="&#x3a;" u2="T" k="119" />
<hkern u1="&#x3b;" u2="j" k="-4" />
<hkern u1="&#x3d;" u2="&#x37;" k="51" />
<hkern u1="&#x3d;" u2="&#x34;" k="25" />
<hkern u1="&#x3d;" u2="&#x33;" k="59" />
<hkern u1="&#x3d;" u2="&#x31;" k="35" />
<hkern u1="&#x40;" u2="&#x2019;" k="78" />
<hkern u1="&#x40;" u2="Y" k="117" />
<hkern u1="&#x40;" u2="W" k="78" />
<hkern u1="&#x40;" u2="V" k="78" />
<hkern u1="&#x40;" u2="T" k="129" />
<hkern u1="&#x40;" u2="A" k="23" />
<hkern u1="&#x40;" u2="&#x27;" k="78" />
<hkern u1="A" u2="&#x2122;" k="139" />
<hkern u1="A" u2="&#x2039;" k="33" />
<hkern u1="A" u2="&#x2019;" k="147" />
<hkern u1="A" u2="&#x2018;" k="150" />
<hkern u1="A" u2="&#x142;" k="12" />
<hkern u1="A" u2="&#x141;" k="23" />
<hkern u1="A" u2="&#xae;" k="47" />
<hkern u1="A" u2="&#xa9;" k="47" />
<hkern u1="A" u2="y" k="74" />
<hkern u1="A" u2="w" k="70" />
<hkern u1="A" u2="v" k="68" />
<hkern u1="A" u2="u" k="29" />
<hkern u1="A" u2="t" k="41" />
<hkern u1="A" u2="s" k="14" />
<hkern u1="A" u2="o" k="35" />
<hkern u1="A" u2="l" k="2" />
<hkern u1="A" u2="f" k="27" />
<hkern u1="A" u2="d" k="35" />
<hkern u1="A" u2="a" k="16" />
<hkern u1="A" u2="\" k="129" />
<hkern u1="A" u2="Y" k="154" />
<hkern u1="A" u2="W" k="115" />
<hkern u1="A" u2="V" k="115" />
<hkern u1="A" u2="U" k="61" />
<hkern u1="A" u2="T" k="152" />
<hkern u1="A" u2="S" k="25" />
<hkern u1="A" u2="O" k="53" />
<hkern u1="A" u2="&#x40;" k="27" />
<hkern u1="A" u2="&#x3f;" k="66" />
<hkern u1="A" u2="&#x38;" k="31" />
<hkern u1="A" u2="&#x37;" k="61" />
<hkern u1="A" u2="&#x36;" k="35" />
<hkern u1="A" u2="&#x34;" k="-4" />
<hkern u1="A" u2="&#x32;" k="-2" />
<hkern u1="A" u2="&#x30;" k="37" />
<hkern u1="A" u2="&#x2f;" k="-4" />
<hkern u1="A" u2="&#x2d;" k="33" />
<hkern u1="A" u2="&#x2a;" k="143" />
<hkern u1="A" u2="&#x29;" k="-4" />
<hkern u1="A" u2="&#x27;" k="154" />
<hkern u1="A" u2="&#x26;" k="31" />
<hkern u1="A" u2="&#x20;" k="63" />
<hkern u1="B" u2="z" k="2" />
<hkern u1="B" u2="y" k="20" />
<hkern u1="B" u2="x" k="27" />
<hkern u1="B" u2="w" k="18" />
<hkern u1="B" u2="v" k="18" />
<hkern u1="B" u2="t" k="16" />
<hkern u1="B" u2="s" k="2" />
<hkern u1="B" u2="f" k="18" />
<hkern u1="B" u2="Z" k="12" />
<hkern u1="B" u2="Y" k="59" />
<hkern u1="B" u2="X" k="35" />
<hkern u1="B" u2="W" k="41" />
<hkern u1="B" u2="V" k="41" />
<hkern u1="B" u2="T" k="80" />
<hkern u1="B" u2="J" k="39" />
<hkern u1="B" u2="A" k="31" />
<hkern u1="B" u2="&#x37;" k="31" />
<hkern u1="B" u2="&#x33;" k="18" />
<hkern u1="C" u2="&#x2122;" k="-2" />
<hkern u1="C" u2="t" k="2" />
<hkern u1="C" u2="s" k="2" />
<hkern u1="C" u2="o" k="2" />
<hkern u1="C" u2="f" k="2" />
<hkern u1="C" u2="d" k="2" />
<hkern u1="C" u2="Y" k="33" />
<hkern u1="C" u2="X" k="12" />
<hkern u1="C" u2="W" k="23" />
<hkern u1="C" u2="V" k="23" />
<hkern u1="C" u2="T" k="20" />
<hkern u1="C" u2="S" k="12" />
<hkern u1="C" u2="O" k="16" />
<hkern u1="C" u2="A" k="20" />
<hkern u1="C" u2="&#x2a;" k="-4" />
<hkern u1="D" u2="&#x2122;" k="16" />
<hkern u1="D" u2="&#x2018;" k="14" />
<hkern u1="D" u2="&#x142;" k="-2" />
<hkern u1="D" u2="&#x141;" k="12" />
<hkern u1="D" u2="z" k="2" />
<hkern u1="D" u2="y" k="2" />
<hkern u1="D" u2="x" k="20" />
<hkern u1="D" u2="s" k="2" />
<hkern u1="D" u2="n" k="10" />
<hkern u1="D" u2="a" k="10" />
<hkern u1="D" u2="\" k="27" />
<hkern u1="D" u2="Z" k="37" />
<hkern u1="D" u2="Y" k="80" />
<hkern u1="D" u2="X" k="57" />
<hkern u1="D" u2="W" k="47" />
<hkern u1="D" u2="V" k="47" />
<hkern u1="D" u2="T" k="80" />
<hkern u1="D" u2="J" k="82" />
<hkern u1="D" u2="A" k="51" />
<hkern u1="D" u2="&#x34;" k="18" />
<hkern u1="D" u2="&#x2f;" k="35" />
<hkern u1="D" u2="&#x2e;" k="43" />
<hkern u1="D" u2="&#x29;" k="25" />
<hkern u1="D" u2="&#x27;" k="25" />
<hkern u1="E" u2="&#x2039;" k="35" />
<hkern u1="E" u2="y" k="61" />
<hkern u1="E" u2="w" k="57" />
<hkern u1="E" u2="v" k="57" />
<hkern u1="E" u2="u" k="31" />
<hkern u1="E" u2="t" k="29" />
<hkern u1="E" u2="s" k="12" />
<hkern u1="E" u2="o" k="45" />
<hkern u1="E" u2="n" k="10" />
<hkern u1="E" u2="f" k="35" />
<hkern u1="E" u2="d" k="45" />
<hkern u1="E" u2="a" k="18" />
<hkern u1="E" u2="S" k="27" />
<hkern u1="E" u2="O" k="27" />
<hkern u1="E" u2="&#x37;" k="41" />
<hkern u1="E" u2="&#x2d;" k="37" />
<hkern u1="F" u2="&#x203a;" k="45" />
<hkern u1="F" u2="&#x2039;" k="51" />
<hkern u1="F" u2="z" k="78" />
<hkern u1="F" u2="y" k="61" />
<hkern u1="F" u2="x" k="74" />
<hkern u1="F" u2="w" k="61" />
<hkern u1="F" u2="v" k="59" />
<hkern u1="F" u2="u" k="59" />
<hkern u1="F" u2="t" k="20" />
<hkern u1="F" u2="s" k="78" />
<hkern u1="F" u2="o" k="63" />
<hkern u1="F" u2="n" k="70" />
<hkern u1="F" u2="f" k="35" />
<hkern u1="F" u2="d" k="63" />
<hkern u1="F" u2="a" k="147" />
<hkern u1="F" u2="S" k="57" />
<hkern u1="F" u2="O" k="39" />
<hkern u1="F" u2="J" k="299" />
<hkern u1="F" u2="A" k="150" />
<hkern u1="F" u2="&#x40;" k="18" />
<hkern u1="F" u2="&#x3a;" k="35" />
<hkern u1="F" u2="&#x37;" k="55" />
<hkern u1="F" u2="&#x35;" k="39" />
<hkern u1="F" u2="&#x34;" k="100" />
<hkern u1="F" u2="&#x33;" k="51" />
<hkern u1="F" u2="&#x32;" k="63" />
<hkern u1="F" u2="&#x31;" k="35" />
<hkern u1="F" u2="&#x2f;" k="117" />
<hkern u1="F" u2="&#x2e;" k="176" />
<hkern u1="F" u2="&#x2d;" k="59" />
<hkern u1="F" u2="&#x2a;" k="-4" />
<hkern u1="F" u2="&#x20;" k="43" />
<hkern u1="G" u2="&#x2122;" k="16" />
<hkern u1="G" u2="y" k="25" />
<hkern u1="G" u2="w" k="25" />
<hkern u1="G" u2="v" k="25" />
<hkern u1="G" u2="t" k="10" />
<hkern u1="G" u2="f" k="12" />
<hkern u1="G" u2="\" k="2" />
<hkern u1="G" u2="Y" k="59" />
<hkern u1="G" u2="W" k="41" />
<hkern u1="G" u2="V" k="39" />
<hkern u1="G" u2="T" k="55" />
<hkern u1="G" u2="&#x27;" k="20" />
<hkern u1="I" u2="t" k="14" />
<hkern u1="I" u2="s" k="12" />
<hkern u1="I" u2="o" k="16" />
<hkern u1="I" u2="f" k="14" />
<hkern u1="I" u2="d" k="16" />
<hkern u1="I" u2="a" k="12" />
<hkern u1="J" u2="z" k="2" />
<hkern u1="J" u2="u" k="2" />
<hkern u1="J" u2="t" k="10" />
<hkern u1="J" u2="s" k="20" />
<hkern u1="J" u2="o" k="18" />
<hkern u1="J" u2="n" k="2" />
<hkern u1="J" u2="f" k="12" />
<hkern u1="J" u2="d" k="18" />
<hkern u1="J" u2="a" k="18" />
<hkern u1="J" u2="J" k="33" />
<hkern u1="J" u2="A" k="31" />
<hkern u1="J" u2="&#x2f;" k="2" />
<hkern u1="J" u2="&#x2e;" k="25" />
<hkern u1="K" u2="&#x2122;" k="-2" />
<hkern u1="K" u2="&#x2039;" k="33" />
<hkern u1="K" u2="&#x201e;" k="-4" />
<hkern u1="K" u2="&#x201a;" k="-4" />
<hkern u1="K" u2="&#xae;" k="33" />
<hkern u1="K" u2="&#xa9;" k="33" />
<hkern u1="K" u2="&#x7d;" k="-2" />
<hkern u1="K" u2="y" k="70" />
<hkern u1="K" u2="w" k="70" />
<hkern u1="K" u2="v" k="70" />
<hkern u1="K" u2="u" k="33" />
<hkern u1="K" u2="t" k="14" />
<hkern u1="K" u2="o" k="57" />
<hkern u1="K" u2="f" k="18" />
<hkern u1="K" u2="d" k="55" />
<hkern u1="K" u2="a" k="2" />
<hkern u1="K" u2="]" k="-4" />
<hkern u1="K" u2="\" k="-2" />
<hkern u1="K" u2="S" k="16" />
<hkern u1="K" u2="O" k="68" />
<hkern u1="K" u2="&#x3b;" k="-2" />
<hkern u1="K" u2="&#x34;" k="-6" />
<hkern u1="K" u2="&#x32;" k="-4" />
<hkern u1="K" u2="&#x30;" k="18" />
<hkern u1="K" u2="&#x2f;" k="-6" />
<hkern u1="K" u2="&#x2d;" k="57" />
<hkern u1="K" u2="&#x2c;" k="-4" />
<hkern u1="K" u2="&#x2a;" k="-4" />
<hkern u1="K" u2="&#x29;" k="-6" />
<hkern u1="K" u2="&#x20;" k="27" />
<hkern u1="L" u2="&#x2122;" k="238" />
<hkern u1="L" u2="&#x2039;" k="123" />
<hkern u1="L" u2="&#x2019;" k="231" />
<hkern u1="L" u2="&#x2018;" k="231" />
<hkern u1="L" u2="&#xae;" k="57" />
<hkern u1="L" u2="&#xa9;" k="57" />
<hkern u1="L" u2="y" k="184" />
<hkern u1="L" u2="w" k="172" />
<hkern u1="L" u2="v" k="170" />
<hkern u1="L" u2="u" k="29" />
<hkern u1="L" u2="t" k="29" />
<hkern u1="L" u2="o" k="59" />
<hkern u1="L" u2="f" k="16" />
<hkern u1="L" u2="d" k="61" />
<hkern u1="L" u2="\" k="184" />
<hkern u1="L" u2="Y" k="254" />
<hkern u1="L" u2="W" k="233" />
<hkern u1="L" u2="V" k="233" />
<hkern u1="L" u2="U" k="102" />
<hkern u1="L" u2="T" k="248" />
<hkern u1="L" u2="S" k="12" />
<hkern u1="L" u2="O" k="111" />
<hkern u1="L" u2="&#x3f;" k="43" />
<hkern u1="L" u2="&#x37;" k="25" />
<hkern u1="L" u2="&#x2d;" k="172" />
<hkern u1="L" u2="&#x2a;" k="236" />
<hkern u1="L" u2="&#x27;" k="225" />
<hkern u1="L" u2="&#x20;" k="53" />
<hkern u1="O" u2="&#x2122;" k="18" />
<hkern u1="O" u2="&#x2019;" k="16" />
<hkern u1="O" u2="&#x2018;" k="18" />
<hkern u1="O" u2="&#x142;" k="-2" />
<hkern u1="O" u2="&#x141;" k="12" />
<hkern u1="O" u2="z" k="2" />
<hkern u1="O" u2="y" k="10" />
<hkern u1="O" u2="x" k="23" />
<hkern u1="O" u2="s" k="2" />
<hkern u1="O" u2="n" k="10" />
<hkern u1="O" u2="i" k="10" />
<hkern u1="O" u2="a" k="12" />
<hkern u1="O" u2="\" k="31" />
<hkern u1="O" u2="Z" k="45" />
<hkern u1="O" u2="Y" k="88" />
<hkern u1="O" u2="X" k="57" />
<hkern u1="O" u2="W" k="51" />
<hkern u1="O" u2="V" k="51" />
<hkern u1="O" u2="T" k="80" />
<hkern u1="O" u2="J" k="82" />
<hkern u1="O" u2="A" k="53" />
<hkern u1="O" u2="&#x34;" k="23" />
<hkern u1="O" u2="&#x2f;" k="37" />
<hkern u1="O" u2="&#x2e;" k="49" />
<hkern u1="O" u2="&#x2a;" k="14" />
<hkern u1="O" u2="&#x29;" k="29" />
<hkern u1="O" u2="&#x27;" k="35" />
<hkern u1="P" u2="&#x2039;" k="29" />
<hkern u1="P" u2="&#x142;" k="-2" />
<hkern u1="P" u2="y" k="-2" />
<hkern u1="P" u2="x" k="-2" />
<hkern u1="P" u2="w" k="-2" />
<hkern u1="P" u2="v" k="-2" />
<hkern u1="P" u2="s" k="12" />
<hkern u1="P" u2="o" k="27" />
<hkern u1="P" u2="d" k="25" />
<hkern u1="P" u2="a" k="18" />
<hkern u1="P" u2="Z" k="20" />
<hkern u1="P" u2="Y" k="33" />
<hkern u1="P" u2="X" k="33" />
<hkern u1="P" u2="W" k="25" />
<hkern u1="P" u2="V" k="25" />
<hkern u1="P" u2="T" k="10" />
<hkern u1="P" u2="J" k="209" />
<hkern u1="P" u2="A" k="90" />
<hkern u1="P" u2="&#x35;" k="2" />
<hkern u1="P" u2="&#x34;" k="68" />
<hkern u1="P" u2="&#x2f;" k="104" />
<hkern u1="P" u2="&#x2e;" k="164" />
<hkern u1="P" u2="&#x2d;" k="37" />
<hkern u1="P" u2="&#x29;" k="2" />
<hkern u1="P" u2="&#x20;" k="55" />
<hkern u1="Q" u2="&#x201e;" k="-2" />
<hkern u1="Q" u2="&#x201a;" k="-2" />
<hkern u1="Q" u2="&#x142;" k="-2" />
<hkern u1="Q" u2="&#x7d;" k="-2" />
<hkern u1="Q" u2="y" k="2" />
<hkern u1="Q" u2="]" k="-2" />
<hkern u1="Q" u2="X" k="2" />
<hkern u1="Q" u2="J" k="2" />
<hkern u1="Q" u2="A" k="2" />
<hkern u1="Q" u2="&#x34;" k="-4" />
<hkern u1="Q" u2="&#x32;" k="-2" />
<hkern u1="Q" u2="&#x2f;" k="-4" />
<hkern u1="Q" u2="&#x2c;" k="-2" />
<hkern u1="Q" u2="&#x29;" k="-4" />
<hkern u1="R" u2="&#x2122;" k="2" />
<hkern u1="R" u2="&#x2039;" k="33" />
<hkern u1="R" u2="&#x2019;" k="2" />
<hkern u1="R" u2="&#x141;" k="2" />
<hkern u1="R" u2="y" k="2" />
<hkern u1="R" u2="w" k="2" />
<hkern u1="R" u2="v" k="2" />
<hkern u1="R" u2="u" k="16" />
<hkern u1="R" u2="t" k="2" />
<hkern u1="R" u2="s" k="12" />
<hkern u1="R" u2="o" k="39" />
<hkern u1="R" u2="n" k="14" />
<hkern u1="R" u2="l" k="10" />
<hkern u1="R" u2="i" k="14" />
<hkern u1="R" u2="h" k="10" />
<hkern u1="R" u2="f" k="2" />
<hkern u1="R" u2="d" k="37" />
<hkern u1="R" u2="a" k="18" />
<hkern u1="R" u2="\" k="4" />
<hkern u1="R" u2="Y" k="47" />
<hkern u1="R" u2="W" k="35" />
<hkern u1="R" u2="V" k="35" />
<hkern u1="R" u2="U" k="2" />
<hkern u1="R" u2="T" k="35" />
<hkern u1="R" u2="O" k="2" />
<hkern u1="R" u2="A" k="20" />
<hkern u1="R" u2="&#x34;" k="-2" />
<hkern u1="R" u2="&#x2f;" k="-2" />
<hkern u1="R" u2="&#x2d;" k="18" />
<hkern u1="R" u2="&#x29;" k="-2" />
<hkern u1="S" u2="z" k="2" />
<hkern u1="S" u2="y" k="47" />
<hkern u1="S" u2="x" k="16" />
<hkern u1="S" u2="w" k="47" />
<hkern u1="S" u2="v" k="47" />
<hkern u1="S" u2="u" k="2" />
<hkern u1="S" u2="t" k="20" />
<hkern u1="S" u2="s" k="2" />
<hkern u1="S" u2="n" k="2" />
<hkern u1="S" u2="f" k="20" />
<hkern u1="S" u2="Y" k="39" />
<hkern u1="S" u2="X" k="18" />
<hkern u1="S" u2="W" k="33" />
<hkern u1="S" u2="V" k="33" />
<hkern u1="S" u2="T" k="23" />
<hkern u1="S" u2="A" k="29" />
<hkern u1="S" u2="&#x37;" k="27" />
<hkern u1="T" u2="&#x203a;" k="133" />
<hkern u1="T" u2="&#x2039;" k="145" />
<hkern u1="T" u2="&#xae;" k="61" />
<hkern u1="T" u2="&#xa9;" k="61" />
<hkern u1="T" u2="z" k="186" />
<hkern u1="T" u2="y" k="182" />
<hkern u1="T" u2="x" k="170" />
<hkern u1="T" u2="w" k="186" />
<hkern u1="T" u2="v" k="186" />
<hkern u1="T" u2="u" k="227" />
<hkern u1="T" u2="t" k="25" />
<hkern u1="T" u2="s" k="223" />
<hkern u1="T" u2="o" k="233" />
<hkern u1="T" u2="n" k="225" />
<hkern u1="T" u2="f" k="59" />
<hkern u1="T" u2="d" k="231" />
<hkern u1="T" u2="a" k="221" />
<hkern u1="T" u2="S" k="20" />
<hkern u1="T" u2="O" k="80" />
<hkern u1="T" u2="J" k="231" />
<hkern u1="T" u2="A" k="152" />
<hkern u1="T" u2="&#x40;" k="135" />
<hkern u1="T" u2="&#x3a;" k="119" />
<hkern u1="T" u2="&#x39;" k="133" />
<hkern u1="T" u2="&#x38;" k="18" />
<hkern u1="T" u2="&#x37;" k="92" />
<hkern u1="T" u2="&#x36;" k="39" />
<hkern u1="T" u2="&#x35;" k="135" />
<hkern u1="T" u2="&#x34;" k="143" />
<hkern u1="T" u2="&#x33;" k="131" />
<hkern u1="T" u2="&#x32;" k="123" />
<hkern u1="T" u2="&#x31;" k="129" />
<hkern u1="T" u2="&#x30;" k="131" />
<hkern u1="T" u2="&#x2f;" k="131" />
<hkern u1="T" u2="&#x2e;" k="147" />
<hkern u1="T" u2="&#x2d;" k="143" />
<hkern u1="T" u2="&#x2a;" k="-25" />
<hkern u1="T" u2="&#x26;" k="23" />
<hkern u1="T" u2="&#x20;" k="53" />
<hkern u1="U" u2="z" k="10" />
<hkern u1="U" u2="u" k="16" />
<hkern u1="U" u2="t" k="10" />
<hkern u1="U" u2="s" k="27" />
<hkern u1="U" u2="o" k="23" />
<hkern u1="U" u2="n" k="10" />
<hkern u1="U" u2="l" k="14" />
<hkern u1="U" u2="i" k="12" />
<hkern u1="U" u2="h" k="12" />
<hkern u1="U" u2="f" k="12" />
<hkern u1="U" u2="d" k="23" />
<hkern u1="U" u2="a" k="27" />
<hkern u1="U" u2="J" k="63" />
<hkern u1="U" u2="A" k="61" />
<hkern u1="U" u2="&#x34;" k="27" />
<hkern u1="U" u2="&#x2f;" k="37" />
<hkern u1="U" u2="&#x2e;" k="43" />
<hkern u1="V" u2="&#x2122;" k="-4" />
<hkern u1="V" u2="&#x203a;" k="63" />
<hkern u1="V" u2="&#x2039;" k="94" />
<hkern u1="V" u2="&#x2019;" k="-2" />
<hkern u1="V" u2="&#x142;" k="12" />
<hkern u1="V" u2="&#x141;" k="12" />
<hkern u1="V" u2="&#xae;" k="47" />
<hkern u1="V" u2="&#xa9;" k="47" />
<hkern u1="V" u2="z" k="27" />
<hkern u1="V" u2="y" k="31" />
<hkern u1="V" u2="x" k="27" />
<hkern u1="V" u2="w" k="33" />
<hkern u1="V" u2="v" k="35" />
<hkern u1="V" u2="u" k="78" />
<hkern u1="V" u2="t" k="16" />
<hkern u1="V" u2="s" k="100" />
<hkern u1="V" u2="o" k="129" />
<hkern u1="V" u2="n" k="78" />
<hkern u1="V" u2="f" k="41" />
<hkern u1="V" u2="d" k="127" />
<hkern u1="V" u2="a" k="102" />
<hkern u1="V" u2="\" k="-4" />
<hkern u1="V" u2="S" k="33" />
<hkern u1="V" u2="O" k="51" />
<hkern u1="V" u2="J" k="176" />
<hkern u1="V" u2="A" k="115" />
<hkern u1="V" u2="&#x40;" k="82" />
<hkern u1="V" u2="&#x3a;" k="29" />
<hkern u1="V" u2="&#x39;" k="61" />
<hkern u1="V" u2="&#x38;" k="37" />
<hkern u1="V" u2="&#x36;" k="43" />
<hkern u1="V" u2="&#x35;" k="72" />
<hkern u1="V" u2="&#x34;" k="137" />
<hkern u1="V" u2="&#x33;" k="49" />
<hkern u1="V" u2="&#x32;" k="45" />
<hkern u1="V" u2="&#x31;" k="39" />
<hkern u1="V" u2="&#x30;" k="68" />
<hkern u1="V" u2="&#x2f;" k="131" />
<hkern u1="V" u2="&#x2e;" k="160" />
<hkern u1="V" u2="&#x2d;" k="94" />
<hkern u1="V" u2="&#x2a;" k="-6" />
<hkern u1="V" u2="&#x29;" k="-4" />
<hkern u1="V" u2="&#x26;" k="43" />
<hkern u1="V" u2="&#x20;" k="72" />
<hkern u1="W" u2="&#x2122;" k="-4" />
<hkern u1="W" u2="&#x203a;" k="63" />
<hkern u1="W" u2="&#x2039;" k="94" />
<hkern u1="W" u2="&#x2019;" k="-2" />
<hkern u1="W" u2="&#x2018;" k="-2" />
<hkern u1="W" u2="&#x142;" k="12" />
<hkern u1="W" u2="&#x141;" k="12" />
<hkern u1="W" u2="&#xae;" k="47" />
<hkern u1="W" u2="&#xa9;" k="47" />
<hkern u1="W" u2="z" k="27" />
<hkern u1="W" u2="y" k="31" />
<hkern u1="W" u2="x" k="27" />
<hkern u1="W" u2="w" k="33" />
<hkern u1="W" u2="v" k="35" />
<hkern u1="W" u2="u" k="78" />
<hkern u1="W" u2="t" k="16" />
<hkern u1="W" u2="s" k="102" />
<hkern u1="W" u2="o" k="129" />
<hkern u1="W" u2="n" k="78" />
<hkern u1="W" u2="f" k="41" />
<hkern u1="W" u2="d" k="129" />
<hkern u1="W" u2="a" k="102" />
<hkern u1="W" u2="]" k="-2" />
<hkern u1="W" u2="\" k="-4" />
<hkern u1="W" u2="S" k="33" />
<hkern u1="W" u2="O" k="51" />
<hkern u1="W" u2="J" k="176" />
<hkern u1="W" u2="A" k="115" />
<hkern u1="W" u2="&#x40;" k="82" />
<hkern u1="W" u2="&#x3a;" k="29" />
<hkern u1="W" u2="&#x39;" k="63" />
<hkern u1="W" u2="&#x38;" k="37" />
<hkern u1="W" u2="&#x36;" k="43" />
<hkern u1="W" u2="&#x35;" k="72" />
<hkern u1="W" u2="&#x34;" k="139" />
<hkern u1="W" u2="&#x33;" k="49" />
<hkern u1="W" u2="&#x32;" k="45" />
<hkern u1="W" u2="&#x31;" k="39" />
<hkern u1="W" u2="&#x30;" k="68" />
<hkern u1="W" u2="&#x2f;" k="133" />
<hkern u1="W" u2="&#x2e;" k="160" />
<hkern u1="W" u2="&#x2d;" k="94" />
<hkern u1="W" u2="&#x2a;" k="-6" />
<hkern u1="W" u2="&#x29;" k="-4" />
<hkern u1="W" u2="&#x26;" k="43" />
<hkern u1="W" u2="&#x20;" k="72" />
<hkern u1="X" u2="&#x2122;" k="-14" />
<hkern u1="X" u2="&#x2039;" k="39" />
<hkern u1="X" u2="&#x2019;" k="-2" />
<hkern u1="X" u2="&#x2018;" k="-2" />
<hkern u1="X" u2="&#xae;" k="31" />
<hkern u1="X" u2="&#xa9;" k="31" />
<hkern u1="X" u2="&#x7d;" k="-2" />
<hkern u1="X" u2="y" k="59" />
<hkern u1="X" u2="w" k="61" />
<hkern u1="X" u2="v" k="61" />
<hkern u1="X" u2="u" k="43" />
<hkern u1="X" u2="t" k="4" />
<hkern u1="X" u2="o" k="70" />
<hkern u1="X" u2="n" k="10" />
<hkern u1="X" u2="f" k="18" />
<hkern u1="X" u2="d" k="68" />
<hkern u1="X" u2="a" k="2" />
<hkern u1="X" u2="]" k="-2" />
<hkern u1="X" u2="\" k="-4" />
<hkern u1="X" u2="S" k="16" />
<hkern u1="X" u2="O" k="57" />
<hkern u1="X" u2="&#x34;" k="-2" />
<hkern u1="X" u2="&#x30;" k="25" />
<hkern u1="X" u2="&#x2f;" k="-2" />
<hkern u1="X" u2="&#x2d;" k="61" />
<hkern u1="X" u2="&#x2a;" k="-6" />
<hkern u1="X" u2="&#x29;" k="-4" />
<hkern u1="X" u2="&#x20;" k="23" />
<hkern u1="Y" u2="&#x2122;" k="-4" />
<hkern u1="Y" u2="&#x203a;" k="102" />
<hkern u1="Y" u2="&#x2039;" k="143" />
<hkern u1="Y" u2="&#x2019;" k="-2" />
<hkern u1="Y" u2="&#x2018;" k="-2" />
<hkern u1="Y" u2="&#x141;" k="14" />
<hkern u1="Y" u2="&#xae;" k="74" />
<hkern u1="Y" u2="&#xa9;" k="74" />
<hkern u1="Y" u2="&#x7d;" k="-2" />
<hkern u1="Y" u2="z" k="72" />
<hkern u1="Y" u2="y" k="84" />
<hkern u1="Y" u2="x" k="76" />
<hkern u1="Y" u2="w" k="88" />
<hkern u1="Y" u2="v" k="90" />
<hkern u1="Y" u2="u" k="133" />
<hkern u1="Y" u2="t" k="31" />
<hkern u1="Y" u2="s" k="182" />
<hkern u1="Y" u2="o" k="184" />
<hkern u1="Y" u2="n" k="141" />
<hkern u1="Y" u2="f" k="68" />
<hkern u1="Y" u2="d" k="180" />
<hkern u1="Y" u2="a" k="180" />
<hkern u1="Y" u2="]" k="-2" />
<hkern u1="Y" u2="\" k="-4" />
<hkern u1="Y" u2="S" k="41" />
<hkern u1="Y" u2="O" k="86" />
<hkern u1="Y" u2="J" k="197" />
<hkern u1="Y" u2="A" k="154" />
<hkern u1="Y" u2="&#x40;" k="123" />
<hkern u1="Y" u2="&#x3a;" k="55" />
<hkern u1="Y" u2="&#x39;" k="98" />
<hkern u1="Y" u2="&#x38;" k="49" />
<hkern u1="Y" u2="&#x36;" k="61" />
<hkern u1="Y" u2="&#x35;" k="94" />
<hkern u1="Y" u2="&#x34;" k="162" />
<hkern u1="Y" u2="&#x33;" k="80" />
<hkern u1="Y" u2="&#x32;" k="78" />
<hkern u1="Y" u2="&#x31;" k="76" />
<hkern u1="Y" u2="&#x30;" k="102" />
<hkern u1="Y" u2="&#x2f;" k="143" />
<hkern u1="Y" u2="&#x2e;" k="172" />
<hkern u1="Y" u2="&#x2d;" k="152" />
<hkern u1="Y" u2="&#x2a;" k="-6" />
<hkern u1="Y" u2="&#x29;" k="-4" />
<hkern u1="Y" u2="&#x26;" k="55" />
<hkern u1="Y" u2="&#x20;" k="78" />
<hkern u1="Z" u2="&#x2039;" k="27" />
<hkern u1="Z" u2="&#xae;" k="33" />
<hkern u1="Z" u2="&#xa9;" k="33" />
<hkern u1="Z" u2="y" k="51" />
<hkern u1="Z" u2="w" k="51" />
<hkern u1="Z" u2="v" k="53" />
<hkern u1="Z" u2="u" k="35" />
<hkern u1="Z" u2="t" k="16" />
<hkern u1="Z" u2="o" k="39" />
<hkern u1="Z" u2="n" k="16" />
<hkern u1="Z" u2="f" k="23" />
<hkern u1="Z" u2="d" k="39" />
<hkern u1="Z" u2="a" k="10" />
<hkern u1="Z" u2="O" k="43" />
<hkern u1="Z" u2="&#x30;" k="18" />
<hkern u1="Z" u2="&#x2d;" k="39" />
<hkern u1="[" u2="j" k="-6" />
<hkern u1="[" u2="Y" k="-2" />
<hkern u1="[" u2="X" k="-2" />
<hkern u1="[" u2="W" k="-2" />
<hkern u1="\" u2="&#x2019;" k="174" />
<hkern u1="\" u2="y" k="74" />
<hkern u1="\" u2="x" k="-2" />
<hkern u1="\" u2="w" k="72" />
<hkern u1="\" u2="v" k="70" />
<hkern u1="\" u2="t" k="2" />
<hkern u1="\" u2="Y" k="141" />
<hkern u1="\" u2="X" k="-2" />
<hkern u1="\" u2="W" k="131" />
<hkern u1="\" u2="V" k="129" />
<hkern u1="\" u2="U" k="35" />
<hkern u1="\" u2="T" k="131" />
<hkern u1="\" u2="O" k="37" />
<hkern u1="\" u2="J" k="-2" />
<hkern u1="\" u2="A" k="-2" />
<hkern u1="\" u2="&#x37;" k="37" />
<hkern u1="\" u2="&#x36;" k="2" />
<hkern u1="\" u2="&#x30;" k="2" />
<hkern u1="\" u2="&#x27;" k="182" />
<hkern u1="a" u2="&#x2122;" k="53" />
<hkern u1="a" u2="&#x2019;" k="41" />
<hkern u1="a" u2="&#x2018;" k="43" />
<hkern u1="a" u2="y" k="33" />
<hkern u1="a" u2="w" k="33" />
<hkern u1="a" u2="v" k="35" />
<hkern u1="a" u2="t" k="12" />
<hkern u1="a" u2="\" k="74" />
<hkern u1="a" u2="Z" k="10" />
<hkern u1="a" u2="Y" k="176" />
<hkern u1="a" u2="W" k="113" />
<hkern u1="a" u2="V" k="113" />
<hkern u1="a" u2="U" k="18" />
<hkern u1="a" u2="T" k="238" />
<hkern u1="a" u2="S" k="10" />
<hkern u1="a" u2="O" k="12" />
<hkern u1="a" u2="&#x3f;" k="33" />
<hkern u1="a" u2="&#x2a;" k="51" />
<hkern u1="a" u2="&#x27;" k="31" />
<hkern u1="b" u2="&#x2122;" k="70" />
<hkern u1="b" u2="&#x2019;" k="135" />
<hkern u1="b" u2="&#x2018;" k="141" />
<hkern u1="b" u2="&#x142;" k="-2" />
<hkern u1="b" u2="z" k="27" />
<hkern u1="b" u2="y" k="39" />
<hkern u1="b" u2="x" k="39" />
<hkern u1="b" u2="w" k="39" />
<hkern u1="b" u2="v" k="39" />
<hkern u1="b" u2="t" k="14" />
<hkern u1="b" u2="f" k="8" />
<hkern u1="b" u2="\" k="76" />
<hkern u1="b" u2="Z" k="45" />
<hkern u1="b" u2="Y" k="180" />
<hkern u1="b" u2="X" k="70" />
<hkern u1="b" u2="W" k="129" />
<hkern u1="b" u2="V" k="129" />
<hkern u1="b" u2="U" k="23" />
<hkern u1="b" u2="T" k="231" />
<hkern u1="b" u2="S" k="14" />
<hkern u1="b" u2="J" k="53" />
<hkern u1="b" u2="I" k="16" />
<hkern u1="b" u2="A" k="35" />
<hkern u1="b" u2="&#x3f;" k="37" />
<hkern u1="b" u2="&#x2e;" k="14" />
<hkern u1="b" u2="&#x2a;" k="102" />
<hkern u1="b" u2="&#x29;" k="35" />
<hkern u1="b" u2="&#x27;" k="176" />
<hkern u1="c" u2="&#x2122;" k="41" />
<hkern u1="c" u2="&#x2039;" k="33" />
<hkern u1="c" u2="&#x2019;" k="35" />
<hkern u1="c" u2="&#x2018;" k="37" />
<hkern u1="c" u2="y" k="20" />
<hkern u1="c" u2="x" k="8" />
<hkern u1="c" u2="w" k="18" />
<hkern u1="c" u2="v" k="16" />
<hkern u1="c" u2="s" k="10" />
<hkern u1="c" u2="o" k="12" />
<hkern u1="c" u2="d" k="12" />
<hkern u1="c" u2="\" k="55" />
<hkern u1="c" u2="Y" k="164" />
<hkern u1="c" u2="X" k="2" />
<hkern u1="c" u2="W" k="115" />
<hkern u1="c" u2="V" k="115" />
<hkern u1="c" u2="U" k="16" />
<hkern u1="c" u2="T" k="213" />
<hkern u1="c" u2="S" k="16" />
<hkern u1="c" u2="O" k="10" />
<hkern u1="c" u2="A" k="10" />
<hkern u1="c" u2="&#x3f;" k="18" />
<hkern u1="c" u2="&#x2d;" k="43" />
<hkern u1="c" u2="&#x2a;" k="41" />
<hkern u1="c" u2="&#x27;" k="23" />
<hkern u1="d" u2="w" k="2" />
<hkern u1="d" u2="v" k="2" />
<hkern u1="d" u2="Y" k="2" />
<hkern u1="d" u2="W" k="2" />
<hkern u1="d" u2="V" k="2" />
<hkern u1="d" u2="U" k="14" />
<hkern u1="d" u2="T" k="2" />
<hkern u1="d" u2="O" k="10" />
<hkern u1="e" u2="&#x2122;" k="55" />
<hkern u1="e" u2="&#x2019;" k="51" />
<hkern u1="e" u2="&#x2018;" k="57" />
<hkern u1="e" u2="&#x142;" k="-2" />
<hkern u1="e" u2="z" k="18" />
<hkern u1="e" u2="y" k="33" />
<hkern u1="e" u2="x" k="41" />
<hkern u1="e" u2="w" k="31" />
<hkern u1="e" u2="v" k="31" />
<hkern u1="e" u2="t" k="10" />
<hkern u1="e" u2="\" k="72" />
<hkern u1="e" u2="Z" k="35" />
<hkern u1="e" u2="Y" k="213" />
<hkern u1="e" u2="X" k="39" />
<hkern u1="e" u2="W" k="119" />
<hkern u1="e" u2="V" k="119" />
<hkern u1="e" u2="U" k="14" />
<hkern u1="e" u2="T" k="223" />
<hkern u1="e" u2="S" k="10" />
<hkern u1="e" u2="J" k="39" />
<hkern u1="e" u2="I" k="12" />
<hkern u1="e" u2="A" k="27" />
<hkern u1="e" u2="&#x3f;" k="35" />
<hkern u1="e" u2="&#x2a;" k="61" />
<hkern u1="e" u2="&#x29;" k="29" />
<hkern u1="e" u2="&#x27;" k="43" />
<hkern u1="f" u2="&#x2122;" k="-47" />
<hkern u1="f" u2="&#x2039;" k="61" />
<hkern u1="f" u2="&#x2019;" k="-2" />
<hkern u1="f" u2="&#x2018;" k="-2" />
<hkern u1="f" u2="&#x142;" k="-4" />
<hkern u1="f" u2="&#x7d;" k="-18" />
<hkern u1="f" u2="z" k="10" />
<hkern u1="f" u2="o" k="18" />
<hkern u1="f" u2="d" k="16" />
<hkern u1="f" u2="a" k="16" />
<hkern u1="f" u2="]" k="-20" />
<hkern u1="f" u2="\" k="-43" />
<hkern u1="f" u2="Z" k="-23" />
<hkern u1="f" u2="Y" k="-63" />
<hkern u1="f" u2="X" k="-74" />
<hkern u1="f" u2="W" k="-53" />
<hkern u1="f" u2="V" k="-53" />
<hkern u1="f" u2="T" k="-49" />
<hkern u1="f" u2="J" k="125" />
<hkern u1="f" u2="A" k="82" />
<hkern u1="f" u2="&#x2f;" k="59" />
<hkern u1="f" u2="&#x2e;" k="72" />
<hkern u1="f" u2="&#x2d;" k="74" />
<hkern u1="f" u2="&#x2a;" k="-23" />
<hkern u1="f" u2="&#x29;" k="-37" />
<hkern u1="f" u2="&#x20;" k="33" />
<hkern u1="g" u2="j" k="-82" />
<hkern u1="g" u2="Z" k="14" />
<hkern u1="g" u2="Y" k="141" />
<hkern u1="g" u2="X" k="10" />
<hkern u1="g" u2="W" k="80" />
<hkern u1="g" u2="V" k="78" />
<hkern u1="g" u2="U" k="10" />
<hkern u1="g" u2="T" k="225" />
<hkern u1="g" u2="O" k="10" />
<hkern u1="h" u2="&#x2122;" k="59" />
<hkern u1="h" u2="&#x2019;" k="106" />
<hkern u1="h" u2="&#x2018;" k="111" />
<hkern u1="h" u2="y" k="25" />
<hkern u1="h" u2="w" k="27" />
<hkern u1="h" u2="v" k="25" />
<hkern u1="h" u2="t" k="10" />
<hkern u1="h" u2="\" k="68" />
<hkern u1="h" u2="Z" k="14" />
<hkern u1="h" u2="Y" k="166" />
<hkern u1="h" u2="X" k="2" />
<hkern u1="h" u2="W" k="109" />
<hkern u1="h" u2="V" k="109" />
<hkern u1="h" u2="U" k="16" />
<hkern u1="h" u2="T" k="236" />
<hkern u1="h" u2="S" k="10" />
<hkern u1="h" u2="O" k="10" />
<hkern u1="h" u2="&#x3f;" k="33" />
<hkern u1="h" u2="&#x2a;" k="78" />
<hkern u1="h" u2="&#x27;" k="166" />
<hkern u1="i" u2="Z" k="12" />
<hkern u1="i" u2="U" k="12" />
<hkern u1="j" u2="j" k="-59" />
<hkern u1="k" u2="&#x2039;" k="66" />
<hkern u1="k" u2="&#x201e;" k="-2" />
<hkern u1="k" u2="&#x201a;" k="-2" />
<hkern u1="k" u2="&#x2019;" k="23" />
<hkern u1="k" u2="&#x2018;" k="33" />
<hkern u1="k" u2="s" k="10" />
<hkern u1="k" u2="o" k="49" />
<hkern u1="k" u2="d" k="49" />
<hkern u1="k" u2="a" k="16" />
<hkern u1="k" u2="Y" k="78" />
<hkern u1="k" u2="W" k="27" />
<hkern u1="k" u2="V" k="27" />
<hkern u1="k" u2="U" k="2" />
<hkern u1="k" u2="T" k="174" />
<hkern u1="k" u2="O" k="25" />
<hkern u1="k" u2="&#x2f;" k="-4" />
<hkern u1="k" u2="&#x2d;" k="78" />
<hkern u1="k" u2="&#x2c;" k="-2" />
<hkern u1="k" u2="&#x2a;" k="-4" />
<hkern u1="k" u2="&#x29;" k="-4" />
<hkern u1="k" u2="&#x27;" k="109" />
<hkern u1="l" u2="&#x2122;" k="35" />
<hkern u1="l" u2="&#x2039;" k="41" />
<hkern u1="l" u2="&#x2019;" k="37" />
<hkern u1="l" u2="&#x2018;" k="37" />
<hkern u1="l" u2="&#xae;" k="18" />
<hkern u1="l" u2="&#xa9;" k="18" />
<hkern u1="l" u2="y" k="23" />
<hkern u1="l" u2="w" k="27" />
<hkern u1="l" u2="v" k="25" />
<hkern u1="l" u2="t" k="4" />
<hkern u1="l" u2="f" k="2" />
<hkern u1="l" u2="\" k="23" />
<hkern u1="l" u2="Y" k="35" />
<hkern u1="l" u2="W" k="33" />
<hkern u1="l" u2="V" k="31" />
<hkern u1="l" u2="U" k="25" />
<hkern u1="l" u2="T" k="35" />
<hkern u1="l" u2="O" k="23" />
<hkern u1="l" u2="I" k="2" />
<hkern u1="l" u2="&#x2f;" k="-31" />
<hkern u1="l" u2="&#x2d;" k="39" />
<hkern u1="l" u2="&#x2a;" k="39" />
<hkern u1="l" u2="&#x29;" k="-12" />
<hkern u1="l" u2="&#x27;" k="33" />
<hkern u1="l" u2="&#x20;" k="61" />
<hkern u1="n" u2="&#x2122;" k="45" />
<hkern u1="n" u2="&#x2019;" k="29" />
<hkern u1="n" u2="&#x2018;" k="31" />
<hkern u1="n" u2="y" k="23" />
<hkern u1="n" u2="w" k="23" />
<hkern u1="n" u2="v" k="23" />
<hkern u1="n" u2="t" k="10" />
<hkern u1="n" u2="\" k="63" />
<hkern u1="n" u2="Z" k="14" />
<hkern u1="n" u2="Y" k="160" />
<hkern u1="n" u2="X" k="2" />
<hkern u1="n" u2="W" k="109" />
<hkern u1="n" u2="V" k="109" />
<hkern u1="n" u2="U" k="16" />
<hkern u1="n" u2="T" k="233" />
<hkern u1="n" u2="S" k="10" />
<hkern u1="n" u2="O" k="10" />
<hkern u1="n" u2="&#x3f;" k="27" />
<hkern u1="n" u2="&#x2a;" k="39" />
<hkern u1="n" u2="&#x27;" k="18" />
<hkern u1="o" u2="&#x2122;" k="59" />
<hkern u1="o" u2="&#x2019;" k="57" />
<hkern u1="o" u2="&#x2018;" k="61" />
<hkern u1="o" u2="&#x142;" k="-2" />
<hkern u1="o" u2="z" k="29" />
<hkern u1="o" u2="y" k="41" />
<hkern u1="o" u2="x" k="39" />
<hkern u1="o" u2="w" k="39" />
<hkern u1="o" u2="v" k="39" />
<hkern u1="o" u2="t" k="16" />
<hkern u1="o" u2="f" k="8" />
<hkern u1="o" u2="\" k="74" />
<hkern u1="o" u2="Z" k="45" />
<hkern u1="o" u2="Y" k="184" />
<hkern u1="o" u2="X" k="70" />
<hkern u1="o" u2="W" k="129" />
<hkern u1="o" u2="V" k="129" />
<hkern u1="o" u2="U" k="23" />
<hkern u1="o" u2="T" k="233" />
<hkern u1="o" u2="S" k="14" />
<hkern u1="o" u2="J" k="51" />
<hkern u1="o" u2="I" k="16" />
<hkern u1="o" u2="A" k="35" />
<hkern u1="o" u2="&#x3f;" k="35" />
<hkern u1="o" u2="&#x2a;" k="68" />
<hkern u1="o" u2="&#x29;" k="35" />
<hkern u1="o" u2="&#x27;" k="47" />
<hkern u1="p" u2="&#x142;" k="-2" />
<hkern u1="q" u2="&#x201e;" k="-2" />
<hkern u1="q" u2="&#x201a;" k="-2" />
<hkern u1="q" u2="j" k="-166" />
<hkern u1="q" u2="Z" k="14" />
<hkern u1="q" u2="Y" k="141" />
<hkern u1="q" u2="X" k="10" />
<hkern u1="q" u2="W" k="80" />
<hkern u1="q" u2="V" k="78" />
<hkern u1="q" u2="U" k="10" />
<hkern u1="q" u2="T" k="225" />
<hkern u1="q" u2="O" k="10" />
<hkern u1="q" u2="&#x3b;" k="-2" />
<hkern u1="q" u2="&#x2c;" k="-2" />
<hkern u1="r" u2="&#x203a;" k="37" />
<hkern u1="r" u2="&#x2039;" k="98" />
<hkern u1="r" u2="&#x142;" k="-2" />
<hkern u1="r" u2="s" k="12" />
<hkern u1="r" u2="o" k="59" />
<hkern u1="r" u2="d" k="59" />
<hkern u1="r" u2="a" k="23" />
<hkern u1="r" u2="Z" k="57" />
<hkern u1="r" u2="Y" k="59" />
<hkern u1="r" u2="X" k="53" />
<hkern u1="r" u2="W" k="16" />
<hkern u1="r" u2="V" k="16" />
<hkern u1="r" u2="T" k="158" />
<hkern u1="r" u2="J" k="174" />
<hkern u1="r" u2="A" k="92" />
<hkern u1="r" u2="&#x40;" k="33" />
<hkern u1="r" u2="&#x2f;" k="80" />
<hkern u1="r" u2="&#x2e;" k="100" />
<hkern u1="r" u2="&#x2d;" k="98" />
<hkern u1="r" u2="&#x29;" k="2" />
<hkern u1="r" u2="&#x20;" k="47" />
<hkern u1="s" u2="&#x2122;" k="33" />
<hkern u1="s" u2="&#x2019;" k="14" />
<hkern u1="s" u2="&#x2018;" k="16" />
<hkern u1="s" u2="y" k="27" />
<hkern u1="s" u2="x" k="12" />
<hkern u1="s" u2="w" k="25" />
<hkern u1="s" u2="v" k="23" />
<hkern u1="s" u2="\" k="51" />
<hkern u1="s" u2="Z" k="10" />
<hkern u1="s" u2="Y" k="154" />
<hkern u1="s" u2="X" k="2" />
<hkern u1="s" u2="W" k="94" />
<hkern u1="s" u2="V" k="92" />
<hkern u1="s" u2="U" k="23" />
<hkern u1="s" u2="T" k="215" />
<hkern u1="s" u2="O" k="2" />
<hkern u1="s" u2="I" k="12" />
<hkern u1="s" u2="A" k="18" />
<hkern u1="s" u2="&#x2d;" k="20" />
<hkern u1="s" u2="&#x2a;" k="23" />
<hkern u1="t" u2="&#x2122;" k="2" />
<hkern u1="t" u2="&#x2039;" k="53" />
<hkern u1="t" u2="&#x2019;" k="16" />
<hkern u1="t" u2="&#x2018;" k="18" />
<hkern u1="t" u2="o" k="25" />
<hkern u1="t" u2="d" k="25" />
<hkern u1="t" u2="\" k="25" />
<hkern u1="t" u2="Y" k="92" />
<hkern u1="t" u2="W" k="49" />
<hkern u1="t" u2="V" k="47" />
<hkern u1="t" u2="U" k="20" />
<hkern u1="t" u2="T" k="121" />
<hkern u1="t" u2="O" k="18" />
<hkern u1="t" u2="&#x2d;" k="37" />
<hkern u1="t" u2="&#x27;" k="39" />
<hkern u1="u" u2="&#x2122;" k="27" />
<hkern u1="u" u2="&#x2019;" k="2" />
<hkern u1="u" u2="&#x2018;" k="2" />
<hkern u1="u" u2="w" k="2" />
<hkern u1="u" u2="v" k="2" />
<hkern u1="u" u2="\" k="47" />
<hkern u1="u" u2="Z" k="10" />
<hkern u1="u" u2="Y" k="145" />
<hkern u1="u" u2="W" k="80" />
<hkern u1="u" u2="V" k="80" />
<hkern u1="u" u2="U" k="14" />
<hkern u1="u" u2="T" k="227" />
<hkern u1="u" u2="O" k="10" />
<hkern u1="u" u2="&#x2a;" k="2" />
<hkern u1="v" u2="&#x2039;" k="57" />
<hkern u1="v" u2="&#x142;" k="16" />
<hkern u1="v" u2="s" k="27" />
<hkern u1="v" u2="o" k="39" />
<hkern u1="v" u2="d" k="37" />
<hkern u1="v" u2="a" k="29" />
<hkern u1="v" u2="\" k="29" />
<hkern u1="v" u2="Z" k="55" />
<hkern u1="v" u2="Y" k="92" />
<hkern u1="v" u2="X" k="61" />
<hkern u1="v" u2="W" k="35" />
<hkern u1="v" u2="V" k="35" />
<hkern u1="v" u2="T" k="186" />
<hkern u1="v" u2="J" k="168" />
<hkern u1="v" u2="A" k="70" />
<hkern u1="v" u2="&#x40;" k="18" />
<hkern u1="v" u2="&#x2f;" k="72" />
<hkern u1="v" u2="&#x2e;" k="104" />
<hkern u1="v" u2="&#x2d;" k="51" />
<hkern u1="v" u2="&#x2a;" k="-4" />
<hkern u1="v" u2="&#x29;" k="29" />
<hkern u1="v" u2="&#x20;" k="57" />
<hkern u1="w" u2="&#x2039;" k="57" />
<hkern u1="w" u2="&#x142;" k="18" />
<hkern u1="w" u2="s" k="27" />
<hkern u1="w" u2="o" k="39" />
<hkern u1="w" u2="d" k="39" />
<hkern u1="w" u2="a" k="29" />
<hkern u1="w" u2="\" k="31" />
<hkern u1="w" u2="Z" k="55" />
<hkern u1="w" u2="Y" k="90" />
<hkern u1="w" u2="X" k="61" />
<hkern u1="w" u2="W" k="33" />
<hkern u1="w" u2="V" k="33" />
<hkern u1="w" u2="T" k="186" />
<hkern u1="w" u2="J" k="172" />
<hkern u1="w" u2="A" k="70" />
<hkern u1="w" u2="&#x40;" k="18" />
<hkern u1="w" u2="&#x2f;" k="74" />
<hkern u1="w" u2="&#x2e;" k="106" />
<hkern u1="w" u2="&#x2d;" k="53" />
<hkern u1="w" u2="&#x2a;" k="-4" />
<hkern u1="w" u2="&#x29;" k="31" />
<hkern u1="w" u2="&#x20;" k="57" />
<hkern u1="x" u2="&#x2039;" k="63" />
<hkern u1="x" u2="s" k="10" />
<hkern u1="x" u2="o" k="39" />
<hkern u1="x" u2="d" k="39" />
<hkern u1="x" u2="a" k="18" />
<hkern u1="x" u2="Y" k="76" />
<hkern u1="x" u2="W" k="27" />
<hkern u1="x" u2="V" k="27" />
<hkern u1="x" u2="T" k="170" />
<hkern u1="x" u2="O" k="23" />
<hkern u1="x" u2="&#x2f;" k="-2" />
<hkern u1="x" u2="&#x2d;" k="72" />
<hkern u1="x" u2="&#x2a;" k="-4" />
<hkern u1="x" u2="&#x29;" k="-2" />
<hkern u1="y" u2="&#x2039;" k="61" />
<hkern u1="y" u2="&#x142;" k="16" />
<hkern u1="y" u2="s" k="29" />
<hkern u1="y" u2="o" k="43" />
<hkern u1="y" u2="d" k="41" />
<hkern u1="y" u2="a" k="31" />
<hkern u1="y" u2="\" k="33" />
<hkern u1="y" u2="Z" k="61" />
<hkern u1="y" u2="Y" k="96" />
<hkern u1="y" u2="X" k="68" />
<hkern u1="y" u2="W" k="39" />
<hkern u1="y" u2="V" k="39" />
<hkern u1="y" u2="T" k="190" />
<hkern u1="y" u2="J" k="170" />
<hkern u1="y" u2="I" k="10" />
<hkern u1="y" u2="A" k="74" />
<hkern u1="y" u2="&#x40;" k="23" />
<hkern u1="y" u2="&#x2f;" k="74" />
<hkern u1="y" u2="&#x2e;" k="109" />
<hkern u1="y" u2="&#x2d;" k="53" />
<hkern u1="y" u2="&#x29;" k="33" />
<hkern u1="y" u2="&#x26;" k="18" />
<hkern u1="y" u2="&#x20;" k="57" />
<hkern u1="z" u2="&#x2039;" k="59" />
<hkern u1="z" u2="o" k="27" />
<hkern u1="z" u2="d" k="27" />
<hkern u1="z" u2="\" k="4" />
<hkern u1="z" u2="Y" k="92" />
<hkern u1="z" u2="W" k="39" />
<hkern u1="z" u2="V" k="39" />
<hkern u1="z" u2="U" k="12" />
<hkern u1="z" u2="T" k="184" />
<hkern u1="z" u2="O" k="2" />
<hkern u1="z" u2="&#x2d;" k="72" />
<hkern u1="&#x7b;" u2="j" k="-6" />
<hkern u1="&#x7b;" u2="Y" k="-2" />
<hkern u1="&#x7b;" u2="X" k="-2" />
<hkern u1="&#x7c;" u2="j" k="-123" />
<hkern u1="&#x104;" u2="&#x201e;" k="-2" />
<hkern u1="&#x104;" u2="&#x201a;" k="-2" />
<hkern u1="&#x104;" u2="y" k="2" />
<hkern u1="&#x104;" u2="j" k="-201" />
<hkern u1="&#x104;" u2="g" k="-2" />
<hkern u1="&#x104;" u2="&#x2c;" k="-2" />
<hkern u1="&#x105;" u2="j" k="-111" />
<hkern u1="&#x142;" u2="z" k="-12" />
<hkern u1="&#x142;" u2="x" k="-37" />
<hkern u1="&#x142;" u2="w" k="2" />
<hkern u1="&#x142;" u2="v" k="2" />
<hkern u1="&#x142;" u2="s" k="-2" />
<hkern u1="&#x142;" u2="&#x2a;" k="2" />
<hkern u1="&#x2018;" u2="s" k="23" />
<hkern u1="&#x2018;" u2="o" k="55" />
<hkern u1="&#x2018;" u2="f" k="14" />
<hkern u1="&#x2018;" u2="d" k="133" />
<hkern u1="&#x2018;" u2="a" k="31" />
<hkern u1="&#x2018;" u2="O" k="16" />
<hkern u1="&#x2018;" u2="J" k="184" />
<hkern u1="&#x2018;" u2="A" k="145" />
<hkern u1="&#x2018;" u2="&#x2e;" k="276" />
<hkern u1="&#x2019;" u2="&#x2039;" k="43" />
<hkern u1="&#x2019;" u2="s" k="25" />
<hkern u1="&#x2019;" u2="o" k="57" />
<hkern u1="&#x2019;" u2="f" k="16" />
<hkern u1="&#x2019;" u2="d" k="135" />
<hkern u1="&#x2019;" u2="a" k="33" />
<hkern u1="&#x2019;" u2="O" k="18" />
<hkern u1="&#x2019;" u2="J" k="184" />
<hkern u1="&#x2019;" u2="A" k="147" />
<hkern u1="&#x2019;" u2="&#x40;" k="84" />
<hkern u1="&#x2019;" u2="&#x2f;" k="184" />
<hkern u1="&#x2019;" u2="&#x2e;" k="279" />
<hkern u1="&#x2019;" u2="&#x20;" k="66" />
<hkern u1="&#x201a;" u2="j" k="-6" />
<hkern u1="&#x201e;" u2="j" k="-6" />
<hkern u1="&#x2039;" u2="Y" k="104" />
<hkern u1="&#x2039;" u2="W" k="63" />
<hkern u1="&#x2039;" u2="V" k="63" />
<hkern u1="&#x2039;" u2="T" k="133" />
<hkern u1="&#x203a;" u2="&#x2019;" k="45" />
<hkern u1="&#x203a;" u2="&#x141;" k="18" />
<hkern u1="&#x203a;" u2="z" k="59" />
<hkern u1="&#x203a;" u2="y" k="59" />
<hkern u1="&#x203a;" u2="x" k="63" />
<hkern u1="&#x203a;" u2="w" k="57" />
<hkern u1="&#x203a;" u2="v" k="57" />
<hkern u1="&#x203a;" u2="t" k="25" />
<hkern u1="&#x203a;" u2="s" k="20" />
<hkern u1="&#x203a;" u2="f" k="20" />
<hkern u1="&#x203a;" u2="Z" k="29" />
<hkern u1="&#x203a;" u2="Y" k="143" />
<hkern u1="&#x203a;" u2="X" k="39" />
<hkern u1="&#x203a;" u2="W" k="94" />
<hkern u1="&#x203a;" u2="V" k="94" />
<hkern u1="&#x203a;" u2="T" k="145" />
<hkern u1="&#x203a;" u2="J" k="66" />
<hkern u1="&#x203a;" u2="A" k="33" />
<hkern u1="&#x203a;" u2="&#x27;" k="4" />
<hkern u1="&#x20ac;" u2="&#x33;" k="18" />
</font>
</defs></svg> 