<?xml version="1.0" standalone="no"?>
<!DOCTYPE svg PUBLIC "-//W3C//DTD SVG 1.1//EN" "http://www.w3.org/Graphics/SVG/1.1/DTD/svg11.dtd" >
<svg xmlns="http://www.w3.org/2000/svg">
<metadata></metadata>
<defs>
<font id="ralewayheavy" horiz-adv-x="845" >
<font-face units-per-em="2048" ascent="1638" descent="-410" />
<missing-glyph horiz-adv-x="460" />
<glyph horiz-adv-x="0" />
<glyph horiz-adv-x="682" />
<glyph horiz-adv-x="0" />
<glyph horiz-adv-x="0" />
<glyph unicode="&#xd;" horiz-adv-x="0" />
<glyph unicode=" "  horiz-adv-x="460" />
<glyph unicode="&#x09;" horiz-adv-x="460" />
<glyph unicode="&#xa0;" horiz-adv-x="460" />
<glyph unicode="!" horiz-adv-x="671" d="M141 0v377h389v-377h-389zM141 614v854h389v-854h-389z" />
<glyph unicode="&#x22;" horiz-adv-x="974" d="M109 1016v479h327v-479h-327zM539 1016v479h327v-479h-327z" />
<glyph unicode="#" horiz-adv-x="1550" d="M74 348v287h299l41 178h-236v266h301l92 375h310l-95 -375h123l92 375h310l-94 -375h260v-266h-326l-41 -178h262v-287h-332l-84 -348h-309l86 348h-123l-84 -348h-309l86 348h-229zM680 635h123l41 178h-123z" />
<glyph unicode="$" horiz-adv-x="1329" d="M66 152l172 350q21 -14 58 -35.5t139 -63.5t190 -55v180q-55 13 -127 39q-196 66 -282.5 158.5t-86.5 249.5q0 107 36.5 195t101 148t148 96.5t181.5 47.5v207h164v-209q191 -21 457 -151l-173 -330q-18 11 -48.5 28t-113.5 51t-151 46v-184q12 -3 39.5 -12t42.5 -13 q88 -27 149.5 -53t119.5 -63.5t93 -82.5t55.5 -108.5t20.5 -143.5q0 -94 -27.5 -170.5t-73 -127.5t-110 -86.5t-133.5 -53t-147 -22.5v-248h-164v252q-139 12 -280 55.5t-250 108.5zM543 1040q0 -29 19.5 -48t62.5 -38v156q-82 -10 -82 -70zM731 342q90 8 90 64q0 50 -90 88 v-152z" />
<glyph unicode="%" horiz-adv-x="1742" d="M68 1151q0 135 105.5 229.5t258.5 94.5t259 -94.5t106 -229.5t-106 -229.5t-259 -94.5t-258.5 94.5t-105.5 229.5zM240 133l579 653l514 691l170 -154l-555 -633l-538 -710zM334 1151q0 -57 29 -98t69 -41t69 41t29 98t-29 98t-69 41t-69 -41t-29 -98zM946 303 q0 135 106 229.5t259 94.5t258.5 -94.5t105.5 -229.5t-105.5 -229t-258.5 -94t-259 94t-106 229zM1212 303q0 -57 29.5 -98t69.5 -41t69 41t29 98t-29 98t-69 41t-69.5 -41t-29.5 -98z" />
<glyph unicode="&#x26;" horiz-adv-x="1542" d="M72 442q0 210 204 375q-65 80 -91.5 143t-26.5 138q0 174 119 274.5t307 100.5q82 0 156.5 -20.5t136.5 -61t98.5 -110t36.5 -159.5q0 -196 -189 -360l168 -178q47 123 47 268h314q-3 -297 -131 -510l325 -342h-510l-78 82q-170 -102 -374 -102q-122 0 -222 40.5 t-161.5 106.5t-95 147.5t-33.5 167.5zM444 442q0 -55 46 -107t135 -52q61 0 120 26l-231 248q-70 -58 -70 -115zM510 1114q0 -24 13 -42t55 -58q43 29 60 51t17 53q0 34 -19.5 53t-51.5 19q-34 0 -54 -21.5t-20 -54.5z" />
<glyph unicode="'" horiz-adv-x="544" d="M109 1016v479h327v-479h-327z" />
<glyph unicode="(" horiz-adv-x="700" d="M51 713q0 191 82 397t238 471l297 -119q-31 -50 -67.5 -122.5t-82 -178.5t-75 -228t-29.5 -226q0 -153 61 -314.5t182 -390.5l-282 -137q-324 486 -324 848z" />
<glyph unicode=")" horiz-adv-x="700" d="M33 1462l297 119q155 -264 237 -470.5t82 -397.5q0 -363 -323 -848l-283 137q122 230 183 391.5t61 313.5q0 104 -29.5 226t-75 228t-82 178.5t-67.5 122.5z" />
<glyph unicode="*" horiz-adv-x="745" d="M86 1225l49 157l154 -73l-15 168h197l-14 -168l153 73l49 -157l-147 -43l100 -160l-141 -92l-98 170l-99 -170l-141 92l100 160z" />
<glyph unicode="+" horiz-adv-x="876" d="M90 573v308h174v194h348v-194h174v-308h-174v-194h-348v194h-174z" />
<glyph unicode="," horiz-adv-x="538" d="M27 -41q9 0 20.5 2.5t27.5 10t27.5 25.5t12.5 44v336h315v-414q0 -63 -26.5 -113t-67.5 -80t-96 -49.5t-107 -26.5t-106 -7v272z" />
<glyph unicode="-" d="M102 391v348h641v-348h-641z" />
<glyph unicode="." horiz-adv-x="520" d="M102 0v377h316v-377h-316z" />
<glyph unicode="/" horiz-adv-x="1589" d="M55 0l1055 1454h430l-1057 -1454h-428z" />
<glyph unicode="0" horiz-adv-x="1257" d="M86 600q0 177 71 320t195 223t277 80q232 0 387 -177t155 -446q0 -177 -70.5 -319t-194.5 -221.5t-277 -79.5t-277 79.5t-195 221.5t-71 319zM475 600q0 -118 42.5 -191t111.5 -73q65 0 107 73t42 191t-42 192t-107 74q-69 0 -111.5 -73.5t-42.5 -192.5z" />
<glyph unicode="1" horiz-adv-x="1120" d="M84 618v357q59 0 182 72.5t148 121.5h397v-821h260v-348h-948v348h291v408q-37 -47 -144.5 -92.5t-185.5 -45.5z" />
<glyph unicode="2" horiz-adv-x="1228" d="M66 0q0 203 69 319t240 209q225 121 274 155.5t49 70.5q0 100 -123 100q-67 0 -127 -35t-126 -112l-246 288q79 88 235.5 141.5t331.5 53.5q231 0 355 -97t124 -272q0 -62 -15.5 -112.5t-46 -91t-64.5 -70t-83 -62.5q-29 -19 -104 -64t-115 -73h451v-348h-1079z" />
<glyph unicode="3" horiz-adv-x="1185" d="M41 -137l199 282q115 -90 278 -90q104 0 152.5 32t48.5 101q0 77 -62 111.5t-200 34.5h-64v270h72q98 0 157.5 38.5t59.5 102.5q0 50 -35 77.5t-98 27.5q-148 0 -244 -143l-246 288q72 82 221 133.5t314 51.5q227 0 366.5 -99t139.5 -262q0 -122 -75 -217t-189 -117 q126 -22 206 -124.5t80 -243.5q0 -194 -156.5 -306t-426.5 -112q-307 0 -498 164z" />
<glyph unicode="4" horiz-adv-x="1196" d="M41 -6v348l649 827h266v-827h181v-348h-181v-254h-389v254h-526zM424 342h188v246z" />
<glyph unicode="5" horiz-adv-x="1142" d="M41 -76l213 246q58 -63 131.5 -99t142.5 -36q75 0 118.5 41t43.5 110q0 67 -39 108.5t-102 41.5q-42 0 -78 -19.5t-55 -52.5h-334l172 905h729v-354h-448l-23 -158q28 11 94 11q213 0 348.5 -132t135.5 -341q0 -221 -157 -360.5t-407 -139.5q-160 0 -288 60.5t-197 168.5 z" />
<glyph unicode="6" horiz-adv-x="1245" d="M80 696q0 359 156 564.5t430 205.5q266 0 462 -196l-215 -250q-110 110 -254 110q-100 0 -158 -61t-63 -170q79 70 221 70q220 0 366 -136.5t146 -340.5q0 -216 -156 -364t-388 -148q-261 0 -404 188t-143 528zM453 492q0 -75 52.5 -131t121.5 -56t121.5 56t52.5 131 q0 72 -51 122t-123 50t-123 -50t-51 -122z" />
<glyph unicode="7" horiz-adv-x="1218" d="M61 842v354h1168l-711 -1454h-440l538 1100h-555z" />
<glyph unicode="8" horiz-adv-x="1253" d="M78 465q0 99 51.5 178t124.5 133q-58 35 -96.5 105t-38.5 141q0 101 47.5 185.5t122.5 136.5t163 81t175 29q69 0 139.5 -17t137 -53t118.5 -85.5t83.5 -120.5t31.5 -152q0 -71 -40 -143.5t-98 -106.5q74 -55 125.5 -136.5t51.5 -186.5q0 -139 -74 -248t-199 -167 t-276 -58q-108 0 -207.5 34.5t-175.5 96t-121 154t-45 200.5zM473 475q0 -60 44.5 -100.5t109.5 -40.5q67 0 110 41t43 100q0 66 -42.5 103.5t-110.5 37.5t-111 -38.5t-43 -102.5zM514 1014q0 -52 34 -80.5t79 -28.5t79.5 28.5t34.5 80.5q0 41 -32 69.5t-82 28.5 t-81.5 -28.5t-31.5 -69.5z" />
<glyph unicode="9" horiz-adv-x="1208" d="M55 657q0 216 156.5 364t388.5 148q261 0 404 -188t143 -528q0 -359 -156 -564.5t-430 -205.5q-267 0 -463 196l215 250q111 -111 254 -111q100 0 158 61.5t63 170.5q-79 -70 -221 -70q-220 0 -366 136.5t-146 340.5zM426 657q0 -72 51 -122t123 -50t123 50t51 122 q0 75 -52.5 131t-121.5 56t-121.5 -56t-52.5 -131z" />
<glyph unicode=":" horiz-adv-x="577" d="M131 0v377h315v-377h-315zM131 686v377h315v-377h-315z" />
<glyph unicode=";" horiz-adv-x="577" d="M43 -41q9 0 20.5 2.5t27.5 10t27.5 25.5t12.5 44v336h315v-414q0 -63 -26.5 -113t-67.5 -80t-96 -49.5t-107 -26.5t-106 -7v272zM131 686v377h315v-377h-315z" />
<glyph unicode="&#x3c;" horiz-adv-x="1048" d="M63 430v180l869 529v-414l-303 -195l303 -178v-434z" />
<glyph unicode="=" horiz-adv-x="886" d="M113 207v246h661v-246h-661zM113 678v246h661v-246h-661z" />
<glyph unicode="&#x3e;" horiz-adv-x="1048" d="M117 -82v434l303 178l-303 195v414l868 -529v-180z" />
<glyph unicode="?" horiz-adv-x="1021" d="M76 1208q52 124 167 194.5t263 70.5q65 0 126.5 -13.5t120.5 -45.5t102.5 -79t70 -119t26.5 -161q0 -211 -164 -322q-40 -27 -117.5 -65t-115 -68t-37.5 -70h-317q0 52 4.5 87t19.5 76.5t49 75.5t88 62q5 3 38.5 20t55 28.5t54.5 34t53 42.5t35.5 47t15.5 54 q0 45 -35.5 73.5t-86.5 28.5q-28 0 -51.5 -9t-41.5 -25.5t-30 -30.5t-26 -34.5t-19 -27.5zM207 0v336h317v-336h-317z" />
<glyph unicode="@" horiz-adv-x="1730" d="M78 473q0 147 42 271.5t116.5 214t174.5 152.5t217 93.5t244 30.5q123 0 235.5 -28.5t213 -90.5t174.5 -152t117 -221t43 -290q0 -32 -1.5 -63t-9 -82t-20.5 -94t-38 -90.5t-59 -80.5t-86.5 -54.5t-117.5 -21.5q-103 0 -153 45.5t-60 104.5q-154 -144 -358 -144 q-162 0 -246 85.5t-84 220.5q0 71 23.5 127.5t62.5 92.5t91.5 60.5t107.5 34.5t114 10q118 0 215 -47q0 91 -48 138.5t-169 47.5q-169 0 -260 -84l-65 199q149 100 364 100q82 0 146.5 -15.5t106.5 -39t72 -62t45 -72t23 -84t9.5 -82.5t1.5 -81v-137q0 -45 1 -74t6.5 -67 t15.5 -59.5t29.5 -37.5t47.5 -16q45 0 76 37.5t44 96.5t18 105.5t5 90.5q0 137 -45.5 253.5t-128 200t-204 130.5t-267.5 47q-193 0 -337.5 -81t-219 -221.5t-74.5 -320.5q0 -130 40.5 -243t115 -198.5t189 -134.5t253.5 -49q29 0 56 2t53.5 7t44.5 9t45.5 13.5t39.5 13.5 t43.5 16.5t41.5 16.5l41 -139q-174 -82 -371 -82q-153 0 -289 55t-236.5 153t-159 244.5t-58.5 319.5zM653 295q0 -19 4 -36t15 -37.5t37.5 -33t64.5 -12.5q82 0 170 43q90 44 90 121v47q-100 39 -203 39q-178 0 -178 -131z" />
<glyph unicode="A" horiz-adv-x="1374" d="M-16 0l542 1454h324l541 -1454h-422l-88 285h-387l-86 -285h-424zM553 551h264l-129 487z" />
<glyph unicode="B" horiz-adv-x="1411" d="M125 0v1454h844q98 0 175.5 -55.5t116.5 -139.5t39 -178q0 -107 -54 -199.5t-154 -136.5q129 -38 199.5 -131t70.5 -241q0 -95 -40.5 -168t-113 -117t-165.5 -66t-203 -22h-715zM524 336h316q51 0 83.5 31.5t32.5 87.5q0 54 -29 89.5t-73 35.5h-330v-244zM524 891h273 q47 0 77.5 25.5t30.5 87.5q0 56 -27 83t-69 27h-285v-223z" />
<glyph unicode="C" horiz-adv-x="1341" d="M45 739q0 107 30 211t90.5 196.5t143.5 163t196.5 111.5t242.5 41q190 0 337.5 -86t217.5 -231l-306 -217q-17 50 -47 87t-66.5 56.5t-72 28t-72.5 8.5q-72 0 -129 -33.5t-91 -89t-51 -121.5t-17 -137q0 -159 79.5 -272t212.5 -113q50 0 96.5 16.5t89.5 58t62 103.5 l326 -194q-39 -103 -135 -182t-212.5 -117.5t-234.5 -38.5q-147 0 -278 65t-220 170.5t-140.5 241t-51.5 274.5z" />
<glyph unicode="D" horiz-adv-x="1468" d="M125 0v1454h559q176 0 317.5 -56.5t231 -156t137 -230t47.5 -282.5q0 -330 -200.5 -529.5t-532.5 -199.5h-559zM524 348h160q153 0 240.5 106t87.5 275q0 171 -88 274t-240 103h-160v-758z" />
<glyph unicode="E" horiz-adv-x="1222" d="M125 0v1454h1018v-348h-619v-205h529v-323h-529v-230h637v-348h-1036z" />
<glyph unicode="F" horiz-adv-x="1144" d="M125 0v1454h997v-348h-598v-242h488v-323h-488v-541h-399z" />
<glyph unicode="G" horiz-adv-x="1431" d="M47 739q0 150 55 285t149 231t224.5 152.5t276.5 56.5q185 0 333 -84.5t220 -232.5l-297 -227q-36 86 -111.5 138t-159.5 52q-124 0 -204 -108t-80 -277q0 -170 81.5 -275.5t213.5 -105.5q149 0 270 143h-256v287h598v-774h-330v119q-138 -129 -317 -129q-132 0 -255 61 t-213 162t-144 239.5t-54 286.5z" />
<glyph unicode="H" horiz-adv-x="1536" d="M125 0v1454h399v-536h488v536h399v-1454h-399v569h-488v-569h-399z" />
<glyph unicode="I" horiz-adv-x="649" d="M125 0v1454h399v-1454h-399z" />
<glyph unicode="J" horiz-adv-x="1028" d="M10 68l84 325q22 -16 89 -38.5t143 -22.5q51 0 85.5 14t56 40t33 75.5t15.5 106.5t4 147v739h400v-739q0 -103 -5 -180.5t-20.5 -158.5t-42 -138t-71 -109t-106.5 -83.5t-150 -50t-199 -18.5q-183 0 -316 91z" />
<glyph unicode="K" horiz-adv-x="1411" d="M125 0v1454h399v-594l484 594h409l-528 -651l565 -803h-418l-383 580l-129 -148v-432h-399z" />
<glyph unicode="L" horiz-adv-x="1204" d="M125 0v1454h399v-1106h660v-348h-1059z" />
<glyph unicode="M" horiz-adv-x="1748" d="M125 0v1454h436l313 -684l316 684h434v-1454h-399v766l-244 -539h-213l-244 539v-766h-399z" />
<glyph unicode="N" horiz-adv-x="1544" d="M125 0v1454h311l584 -739v739h399v-1454h-317l-578 715v-715h-399z" />
<glyph unicode="O" horiz-adv-x="1488" d="M47 729q0 192 89.5 359.5t252.5 270.5t361 103q122 0 232 -41t192.5 -113t143.5 -165.5t92.5 -202t31.5 -219.5q0 -142 -52.5 -275t-143.5 -234.5t-223 -162.5t-282 -61q-151 0 -283 63t-221 167t-139.5 237.5t-50.5 273.5zM453 725q0 -101 30.5 -186t98.5 -141t163 -56 q73 0 130.5 33.5t91.5 89.5t51.5 123t17.5 141q0 102 -31 186t-99.5 138.5t-162.5 54.5q-73 0 -130 -33t-91 -88t-51.5 -122t-17.5 -140z" />
<glyph unicode="P" horiz-adv-x="1269" d="M125 0v1454h627q103 0 196 -44t156 -115t100 -161.5t37 -183.5q0 -97 -35 -188t-96.5 -161t-152.5 -112.5t-195 -42.5h-238v-446h-399zM524 795h211q42 0 71.5 37t29.5 118q0 82 -33.5 119t-77.5 37h-201v-311z" />
<glyph unicode="Q" horiz-adv-x="1495" d="M47 729q0 192 89.5 360t252.5 271.5t361 103.5q122 0 232 -41.5t192.5 -113.5t143.5 -166t92.5 -202.5t31.5 -219.5q0 -126 -42 -246.5t-118 -218.5l238 -256h-373l-72 78q-154 -88 -334 -88q-151 0 -283 63t-221 166t-139.5 236.5t-50.5 273.5zM453 725 q0 -101 30.5 -185.5t98.5 -140t163 -55.5q34 0 76 10l-239 260h372l56 -59q26 77 26 174q0 102 -31 186.5t-99.5 139.5t-162.5 55q-73 0 -130 -33t-91 -88.5t-51.5 -122.5t-17.5 -141z" />
<glyph unicode="R" horiz-adv-x="1404" d="M125 0v1454h668q103 0 196 -44t156 -115t100 -161.5t37 -183.5q0 -126 -55.5 -236t-153.5 -179l328 -535h-451l-276 446h-150v-446h-399zM524 795h252q39 0 70 42.5t31 112.5t-35 113t-76 43h-242v-311z" />
<glyph unicode="S" horiz-adv-x="1263" d="M27 152l172 350q10 -7 27.5 -17.5t72 -38t107.5 -48.5t125.5 -38.5t134.5 -17.5q116 0 116 64q0 24 -15 42.5t-50 34t-67.5 26t-92 28t-98.5 30.5q-196 66 -282.5 158.5t-86.5 249.5q0 117 44.5 212t120 155t172.5 92t206 32q233 0 545 -157l-172 -330q-9 5 -24 14 t-61 32t-90 40.5t-102.5 32t-107.5 14.5q-117 0 -117 -72q0 -16 5.5 -29t19.5 -24t27.5 -19t41.5 -18t48 -16t61 -18.5t67 -20.5q88 -27 149.5 -53t119.5 -63.5t93 -82.5t55.5 -108.5t20.5 -143.5q0 -101 -32 -182t-84.5 -132.5t-125.5 -85.5t-149.5 -48t-161.5 -14 q-157 0 -329 46.5t-303 123.5z" />
<glyph unicode="T" horiz-adv-x="1277" d="M20 1106v348h1237v-348h-417v-1106h-400v1106h-420z" />
<glyph unicode="U" horiz-adv-x="1517" d="M102 707v747h400v-747q0 -75 14.5 -139t44 -115.5t80 -81t117.5 -29.5q68 0 119 30t80.5 82.5t44 116t14.5 136.5v747h399v-747q0 -155 -40 -284t-118.5 -227t-206 -153t-292.5 -55q-136 0 -246.5 38t-186 104t-126.5 158t-74 196.5t-23 222.5z" />
<glyph unicode="V" horiz-adv-x="1372" d="M-18 1454h421l285 -952l281 952h420l-535 -1454h-332z" />
<glyph unicode="W" horiz-adv-x="2168" d="M-23 1454h433l315 -997l100 303l-235 694h366l127 -448l129 448h367l-240 -694l105 -303l313 997h434l-569 -1454h-332l-207 520l-204 -520h-332z" />
<glyph unicode="X" horiz-adv-x="1341" d="M-25 1454h433l264 -459l264 459h430l-485 -737l469 -717h-430l-248 438l-248 -438h-432l469 717z" />
<glyph unicode="Y" horiz-adv-x="1335" d="M-27 1454h433l260 -629l266 629h434l-502 -973v-481h-397v485z" />
<glyph unicode="Z" horiz-adv-x="1273" d="M55 0v297l680 809h-649v348h1110v-297l-639 -809h651v-348h-1153z" />
<glyph unicode="[" horiz-adv-x="706" d="M125 -82v1598h502v-308h-144v-983h144v-307h-502z" />
<glyph unicode="\" horiz-adv-x="1427" d="M51 1454h430l891 -1454h-428z" />
<glyph unicode="]" horiz-adv-x="706" d="M80 -82v307h143v983h-143v308h502v-1598h-502z" />
<glyph unicode="^" horiz-adv-x="1280" d="M74 621l405 833h324l403 -833h-313l-252 518l-258 -518h-309z" />
<glyph unicode="_" horiz-adv-x="727" d="M2 0h723v-348h-723v348z" />
<glyph unicode="`" horiz-adv-x="581" d="M92 1495h346l103 -291l-246 -65z" />
<glyph unicode="a" horiz-adv-x="1236" d="M39 326q0 162 130.5 265t334.5 103q133 0 217 -41v33q0 76 -44.5 113t-141.5 37q-87 0 -165 -28.5t-169 -88.5l-113 242q213 137 485 137q259 0 398 -117t139 -342v-209q0 -56 20 -77.5t74 -24.5v-328q-103 -20 -184 -20q-199 0 -229 149l-9 39q-147 -188 -366 -188 q-162 0 -269.5 98.5t-107.5 247.5zM406 360q0 -44 35.5 -73t90.5 -29q77 0 138 41q51 33 51 76v80q-79 28 -150 28q-70 0 -117.5 -35t-47.5 -88z" />
<glyph unicode="b" horiz-adv-x="1325" d="M98 0v1495h389v-577q46 88 132.5 134t203.5 46q198 0 329.5 -160t131.5 -403q0 -239 -142.5 -397t-357.5 -158q-244 0 -348 188v-168h-338zM487 418q76 -111 185 -111q95 0 154 62t59 163q0 99 -56.5 168.5t-140.5 69.5q-61 0 -117 -44.5t-84 -115.5v-192z" />
<glyph unicode="c" horiz-adv-x="1179" d="M39 539q0 112 39.5 212t113 178t187 123.5t252.5 45.5q188 0 322.5 -79t203.5 -214l-379 -115q-55 80 -149 80q-82 0 -136.5 -62.5t-54.5 -168.5t54.5 -169t136.5 -63q94 0 149 80l379 -115q-69 -135 -203.5 -213.5t-322.5 -78.5q-139 0 -252.5 45.5t-187 123.5t-113 178 t-39.5 212z" />
<glyph unicode="d" horiz-adv-x="1376" d="M41 541q0 157 59.5 284t167.5 200t244 73q105 0 193 -48t133 -132v577h389v-1065q0 -56 20 -77.5t74 -24.5v-328q-111 -20 -184 -20q-200 0 -230 149l-8 39q-53 -94 -146 -141t-204 -47q-223 0 -365.5 157t-142.5 404zM442 532q0 -101 59 -163t154 -62q109 0 185 111v192 q-28 71 -84 115.5t-117 44.5q-84 0 -140.5 -69.5t-56.5 -168.5z" />
<glyph unicode="e" horiz-adv-x="1249" d="M39 524q0 118 38.5 221t111.5 182t186.5 125t253.5 46t254 -45.5t186 -123t111 -177.5t39 -213q0 -59 -11 -119h-755q6 -81 60 -121.5t128 -40.5q65 0 121 30t74 79l329 -95q-69 -134 -207.5 -213t-328.5 -79q-111 0 -206.5 29t-165 79.5t-119.5 119t-74.5 149 t-24.5 167.5zM444 653h357q-9 78 -56.5 123t-121.5 45t-122 -45t-57 -123z" />
<glyph unicode="f" horiz-adv-x="841" d="M47 659v293h133v117q0 202 108 324.5t287 122.5q134 0 299 -62l-65 -295q-82 29 -145 29q-95 0 -95 -105v-131h236v-293h-236v-659h-389v659h-133z" />
<glyph unicode="g" horiz-adv-x="1325" d="M43 541q0 242 141 399.5t361 157.5q116 0 204.5 -46t139.5 -134v159h338v-979q0 -251 -180.5 -403t-475.5 -152q-320 0 -524 207l205 213q62 -59 145.5 -95t173.5 -36q116 0 191.5 65t75.5 201v70q-44 -82 -131.5 -125t-194.5 -43q-138 0 -245.5 71.5t-165.5 194.5 t-58 275zM440 530q0 -99 59 -161t152 -62q111 0 187 111v192q-29 73 -85 116.5t-118 43.5q-82 0 -138.5 -70.5t-56.5 -169.5z" />
<glyph unicode="h" horiz-adv-x="1271" d="M98 0v1495h389v-577q57 87 149.5 133.5t207.5 46.5q87 0 151 -26t99 -64.5t56 -94.5t26.5 -102t5.5 -102v-709h-389v606q0 76 -34 114t-91 38q-42 0 -98.5 -44t-82.5 -110v-604h-389z" />
<glyph unicode="i" horiz-adv-x="585" d="M98 0v1077h389v-1077h-389zM98 1167v328h389v-328h-389z" />
<glyph unicode="j" horiz-adv-x="585" d="M-240 -317l160 264q38 -41 96 -41q38 0 60 23.5t22 64.5v1083h389v-1052q0 -201 -117.5 -327t-303.5 -126q-176 0 -306 111zM98 1167v328h389v-328h-389z" />
<glyph unicode="k" horiz-adv-x="1191" d="M98 0v1495h389v-817l287 399h410l-371 -471l408 -606h-412l-244 393l-78 -86v-307h-389z" />
<glyph unicode="l" horiz-adv-x="743" d="M92 291v1204h389v-1040q0 -123 101 -123q51 0 106 30l49 -313q-68 -32 -155.5 -50.5t-165.5 -18.5q-156 0 -240 80.5t-84 230.5z" />
<glyph unicode="m" horiz-adv-x="1925" d="M98 0v1077h351v-159q117 180 395 180q122 0 193.5 -53t97.5 -134q57 88 157.5 137.5t225.5 49.5q68 0 121.5 -18t87 -50.5t56 -70t33.5 -85t15 -85.5t4 -80v-709h-389v606q0 75 -30.5 113.5t-78.5 38.5q-47 0 -99.5 -44t-76.5 -110v-604h-389v606q0 76 -30.5 114 t-77.5 38t-100 -44.5t-77 -109.5v-604h-389z" />
<glyph unicode="n" horiz-adv-x="1271" d="M98 0v1077h351v-159q57 88 161 134t244 46q70 0 125.5 -18t90 -50.5t58 -70t35 -85t15.5 -85.5t4 -80v-709h-389v606q0 75 -34 113.5t-85 38.5t-106 -44t-81 -110v-604h-389z" />
<glyph unicode="o" horiz-adv-x="1257" d="M39 539q0 113 39 213t111 177.5t186 123t254 45.5t254 -45.5t186 -123t111 -177.5t39 -213q0 -112 -39 -212t-111 -178t-186 -123.5t-254 -45.5t-254 45.5t-186 123.5t-111 178t-39 212zM438 539q0 -106 53.5 -169t137.5 -63t137 63t53 169t-53 168.5t-137 62.5 q-85 0 -138 -62.5t-53 -168.5z" />
<glyph unicode="p" horiz-adv-x="1323" d="M98 -436v1513h338v-162q119 183 348 183q215 0 356.5 -158t141.5 -397q0 -243 -130.5 -403t-328.5 -160q-117 0 -203.5 46t-132.5 134v-596h-389zM487 473q28 -72 84 -119t117 -47q84 0 140.5 69.5t56.5 168.5q0 101 -59 163t-154 62q-108 0 -185 -111v-186z" />
<glyph unicode="q" horiz-adv-x="1323" d="M41 543q0 239 141.5 397t356.5 158q227 0 348 -187v166h338v-1063q0 -56 20 -77.5t74 -24.5v-328q-113 -20 -215 -20q-112 0 -190 66.5t-78 172.5v357q-46 -88 -132.5 -134t-203.5 -46q-198 0 -328.5 160t-130.5 403zM438 532q0 -101 59 -163t154 -62q109 0 185 111v192 q-28 71 -84 115.5t-117 44.5q-84 0 -140.5 -69.5t-56.5 -168.5z" />
<glyph unicode="r" horiz-adv-x="854" d="M98 0v1077h357v-205q57 107 142.5 166.5t182.5 59.5q39 0 49 -2v-351q-260 0 -342 -106v-639h-389z" />
<glyph unicode="s" horiz-adv-x="1079" d="M14 109l150 264q233 -121 405 -121q103 0 103 51q0 28 -40.5 47.5t-156.5 48.5q-229 60 -317 130t-88 192q0 166 129.5 272.5t330.5 106.5q219 0 486 -121l-150 -248q-115 54 -191 77t-145 23q-46 0 -73 -14t-27 -41q0 -30 36.5 -48.5t145.5 -45.5q247 -63 341 -137.5 t94 -206.5q0 -166 -126 -262t-343 -96q-137 0 -298.5 37t-265.5 92z" />
<glyph unicode="t" horiz-adv-x="868" d="M39 784v293h133v338h389v-338h211v-293h-211v-356q0 -96 84 -96q53 0 139 35l70 -308q-190 -82 -358 -82q-69 0 -125.5 17t-102 52.5t-71 97.5t-25.5 147v493h-133z" />
<glyph unicode="u" horiz-adv-x="1323" d="M90 369v708h389v-620q0 -70 31.5 -110t87.5 -40q110 0 186 111v659h390v-647q0 -56 20 -77.5t74 -24.5v-328q-111 -20 -185 -20q-199 0 -229 149l-8 39q-141 -188 -420 -188q-163 0 -249.5 100t-86.5 289z" />
<glyph unicode="v" horiz-adv-x="1136" d="M-6 1077h399l193 -772l194 772h363l-363 -1077h-424z" />
<glyph unicode="w" horiz-adv-x="1781" d="M-12 1077h366l260 -723l68 232l-193 491h310l92 -315l92 315h309l-192 -491l67 -232l260 723h367l-440 -1077h-318l-145 410l-146 -410h-317z" />
<glyph unicode="x" horiz-adv-x="1130" d="M-14 0l370 539l-360 538h395l154 -264l20 -43l21 43l153 264h396l-361 -538l371 -539h-395l-166 264l-19 41l-18 -41l-166 -264h-395z" />
<glyph unicode="y" horiz-adv-x="1118" d="M-20 1077h399l205 -747l166 747h362l-364 -1206q-47 -158 -177.5 -254t-296.5 -96q-105 0 -200 39v331q90 -34 159 -34q126 0 138 143z" />
<glyph unicode="z" horiz-adv-x="1011" d="M45 0v229l492 582h-461v266h866v-229l-489 -582h508v-266h-916z" />
<glyph unicode="{" horiz-adv-x="720" d="M55 606v266q43 0 83 49t40 105v428q0 33 15.5 47.5t31.5 14.5h414v-308h-113v-315q0 -51 -21.5 -85t-62.5 -71q26 -23 41.5 -41t29 -48.5t13.5 -65.5v-338h113v-307h-414q-17 0 -32 13.5t-15 47.5v451q0 60 -38 103.5t-85 53.5z" />
<glyph unicode="|" horiz-adv-x="569" d="M121 -266v1853h328v-1853h-328z" />
<glyph unicode="}" horiz-adv-x="720" d="M82 -63v307h113v338q0 50 22 84.5t62 70.5q-27 24 -42 41.5t-28.5 48t-13.5 66.5v315h-113v308h414q16 0 31.5 -14.5t15.5 -47.5v-428q0 -56 40 -105t83 -49v-266q-47 -10 -85 -53.5t-38 -103.5v-451q0 -34 -15 -47.5t-32 -13.5h-414z" />
<glyph unicode="~" horiz-adv-x="1247" d="M92 442q0 24 10 60t35.5 83t62 86.5t97.5 67t135 27.5q70 0 139.5 -26t132 -52t115.5 -26q35 0 62 10t41.5 24t24 30t12 26t2.5 14h204q0 -13 -7.5 -39t-23 -63.5t-44 -75.5t-65 -71t-91 -54t-117.5 -21q-67 0 -136 25t-133 49.5t-118 24.5q-36 0 -62.5 -10t-39 -23 t-20 -29.5t-8.5 -24.5t-1 -12h-207z" />
<glyph unicode="&#xa2;" horiz-adv-x="1267" d="M76 528q0 215 126.5 369t364.5 197v227h164v-227q142 -5 267.5 -78.5t197.5 -210.5l-379 -115q-13 24 -38.5 43.5t-47.5 24.5v-441q59 25 86 70l379 -115q-43 -92 -131 -161.5t-175 -100t-159 -30.5v-226h-164v228q-139 11 -253 93t-176 202.5t-62 250.5zM477 528 q0 -126 90 -192v403q-41 -23 -65.5 -79.5t-24.5 -131.5z" />
<glyph unicode="&#xa3;" horiz-adv-x="1193" d="M94 256q62 36 109.5 105t66.5 147h-151v287h112q-3 8 -19 45.5t-21 50.5t-17 45.5t-16 52t-8.5 46.5t-4.5 52q0 158 135 267.5t330 109.5q135 0 259 -57t212 -158l-196 -239q-53 60 -132 100.5t-145 40.5q-55 0 -87 -28.5t-32 -78.5q0 -32 13 -69.5t38.5 -92.5t37.5 -87 h387v-287h-365q-25 -104 -127 -209q89 31 160 31q43 0 132.5 -15.5t133.5 -15.5q55 0 129 27l94 -287q-46 -31 -114 -50.5t-129 -19.5q-62 0 -202 34t-210 34q-125 0 -295 -55z" />
<glyph unicode="&#xa5;" horiz-adv-x="1519" d="M63 1454h433l260 -629l266 629h434l-295 -569h131v-246h-258l-80 -158v-67h340v-246h-340v-168h-397v168h-338v246h338v71l-78 154h-258v246h133z" />
<glyph unicode="&#xa8;" horiz-adv-x="1159" d="M184 1188v287h320v-287h-320zM655 1188v287h320v-287h-320z" />
<glyph unicode="&#xa9;" horiz-adv-x="1734" d="M78 727q0 156 59 293t162 234.5t248 153.5t311 56q227 0 410.5 -95.5t287 -264.5t103.5 -377q0 -157 -61 -294.5t-166.5 -235.5t-254.5 -154.5t-319 -56.5q-166 0 -311 56.5t-248 154.5t-162 235.5t-59 294.5zM221 727q0 -168 82.5 -308t229 -221t325.5 -81 q183 0 333 76.5t237.5 217t87.5 316.5q0 124 -50 236t-137 193.5t-209.5 129t-261.5 47.5q-178 0 -324.5 -81t-229.5 -220t-83 -305zM328 725q0 100 36.5 189.5t104.5 158.5t174 109.5t236 40.5q181 0 310 -79t195 -214l-378 -115q-49 80 -129 80q-64 0 -107 -45.5 t-43 -124.5t43 -124.5t107 -45.5q80 0 129 80l378 -115q-66 -135 -195 -214t-310 -79q-130 0 -236 40.5t-174 109.5t-104.5 158.5t-36.5 189.5z" />
<glyph unicode="&#xab;" horiz-adv-x="1452" d="M61 430v180l568 406v-311l-262 -175l262 -157v-312zM780 430v180l568 406v-311l-263 -175l263 -157v-312z" />
<glyph unicode="&#xad;" d="M102 391v348h641v-348h-641z" />
<glyph unicode="&#xae;" horiz-adv-x="1734" d="M78 727q0 156 59 293t162 234.5t249 153.5t314 56t316 -56t253.5 -153.5t166.5 -234.5t61 -293q0 -157 -61 -294.5t-166.5 -235.5t-253.5 -154.5t-316 -56.5q-224 0 -403.5 96.5t-280 265.5t-100.5 379zM229 725q0 -126 47 -238t130 -194t202 -130t256 -48 q179 0 326 78.5t232 217.5t85 310q0 169 -82.5 309t-230.5 221.5t-330 81.5q-137 0 -256 -47.5t-202 -129.5t-130 -193.5t-47 -237.5zM514 295v876h408q125 0 211 -95t86 -212q0 -72 -35 -139t-92 -109l196 -321h-301l-166 268h-37v-268h-270zM784 793h109q59 0 59 71 q0 72 -63 72h-105v-143z" />
<glyph unicode="&#xb4;" horiz-adv-x="581" d="M92 1204l103 291h346l-203 -356z" />
<glyph unicode="&#xb8;" horiz-adv-x="741" d="M41 -393l72 131q24 -15 78 -28t106 -13q115 0 115 63q0 62 -113 62q-64 0 -162 -19l131 271l142 -39l-74 -105q32 4 55 4q82 0 137.5 -39t55.5 -120q0 -92 -79 -151.5t-233 -59.5q-128 0 -231 43z" />
<glyph unicode="&#xbb;" horiz-adv-x="1452" d="M104 61v312l263 157l-263 175v311l568 -406v-180zM823 61v312l262 157l-262 175v311l568 -406v-180z" />
<glyph unicode="&#xd3;" horiz-adv-x="1488" d="M47 729q0 192 89.5 359.5t252.5 270.5t361 103q122 0 232 -41t192.5 -113t143.5 -165.5t92.5 -202t31.5 -219.5q0 -142 -52.5 -275t-143.5 -234.5t-223 -162.5t-282 -61q-151 0 -283 63t-221 167t-139.5 237.5t-50.5 273.5zM453 725q0 -101 30.5 -186t98.5 -141t163 -56 q73 0 130.5 33.5t91.5 89.5t51.5 123t17.5 141q0 102 -31 186t-99.5 138.5t-162.5 54.5q-73 0 -130 -33t-91 -88t-51.5 -122t-17.5 -140zM623 1581l102 291h346l-203 -356z" />
<glyph unicode="&#xf3;" horiz-adv-x="1257" d="M39 539q0 113 39 213t111 177.5t186 123t254 45.5t254 -45.5t186 -123t111 -177.5t39 -213q0 -112 -39 -212t-111 -178t-186 -123.5t-254 -45.5t-254 45.5t-186 123.5t-111 178t-39 212zM438 539q0 -106 53.5 -169t137.5 -63t137 63t53 169t-53 168.5t-137 62.5 q-85 0 -138 -62.5t-53 -168.5zM502 1204l102 291h346l-202 -356z" />
<glyph unicode="&#x104;" horiz-adv-x="1374" d="M-16 0l542 1454h324l541 -1454q-81 -45 -124.5 -92.5t-43.5 -87.5q0 -35 36 -55.5t107 -20.5l-72 -184q-132 18 -201 73.5t-69 130.5q0 61 45 122.5t131 113.5h-231l-88 285h-387l-86 -285h-424zM553 551h264l-129 487z" />
<glyph unicode="&#x105;" horiz-adv-x="1236" d="M39 326q0 162 130.5 265t334.5 103q133 0 217 -41v33q0 76 -44.5 113t-141.5 37q-87 0 -165 -28.5t-169 -88.5l-113 242q213 137 485 137q259 0 398 -117t139 -342v-209q0 -56 20 -77.5t74 -24.5v-328q-81 -45 -124.5 -92.5t-43.5 -87.5q0 -35 36.5 -55.5t107.5 -20.5 l-72 -184q-132 18 -201 73.5t-69 130.5q0 115 145 218q-165 11 -192 147l-9 39q-147 -188 -366 -188q-162 0 -269.5 98.5t-107.5 247.5zM406 360q0 -44 35.5 -73t90.5 -29q77 0 138 41q51 33 51 76v80q-79 28 -150 28q-70 0 -117.5 -35t-47.5 -88z" />
<glyph unicode="&#x106;" horiz-adv-x="1341" d="M45 739q0 107 30 211t90.5 196.5t143.5 163t196.5 111.5t242.5 41q190 0 337.5 -86t217.5 -231l-306 -217q-17 50 -47 87t-66.5 56.5t-72 28t-72.5 8.5q-72 0 -129 -33.5t-91 -89t-51 -121.5t-17 -137q0 -159 79.5 -272t212.5 -113q50 0 96.5 16.5t89.5 58t62 103.5 l326 -194q-39 -103 -135 -182t-212.5 -117.5t-234.5 -38.5q-147 0 -278 65t-220 170.5t-140.5 241t-51.5 274.5zM621 1581l102 291h346l-203 -356z" />
<glyph unicode="&#x107;" horiz-adv-x="1179" d="M39 539q0 112 39.5 212t113 178t187 123.5t252.5 45.5q188 0 322.5 -79t203.5 -214l-379 -115q-55 80 -149 80q-82 0 -136.5 -62.5t-54.5 -168.5t54.5 -169t136.5 -63q94 0 149 80l379 -115q-69 -135 -203.5 -213.5t-322.5 -78.5q-139 0 -252.5 45.5t-187 123.5t-113 178 t-39.5 212zM504 1204l102 291h346l-202 -356z" />
<glyph unicode="&#x118;" horiz-adv-x="1222" d="M125 0v1454h1018v-348h-619v-205h529v-323h-529v-230h637v-348h-434q-78 -44 -121 -91t-43 -87q0 -35 36.5 -55.5t107.5 -20.5l-72 -184q-132 18 -201 74t-69 131q0 60 44 121t128 112h-412z" />
<glyph unicode="&#x119;" horiz-adv-x="1253" d="M41 524q0 118 38.5 221t111.5 182t186.5 125t253.5 46t254 -45.5t186 -123t111 -177.5t39 -213q0 -59 -11 -119h-755q6 -81 60 -121.5t128 -40.5q65 0 121 30t74 79l329 -95q-51 -99 -141 -169.5t-213 -102.5q-78 -44 -120 -90t-42 -86q0 -35 36.5 -55.5t107.5 -20.5 l-72 -184q-132 18 -201 74t-69 131q0 113 139 213q-129 6 -235 52t-174 120.5t-105 169.5t-37 200zM446 653h357q-9 78 -56.5 123t-121.5 45t-122 -45t-57 -123z" />
<glyph unicode="&#x141;" horiz-adv-x="1228" d="M-35 723l185 90v641h399v-446l145 71l88 -207l-233 -114v-410h659v-348h-1058v563l-97 -47z" />
<glyph unicode="&#x142;" horiz-adv-x="806" d="M-25 723l170 82v690h390v-500l170 84l88 -207l-258 -127v-290q0 -123 100 -123q51 0 106 30l50 -313q-68 -32 -156 -50.5t-166 -18.5q-156 0 -240 80.5t-84 230.5v264l-82 -39z" />
<glyph unicode="&#x143;" horiz-adv-x="1544" d="M125 0v1454h311l584 -739v739h399v-1454h-317l-578 715v-715h-399zM639 1579l102 291h346l-202 -357z" />
<glyph unicode="&#x144;" horiz-adv-x="1271" d="M98 0v1077h351v-159q57 88 161 134t244 46q70 0 125.5 -18t90 -50.5t58 -70t35 -85t15.5 -85.5t4 -80v-709h-389v606q0 75 -34 113.5t-85 38.5t-106 -44t-81 -110v-604h-389zM555 1204l102 291h347l-203 -356z" />
<glyph unicode="&#x15a;" horiz-adv-x="1263" d="M27 152l172 350q10 -7 27.5 -17.5t72 -38t107.5 -48.5t125.5 -38.5t134.5 -17.5q116 0 116 64q0 24 -15 42.5t-50 34t-67.5 26t-92 28t-98.5 30.5q-196 66 -282.5 158.5t-86.5 249.5q0 117 44.5 212t120 155t172.5 92t206 32q233 0 545 -157l-172 -330q-9 5 -24 14 t-61 32t-90 40.5t-102.5 32t-107.5 14.5q-117 0 -117 -72q0 -16 5.5 -29t19.5 -24t27.5 -19t41.5 -18t48 -16t61 -18.5t67 -20.5q88 -27 149.5 -53t119.5 -63.5t93 -82.5t55.5 -108.5t20.5 -143.5q0 -101 -32 -182t-84.5 -132.5t-125.5 -85.5t-149.5 -48t-161.5 -14 q-157 0 -329 46.5t-303 123.5zM543 1581l102 291h346l-203 -356z" />
<glyph unicode="&#x15b;" horiz-adv-x="1079" d="M14 109l150 264q233 -121 405 -121q103 0 103 51q0 28 -40.5 47.5t-156.5 48.5q-229 60 -317 130t-88 192q0 166 129.5 272.5t330.5 106.5q219 0 486 -121l-150 -248q-115 54 -191 77t-145 23q-46 0 -73 -14t-27 -41q0 -30 36.5 -48.5t145.5 -45.5q247 -63 341 -137.5 t94 -206.5q0 -166 -126 -262t-343 -96q-137 0 -298.5 37t-265.5 92zM403 1204l103 291h346l-203 -356z" />
<glyph unicode="&#x179;" horiz-adv-x="1273" d="M55 0v297l680 809h-649v348h1110v-297l-639 -809h651v-348h-1153zM528 1581l103 291h346l-203 -356z" />
<glyph unicode="&#x17a;" horiz-adv-x="1011" d="M45 0v229l492 582h-461v266h866v-229l-489 -582h508v-266h-916zM371 1204l102 291h346l-203 -356z" />
<glyph unicode="&#x17b;" horiz-adv-x="1273" d="M55 0v297l680 809h-649v348h1110v-297l-639 -809h651v-348h-1153zM481 1565v307h348v-307h-348z" />
<glyph unicode="&#x17c;" horiz-adv-x="1011" d="M45 0v229l492 582h-461v266h866v-229l-489 -582h508v-266h-916zM324 1188v307h348v-307h-348z" />
<glyph unicode="&#x2c6;" horiz-adv-x="823" d="M41 1260l231 235h279l231 -235l-196 -86l-174 129l-174 -129z" />
<glyph unicode="&#x2da;" horiz-adv-x="561" d="M41 1317q0 87 64 132.5t176 45.5t175.5 -45.5t63.5 -132.5t-63.5 -132.5t-175.5 -45.5t-176 45.5t-64 132.5zM199 1319q0 -31 23.5 -50.5t58.5 -19.5q34 0 57.5 20t23.5 50q0 29 -22.5 47t-58.5 18t-59 -18t-23 -47z" />
<glyph unicode="&#x2dc;" horiz-adv-x="950" d="M41 1171q0 24 9.5 61.5t32 83.5t54 85.5t81.5 66.5t108 27q45 0 86 -16.5t66.5 -35.5t59 -35.5t64.5 -16.5q25 0 45 10.5t30.5 24.5t17 30t8.5 25.5t2 13.5h204q0 -17 -10 -52t-33 -82.5t-55 -89t-84 -71t-111 -29.5q-42 0 -82.5 15.5t-67 34t-60.5 34t-64 15.5 q-26 0 -45 -10t-28 -23t-14 -29.5t-6 -24t-1 -12.5h-207z" />
<glyph unicode="&#x2000;" horiz-adv-x="936" />
<glyph unicode="&#x2001;" horiz-adv-x="1872" />
<glyph unicode="&#x2002;" horiz-adv-x="936" />
<glyph unicode="&#x2003;" horiz-adv-x="1872" />
<glyph unicode="&#x2004;" horiz-adv-x="624" />
<glyph unicode="&#x2005;" horiz-adv-x="468" />
<glyph unicode="&#x2006;" horiz-adv-x="312" />
<glyph unicode="&#x2007;" horiz-adv-x="312" />
<glyph unicode="&#x2008;" horiz-adv-x="234" />
<glyph unicode="&#x2009;" horiz-adv-x="374" />
<glyph unicode="&#x200a;" horiz-adv-x="104" />
<glyph unicode="&#x2010;" d="M102 391v348h641v-348h-641z" />
<glyph unicode="&#x2011;" d="M102 391v348h641v-348h-641z" />
<glyph unicode="&#x2012;" d="M102 391v348h641v-348h-641z" />
<glyph unicode="&#x2013;" horiz-adv-x="1288" d="M102 391v348h1084v-348h-1084z" />
<glyph unicode="&#x2014;" horiz-adv-x="1941" d="M102 391v348h1737v-348h-1737z" />
<glyph unicode="&#x2018;" horiz-adv-x="573" d="M76 1204v291h315v-213q1 -26 12.5 -44t27.5 -25.5t27.5 -10t20.5 -2.5v-272q-54 0 -106 7t-107 26.5t-96 49.5t-67.5 80t-26.5 113z" />
<glyph unicode="&#x2019;" horiz-adv-x="581" d="M76 1223v272q54 0 106 -7t107 -26.5t96 -49.5t67.5 -80t26.5 -113v-291h-315v213q-1 26 -12.5 44t-27.5 25.5t-27.5 10t-20.5 2.5z" />
<glyph unicode="&#x201a;" horiz-adv-x="538" d="M27 -41q9 0 20.5 2.5t27.5 10t27.5 25.5t12.5 44v336h315v-414q0 -63 -26.5 -113t-67.5 -80t-96 -49.5t-107 -26.5t-106 -7v272z" />
<glyph unicode="&#x201c;" horiz-adv-x="1083" d="M76 1204v291h315v-213q1 -26 12.5 -44t27.5 -25.5t27.5 -10t20.5 -2.5v-272q-54 0 -106 7t-107 26.5t-96 49.5t-67.5 80t-26.5 113zM586 1204v291h315v-213q1 -26 12.5 -44t27.5 -25.5t27.5 -10t20.5 -2.5v-272q-54 0 -106 7t-107 26.5t-96 49.5t-67.5 80t-26.5 113z" />
<glyph unicode="&#x201d;" horiz-adv-x="1091" d="M76 1223v272q54 0 106 -7t107 -26.5t96 -49.5t67.5 -80t26.5 -113v-291h-315v213q-1 26 -12.5 44t-27.5 25.5t-27.5 10t-20.5 2.5zM586 1223v272q54 0 106 -7t107 -26.5t96 -49.5t67.5 -80t26.5 -113v-291h-315v213q-1 26 -12.5 44t-27.5 25.5t-27.5 10t-20.5 2.5z" />
<glyph unicode="&#x201e;" horiz-adv-x="1024" d="M27 -41q9 0 20.5 2.5t27.5 10t27.5 25.5t12.5 44v336h315v-414q0 -63 -26.5 -113t-67.5 -80t-96 -49.5t-107 -26.5t-106 -7v272zM512 -41q9 0 20.5 2.5t27.5 10t27.5 25.5t12.5 44v336h315v-414q0 -63 -26.5 -113t-67.5 -80t-96 -49.5t-107 -26.5t-106 -7v272z" />
<glyph unicode="&#x2026;" horiz-adv-x="1478" d="M102 0v377h316v-377h-316zM582 0v377h315v-377h-315zM1061 0v377h315v-377h-315z" />
<glyph unicode="&#x202f;" horiz-adv-x="374" />
<glyph unicode="&#x2039;" horiz-adv-x="733" d="M61 430v180l568 406v-311l-262 -175l262 -157v-312z" />
<glyph unicode="&#x203a;" horiz-adv-x="733" d="M104 61v312l263 157l-263 175v311l568 -406v-180z" />
<glyph unicode="&#x205f;" horiz-adv-x="468" />
<glyph unicode="&#x20ac;" horiz-adv-x="1558" d="M70 432l82 205h63q-1 4 -6 88h-139l82 205h81q28 109 87 204t143.5 168.5t200 116.5t247.5 43q190 0 337.5 -86t217.5 -231l-305 -217q-17 50 -47 87t-66.5 56.5t-72 28t-72.5 8.5q-170 0 -250 -178h385l-82 -205h-342q0 -37 7 -88h360l-82 -205h-186q80 -90 194 -90 q50 0 96.5 16.5t89.5 58t62 103.5l326 -194q-39 -103 -135 -182t-212.5 -117.5t-234.5 -38.5q-212 0 -378 124t-249 320h-202z" />
<glyph unicode="&#x2122;" horiz-adv-x="1867" d="M123 1212v246h635v-246h-195v-391h-246v391h-194zM852 821v633h371l71 -268l72 268h373v-633h-246v330l-98 -244h-199l-98 244v-330h-246z" />
<glyph unicode="&#xe000;" horiz-adv-x="1075" d="M0 0v1075h1075v-1075h-1075z" />
<hkern u1="&#x20;" u2="&#x2019;" k="35" />
<hkern u1="&#x20;" u2="&#x142;" k="53" />
<hkern u1="&#x20;" u2="&#x141;" k="23" />
<hkern u1="&#x20;" u2="v" k="51" />
<hkern u1="&#x20;" u2="V" k="70" />
<hkern u1="&#x24;" u2="&#x33;" k="23" />
<hkern u1="&#x26;" u2="&#x2019;" k="63" />
<hkern u1="&#x26;" u2="x" k="-86" />
<hkern u1="&#x26;" u2="v" k="29" />
<hkern u1="&#x26;" u2="X" k="-90" />
<hkern u1="&#x26;" u2="V" k="82" />
<hkern u1="&#x28;" u2="x" k="-31" />
<hkern u1="&#x28;" u2="v" k="25" />
<hkern u1="&#x28;" u2="j" k="-61" />
<hkern u1="&#x28;" u2="f" k="20" />
<hkern u1="&#x28;" u2="X" k="-55" />
<hkern u1="&#x28;" u2="V" k="-51" />
<hkern u1="&#x28;" u2="&#x36;" k="20" />
<hkern u1="&#x28;" u2="&#x30;" k="31" />
<hkern u1="&#x2a;" u2="x" k="-53" />
<hkern u1="&#x2a;" u2="v" k="-41" />
<hkern u1="&#x2a;" u2="X" k="-70" />
<hkern u1="&#x2a;" u2="V" k="-12" />
<hkern u1="&#x2b;" u2="&#x34;" k="31" />
<hkern u1="&#x2c;" u2="j" k="-72" />
<hkern u1="&#x2d;" u2="&#x33;" k="51" />
<hkern u1="&#x2f;" u2="x" k="29" />
<hkern u1="&#x2f;" u2="v" k="31" />
<hkern u1="&#x2f;" u2="f" k="37" />
<hkern u1="&#x2f;" u2="X" k="-49" />
<hkern u1="&#x2f;" u2="V" k="-43" />
<hkern u1="&#x2f;" u2="&#x39;" k="68" />
<hkern u1="&#x2f;" u2="&#x38;" k="25" />
<hkern u1="&#x2f;" u2="&#x36;" k="35" />
<hkern u1="&#x2f;" u2="&#x35;" k="80" />
<hkern u1="&#x2f;" u2="&#x34;" k="158" />
<hkern u1="&#x2f;" u2="&#x33;" k="51" />
<hkern u1="&#x2f;" u2="&#x32;" k="49" />
<hkern u1="&#x2f;" u2="&#x31;" k="49" />
<hkern u1="&#x2f;" u2="&#x30;" k="86" />
<hkern u1="&#x2f;" u2="&#x2f;" k="584" />
<hkern u1="&#x30;" u2="\" k="72" />
<hkern u1="&#x30;" u2="Y" k="78" />
<hkern u1="&#x30;" u2="X" k="25" />
<hkern u1="&#x30;" u2="W" k="59" />
<hkern u1="&#x30;" u2="V" k="55" />
<hkern u1="&#x30;" u2="T" k="41" />
<hkern u1="&#x30;" u2="J" k="20" />
<hkern u1="&#x30;" u2="A" k="29" />
<hkern u1="&#x30;" u2="&#x2f;" k="25" />
<hkern u1="&#x30;" u2="&#x29;" k="31" />
<hkern u1="&#x31;" u2="\" k="88" />
<hkern u1="&#x31;" u2="Y" k="90" />
<hkern u1="&#x31;" u2="X" k="-25" />
<hkern u1="&#x31;" u2="W" k="78" />
<hkern u1="&#x31;" u2="V" k="76" />
<hkern u1="&#x31;" u2="T" k="57" />
<hkern u1="&#x31;" u2="A" k="-33" />
<hkern u1="&#x31;" u2="&#x2b;" k="33" />
<hkern u1="&#x31;" u2="&#x23;" k="-18" />
<hkern u1="&#x32;" u2="\" k="61" />
<hkern u1="&#x32;" u2="Y" k="66" />
<hkern u1="&#x32;" u2="W" k="45" />
<hkern u1="&#x32;" u2="V" k="43" />
<hkern u1="&#x32;" u2="T" k="23" />
<hkern u1="&#x33;" u2="\" k="63" />
<hkern u1="&#x33;" u2="Y" k="68" />
<hkern u1="&#x33;" u2="X" k="-33" />
<hkern u1="&#x33;" u2="W" k="45" />
<hkern u1="&#x33;" u2="V" k="43" />
<hkern u1="&#x33;" u2="T" k="27" />
<hkern u1="&#x34;" u2="\" k="70" />
<hkern u1="&#x34;" u2="Y" k="76" />
<hkern u1="&#x34;" u2="X" k="-16" />
<hkern u1="&#x34;" u2="W" k="63" />
<hkern u1="&#x34;" u2="V" k="61" />
<hkern u1="&#x34;" u2="T" k="37" />
<hkern u1="&#x34;" u2="A" k="-25" />
<hkern u1="&#x34;" u2="&#x2c;" k="-20" />
<hkern u1="&#x34;" u2="&#x2b;" k="33" />
<hkern u1="&#x35;" u2="\" k="43" />
<hkern u1="&#x35;" u2="Y" k="47" />
<hkern u1="&#x35;" u2="W" k="35" />
<hkern u1="&#x35;" u2="V" k="35" />
<hkern u1="&#x35;" u2="A" k="-31" />
<hkern u1="&#x36;" u2="Y" k="31" />
<hkern u1="&#x36;" u2="W" k="25" />
<hkern u1="&#x36;" u2="V" k="25" />
<hkern u1="&#x36;" u2="A" k="27" />
<hkern u1="&#x36;" u2="&#x33;" k="25" />
<hkern u1="&#x37;" u2="&#xa2;" k="31" />
<hkern u1="&#x37;" u2="T" k="-57" />
<hkern u1="&#x37;" u2="J" k="92" />
<hkern u1="&#x37;" u2="A" k="68" />
<hkern u1="&#x37;" u2="&#x37;" k="-23" />
<hkern u1="&#x37;" u2="&#x35;" k="33" />
<hkern u1="&#x37;" u2="&#x34;" k="86" />
<hkern u1="&#x37;" u2="&#x2f;" k="104" />
<hkern u1="&#x37;" u2="&#x2d;" k="45" />
<hkern u1="&#x38;" u2="Y" k="39" />
<hkern u1="&#x38;" u2="W" k="29" />
<hkern u1="&#x38;" u2="V" k="29" />
<hkern u1="&#x38;" u2="A" k="25" />
<hkern u1="&#x39;" u2="\" k="78" />
<hkern u1="&#x39;" u2="Y" k="82" />
<hkern u1="&#x39;" u2="W" k="61" />
<hkern u1="&#x39;" u2="V" k="59" />
<hkern u1="&#x39;" u2="T" k="53" />
<hkern u1="&#x3b;" u2="j" k="-57" />
<hkern u1="&#x40;" u2="&#x2019;" k="43" />
<hkern u1="&#x40;" u2="Y" k="90" />
<hkern u1="&#x40;" u2="W" k="68" />
<hkern u1="&#x40;" u2="V" k="66" />
<hkern u1="&#x40;" u2="T" k="61" />
<hkern u1="&#x40;" u2="A" k="20" />
<hkern u1="A" u2="&#x201e;" k="-12" />
<hkern u1="A" u2="&#x201a;" k="-12" />
<hkern u1="A" u2="&#x141;" k="23" />
<hkern u1="A" u2="&#x38;" k="25" />
<hkern u1="A" u2="&#x36;" k="29" />
<hkern u1="A" u2="&#x34;" k="-41" />
<hkern u1="A" u2="&#x32;" k="-18" />
<hkern u1="A" u2="&#x30;" k="29" />
<hkern u1="A" u2="&#x2c;" k="-12" />
<hkern u1="B" u2="x" k="29" />
<hkern u1="B" u2="v" k="20" />
<hkern u1="B" u2="X" k="27" />
<hkern u1="B" u2="V" k="43" />
<hkern u1="D" u2="&#x142;" k="-33" />
<hkern u1="D" u2="&#x141;" k="12" />
<hkern u1="F" u2="&#x2122;" k="-10" />
<hkern u1="F" u2="&#x35;" k="20" />
<hkern u1="F" u2="&#x34;" k="51" />
<hkern u1="F" u2="&#x2f;" k="102" />
<hkern u1="F" u2="&#x2a;" k="-45" />
<hkern u1="F" u2="&#x29;" k="-12" />
<hkern u1="F" u2="&#x20;" k="49" />
<hkern u1="G" u2="&#x142;" k="-12" />
<hkern u1="K" u2="&#x201e;" k="-41" />
<hkern u1="K" u2="&#x201a;" k="-41" />
<hkern u1="K" u2="&#x3b;" k="-23" />
<hkern u1="K" u2="&#x34;" k="-70" />
<hkern u1="K" u2="&#x32;" k="-45" />
<hkern u1="K" u2="&#x2c;" k="-41" />
<hkern u1="O" u2="&#x142;" k="-37" />
<hkern u1="O" u2="&#x141;" k="12" />
<hkern u1="P" u2="&#x142;" k="-27" />
<hkern u1="P" u2="x" k="-16" />
<hkern u1="P" u2="v" k="-20" />
<hkern u1="P" u2="X" k="45" />
<hkern u1="P" u2="V" k="23" />
<hkern u1="P" u2="&#x35;" k="27" />
<hkern u1="P" u2="&#x34;" k="72" />
<hkern u1="P" u2="&#x2f;" k="127" />
<hkern u1="P" u2="&#x29;" k="33" />
<hkern u1="P" u2="&#x20;" k="57" />
<hkern u1="Q" u2="&#x201e;" k="-20" />
<hkern u1="Q" u2="&#x201a;" k="-20" />
<hkern u1="Q" u2="&#x142;" k="-31" />
<hkern u1="Q" u2="&#x141;" k="14" />
<hkern u1="Q" u2="&#x104;" k="23" />
<hkern u1="Q" u2="&#x7d;" k="-18" />
<hkern u1="Q" u2="y" k="14" />
<hkern u1="Q" u2="x" k="2" />
<hkern u1="Q" u2="]" k="-20" />
<hkern u1="Q" u2="X" k="33" />
<hkern u1="Q" u2="J" k="29" />
<hkern u1="Q" u2="A" k="23" />
<hkern u1="Q" u2="&#x34;" k="-51" />
<hkern u1="Q" u2="&#x32;" k="-27" />
<hkern u1="Q" u2="&#x2f;" k="-47" />
<hkern u1="Q" u2="&#x2c;" k="-20" />
<hkern u1="Q" u2="&#x29;" k="-51" />
<hkern u1="R" u2="&#x141;" k="14" />
<hkern u1="R" u2="&#x34;" k="-20" />
<hkern u1="T" u2="&#x40;" k="61" />
<hkern u1="T" u2="&#x39;" k="47" />
<hkern u1="T" u2="&#x35;" k="41" />
<hkern u1="T" u2="&#x34;" k="109" />
<hkern u1="T" u2="&#x31;" k="27" />
<hkern u1="T" u2="&#x30;" k="39" />
<hkern u1="V" u2="&#x2122;" k="-47" />
<hkern u1="V" u2="&#x142;" k="14" />
<hkern u1="V" u2="&#x141;" k="12" />
<hkern u1="V" u2="&#xae;" k="35" />
<hkern u1="V" u2="&#xa9;" k="35" />
<hkern u1="V" u2="x" k="29" />
<hkern u1="V" u2="v" k="25" />
<hkern u1="V" u2="]" k="-10" />
<hkern u1="V" u2="\" k="-39" />
<hkern u1="V" u2="&#x40;" k="66" />
<hkern u1="V" u2="&#x39;" k="49" />
<hkern u1="V" u2="&#x38;" k="29" />
<hkern u1="V" u2="&#x36;" k="31" />
<hkern u1="V" u2="&#x35;" k="61" />
<hkern u1="V" u2="&#x34;" k="100" />
<hkern u1="V" u2="&#x33;" k="29" />
<hkern u1="V" u2="&#x32;" k="31" />
<hkern u1="V" u2="&#x31;" k="35" />
<hkern u1="V" u2="&#x30;" k="53" />
<hkern u1="V" u2="&#x2f;" k="119" />
<hkern u1="V" u2="&#x2a;" k="-74" />
<hkern u1="V" u2="&#x29;" k="-47" />
<hkern u1="V" u2="&#x26;" k="31" />
<hkern u1="V" u2="&#x20;" k="70" />
<hkern u1="W" u2="&#x142;" k="12" />
<hkern u1="W" u2="&#x141;" k="12" />
<hkern u1="W" u2="&#x40;" k="70" />
<hkern u1="W" u2="&#x39;" k="53" />
<hkern u1="W" u2="&#x38;" k="29" />
<hkern u1="W" u2="&#x36;" k="31" />
<hkern u1="W" u2="&#x35;" k="66" />
<hkern u1="W" u2="&#x34;" k="106" />
<hkern u1="W" u2="&#x33;" k="31" />
<hkern u1="W" u2="&#x32;" k="33" />
<hkern u1="W" u2="&#x31;" k="37" />
<hkern u1="W" u2="&#x30;" k="55" />
<hkern u1="X" u2="&#x2122;" k="-55" />
<hkern u1="X" u2="&#xae;" k="27" />
<hkern u1="X" u2="&#xa9;" k="27" />
<hkern u1="X" u2="&#x7d;" k="-14" />
<hkern u1="X" u2="v" k="63" />
<hkern u1="X" u2="]" k="-18" />
<hkern u1="X" u2="\" k="-49" />
<hkern u1="X" u2="&#x34;" k="-35" />
<hkern u1="X" u2="&#x32;" k="-10" />
<hkern u1="X" u2="&#x30;" k="23" />
<hkern u1="X" u2="&#x2f;" k="-31" />
<hkern u1="X" u2="&#x2a;" k="-70" />
<hkern u1="X" u2="&#x29;" k="-55" />
<hkern u1="Y" u2="&#x40;" k="90" />
<hkern u1="Y" u2="&#x39;" k="74" />
<hkern u1="Y" u2="&#x38;" k="39" />
<hkern u1="Y" u2="&#x36;" k="43" />
<hkern u1="Y" u2="&#x35;" k="76" />
<hkern u1="Y" u2="&#x34;" k="123" />
<hkern u1="Y" u2="&#x33;" k="45" />
<hkern u1="Y" u2="&#x32;" k="47" />
<hkern u1="Y" u2="&#x31;" k="57" />
<hkern u1="Y" u2="&#x30;" k="78" />
<hkern u1="[" u2="j" k="-80" />
<hkern u1="[" u2="X" k="-18" />
<hkern u1="[" u2="V" k="-12" />
<hkern u1="\" u2="&#x2019;" k="160" />
<hkern u1="\" u2="x" k="-27" />
<hkern u1="\" u2="v" k="51" />
<hkern u1="\" u2="X" k="-29" />
<hkern u1="\" u2="V" k="113" />
<hkern u1="\" u2="&#x36;" k="23" />
<hkern u1="\" u2="&#x30;" k="20" />
<hkern u1="a" u2="W" k="119" />
<hkern u1="a" u2="V" k="111" />
<hkern u1="b" u2="&#x142;" k="-29" />
<hkern u1="c" u2="Z" k="10" />
<hkern u1="c" u2="X" k="27" />
<hkern u1="c" u2="W" k="106" />
<hkern u1="c" u2="V" k="104" />
<hkern u1="c" u2="S" k="14" />
<hkern u1="d" u2="W" k="27" />
<hkern u1="d" u2="V" k="27" />
<hkern u1="e" u2="&#x142;" k="-25" />
<hkern u1="f" u2="&#x2122;" k="-43" />
<hkern u1="f" u2="&#x142;" k="-43" />
<hkern u1="f" u2="&#x7d;" k="-14" />
<hkern u1="f" u2="]" k="-16" />
<hkern u1="f" u2="\" k="-47" />
<hkern u1="f" u2="X" k="-115" />
<hkern u1="f" u2="W" k="-113" />
<hkern u1="f" u2="V" k="-111" />
<hkern u1="f" u2="S" k="10" />
<hkern u1="f" u2="J" k="106" />
<hkern u1="f" u2="&#x2f;" k="41" />
<hkern u1="f" u2="&#x2a;" k="-29" />
<hkern u1="f" u2="&#x29;" k="-74" />
<hkern u1="f" u2="&#x20;" k="37" />
<hkern u1="g" u2="j" k="-59" />
<hkern u1="g" u2="Z" k="12" />
<hkern u1="g" u2="Y" k="106" />
<hkern u1="g" u2="X" k="23" />
<hkern u1="g" u2="W" k="96" />
<hkern u1="g" u2="V" k="88" />
<hkern u1="g" u2="U" k="23" />
<hkern u1="g" u2="T" k="49" />
<hkern u1="g" u2="S" k="10" />
<hkern u1="g" u2="Q" k="12" />
<hkern u1="g" u2="O" k="12" />
<hkern u1="g" u2="G" k="12" />
<hkern u1="g" u2="C" k="12" />
<hkern u1="h" u2="Z" k="18" />
<hkern u1="h" u2="X" k="20" />
<hkern u1="h" u2="W" k="111" />
<hkern u1="h" u2="V" k="104" />
<hkern u1="h" u2="S" k="12" />
<hkern u1="j" u2="j" k="-82" />
<hkern u1="k" u2="&#x201e;" k="-23" />
<hkern u1="k" u2="&#x201a;" k="-23" />
<hkern u1="k" u2="W" k="39" />
<hkern u1="k" u2="V" k="35" />
<hkern u1="k" u2="&#x2c;" k="-23" />
<hkern u1="l" u2="W" k="115" />
<hkern u1="l" u2="V" k="113" />
<hkern u1="o" u2="&#x142;" k="-16" />
<hkern u1="o" u2="Z" k="33" />
<hkern u1="o" u2="X" k="86" />
<hkern u1="o" u2="W" k="131" />
<hkern u1="o" u2="V" k="123" />
<hkern u1="o" u2="S" k="27" />
<hkern u1="o" u2="J" k="20" />
<hkern u1="p" u2="&#x142;" k="-18" />
<hkern u1="q" u2="&#x201e;" k="-31" />
<hkern u1="q" u2="&#x201a;" k="-31" />
<hkern u1="q" u2="j" k="-291" />
<hkern u1="q" u2="Z" k="12" />
<hkern u1="q" u2="Y" k="106" />
<hkern u1="q" u2="X" k="23" />
<hkern u1="q" u2="W" k="96" />
<hkern u1="q" u2="V" k="88" />
<hkern u1="q" u2="U" k="23" />
<hkern u1="q" u2="T" k="49" />
<hkern u1="q" u2="S" k="10" />
<hkern u1="q" u2="Q" k="12" />
<hkern u1="q" u2="O" k="12" />
<hkern u1="q" u2="G" k="12" />
<hkern u1="q" u2="C" k="12" />
<hkern u1="q" u2="&#x3b;" k="-14" />
<hkern u1="q" u2="&#x2c;" k="-31" />
<hkern u1="r" u2="&#x142;" k="-35" />
<hkern u1="r" u2="Z" k="33" />
<hkern u1="r" u2="X" k="84" />
<hkern u1="r" u2="W" k="33" />
<hkern u1="r" u2="V" k="31" />
<hkern u1="r" u2="S" k="12" />
<hkern u1="r" u2="J" k="141" />
<hkern u1="s" u2="X" k="27" />
<hkern u1="s" u2="W" k="106" />
<hkern u1="s" u2="V" k="98" />
<hkern u1="t" u2="W" k="88" />
<hkern u1="t" u2="V" k="82" />
<hkern u1="u" u2="W" k="98" />
<hkern u1="u" u2="V" k="94" />
<hkern u1="v" u2="\" k="20" />
<hkern u1="v" u2="Z" k="18" />
<hkern u1="v" u2="X" k="63" />
<hkern u1="v" u2="W" k="25" />
<hkern u1="v" u2="V" k="23" />
<hkern u1="v" u2="J" k="102" />
<hkern u1="v" u2="&#x2f;" k="55" />
<hkern u1="v" u2="&#x2a;" k="-41" />
<hkern u1="v" u2="&#x29;" k="25" />
<hkern u1="v" u2="&#x20;" k="51" />
<hkern u1="w" u2="&#x142;" k="18" />
<hkern u1="w" u2="Z" k="20" />
<hkern u1="w" u2="X" k="68" />
<hkern u1="w" u2="W" k="23" />
<hkern u1="w" u2="V" k="20" />
<hkern u1="w" u2="S" k="12" />
<hkern u1="w" u2="J" k="139" />
<hkern u1="x" u2="W" k="31" />
<hkern u1="x" u2="V" k="27" />
<hkern u1="x" u2="&#x2f;" k="-27" />
<hkern u1="x" u2="&#x2a;" k="-53" />
<hkern u1="x" u2="&#x29;" k="-31" />
<hkern u1="y" u2="Z" k="20" />
<hkern u1="y" u2="X" k="70" />
<hkern u1="y" u2="W" k="35" />
<hkern u1="y" u2="V" k="33" />
<hkern u1="y" u2="S" k="10" />
<hkern u1="y" u2="J" k="96" />
<hkern u1="z" u2="W" k="74" />
<hkern u1="z" u2="V" k="70" />
<hkern u1="&#x7b;" u2="j" k="-66" />
<hkern u1="&#x7b;" u2="X" k="-14" />
<hkern u1="&#x7c;" u2="j" k="-147" />
<hkern u1="&#xd3;" u2="&#x141;" k="12" />
<hkern u1="&#xf3;" u2="&#x142;" k="-16" />
<hkern u1="&#x104;" u2="&#x201e;" k="-27" />
<hkern u1="&#x104;" u2="&#x201a;" k="-27" />
<hkern u1="&#x104;" u2="&#x141;" k="23" />
<hkern u1="&#x104;" u2="y" k="25" />
<hkern u1="&#x104;" u2="j" k="-264" />
<hkern u1="&#x104;" u2="g" k="-23" />
<hkern u1="&#x104;" u2="&#x2c;" k="-27" />
<hkern u1="&#x105;" u2="j" k="-213" />
<hkern u1="&#x119;" u2="&#x142;" k="-23" />
<hkern u1="&#x142;" u2="&#x15b;" k="-14" />
<hkern u1="&#x142;" u2="y" k="6" />
<hkern u1="&#x142;" u2="x" k="-45" />
<hkern u1="&#x142;" u2="w" k="20" />
<hkern u1="&#x142;" u2="v" k="20" />
<hkern u1="&#x142;" u2="t" k="-2" />
<hkern u1="&#x142;" u2="s" k="-14" />
<hkern u1="&#x142;" u2="f" k="6" />
<hkern u1="&#x142;" u2="&#x2a;" k="25" />
<hkern u1="&#x2019;" u2="&#x40;" k="23" />
<hkern u1="&#x2019;" u2="&#x2f;" k="172" />
<hkern u1="&#x2019;" u2="&#x20;" k="29" />
<hkern u1="&#x201a;" u2="j" k="-72" />
<hkern u1="&#x201e;" u2="j" k="-72" />
<hkern g1="ampersand" 	g2="A,Aogonek" 	k="-98" />
<hkern g1="ampersand" 	g2="J" 	k="-47" />
<hkern g1="ampersand" 	g2="W" 	k="86" />
<hkern g1="ampersand" 	g2="Y" 	k="100" />
<hkern g1="ampersand" 	g2="s,sacute" 	k="-25" />
<hkern g1="ampersand" 	g2="w" 	k="37" />
<hkern g1="ampersand" 	g2="y" 	k="31" />
<hkern g1="ampersand" 	g2="z,zacute,zdotaccent" 	k="-27" />
<hkern g1="ampersand" 	g2="T" 	k="88" />
<hkern g1="ampersand" 	g2="U" 	k="27" />
<hkern g1="ampersand" 	g2="Z,Zacute,Zdotaccent" 	k="-25" />
<hkern g1="ampersand" 	g2="quotedbl,quotesingle" 	k="72" />
<hkern g1="asterisk" 	g2="A,Aogonek" 	k="102" />
<hkern g1="asterisk" 	g2="J" 	k="154" />
<hkern g1="asterisk" 	g2="W" 	k="-68" />
<hkern g1="asterisk" 	g2="Y" 	k="-72" />
<hkern g1="asterisk" 	g2="d,g,q" 	k="51" />
<hkern g1="asterisk" 	g2="c,e,o,oacute,cacute,eogonek" 	k="47" />
<hkern g1="asterisk" 	g2="s,sacute" 	k="35" />
<hkern g1="asterisk" 	g2="w" 	k="-49" />
<hkern g1="asterisk" 	g2="T" 	k="-47" />
<hkern g1="at" 	g2="quotedbl,quotesingle" 	k="39" />
<hkern g1="backslash" 	g2="A,Aogonek" 	k="-37" />
<hkern g1="backslash" 	g2="J" 	k="-16" />
<hkern g1="backslash" 	g2="C,G,O,Q,Oacute,Cacute" 	k="39" />
<hkern g1="backslash" 	g2="W" 	k="121" />
<hkern g1="backslash" 	g2="Y" 	k="117" />
<hkern g1="backslash" 	g2="w" 	k="70" />
<hkern g1="backslash" 	g2="y" 	k="57" />
<hkern g1="backslash" 	g2="T" 	k="98" />
<hkern g1="backslash" 	g2="U" 	k="41" />
<hkern g1="backslash" 	g2="quotedbl,quotesingle" 	k="160" />
<hkern g1="backslash" 	g2="t" 	k="27" />
<hkern g1="braceleft" 	g2="W" 	k="-12" />
<hkern g1="braceleft" 	g2="Y" 	k="-18" />
<hkern g1="bracketleft" 	g2="A,Aogonek" 	k="-10" />
<hkern g1="bracketleft" 	g2="W" 	k="-14" />
<hkern g1="bracketleft" 	g2="Y" 	k="-18" />
<hkern g1="colon,semicolon" 	g2="W" 	k="41" />
<hkern g1="colon,semicolon" 	g2="Y" 	k="59" />
<hkern g1="colon,semicolon" 	g2="V" 	k="39" />
<hkern g1="guillemotleft,guilsinglleft" 	g2="W" 	k="39" />
<hkern g1="guillemotleft,guilsinglleft" 	g2="Y" 	k="61" />
<hkern g1="guillemotleft,guilsinglleft" 	g2="V" 	k="37" />
<hkern g1="guillemotright,guilsinglright" 	g2="A,Aogonek" 	k="20" />
<hkern g1="guillemotright,guilsinglright" 	g2="W" 	k="76" />
<hkern g1="guillemotright,guilsinglright" 	g2="Y" 	k="104" />
<hkern g1="guillemotright,guilsinglright" 	g2="w" 	k="43" />
<hkern g1="guillemotright,guilsinglright" 	g2="y" 	k="29" />
<hkern g1="guillemotright,guilsinglright" 	g2="T" 	k="84" />
<hkern g1="guillemotright,guilsinglright" 	g2="quotedbl,quotesingle" 	k="41" />
<hkern g1="guillemotright,guilsinglright" 	g2="V" 	k="74" />
<hkern g1="guillemotright,guilsinglright" 	g2="X" 	k="29" />
<hkern g1="guillemotright,guilsinglright" 	g2="quoteright,quotedblright" 	k="43" />
<hkern g1="guillemotright,guilsinglright" 	g2="v" 	k="29" />
<hkern g1="guillemotright,guilsinglright" 	g2="x" 	k="41" />
<hkern g1="hyphen,endash,emdash" 	g2="A,Aogonek" 	k="20" />
<hkern g1="hyphen,endash,emdash" 	g2="W" 	k="72" />
<hkern g1="hyphen,endash,emdash" 	g2="Y" 	k="100" />
<hkern g1="hyphen,endash,emdash" 	g2="w" 	k="31" />
<hkern g1="hyphen,endash,emdash" 	g2="y" 	k="23" />
<hkern g1="hyphen,endash,emdash" 	g2="T" 	k="119" />
<hkern g1="hyphen,endash,emdash" 	g2="V" 	k="68" />
<hkern g1="hyphen,endash,emdash" 	g2="X" 	k="45" />
<hkern g1="hyphen,endash,emdash" 	g2="v" 	k="20" />
<hkern g1="hyphen,endash,emdash" 	g2="x" 	k="37" />
<hkern g1="parenleft" 	g2="A,Aogonek" 	k="-45" />
<hkern g1="parenleft" 	g2="J" 	k="-18" />
<hkern g1="parenleft" 	g2="C,G,O,Q,Oacute,Cacute" 	k="31" />
<hkern g1="parenleft" 	g2="W" 	k="-53" />
<hkern g1="parenleft" 	g2="Y" 	k="-57" />
<hkern g1="parenleft" 	g2="d,g,q" 	k="33" />
<hkern g1="parenleft" 	g2="c,e,o,oacute,cacute,eogonek" 	k="35" />
<hkern g1="parenleft" 	g2="w" 	k="27" />
<hkern g1="parenleft" 	g2="T" 	k="-12" />
<hkern g1="comma,period,quotesinglbase,quotedblbase" 	g2="W" 	k="121" />
<hkern g1="comma,period,quotesinglbase,quotedblbase" 	g2="Y" 	k="137" />
<hkern g1="comma,period,quotesinglbase,quotedblbase" 	g2="w" 	k="76" />
<hkern g1="comma,period,quotesinglbase,quotedblbase" 	g2="y" 	k="59" />
<hkern g1="comma,period,quotesinglbase,quotedblbase" 	g2="T" 	k="121" />
<hkern g1="comma,period,quotesinglbase,quotedblbase" 	g2="U" 	k="20" />
<hkern g1="comma,period,quotesinglbase,quotedblbase" 	g2="quotedbl,quotesingle" 	k="242" />
<hkern g1="comma,period,quotesinglbase,quotedblbase" 	g2="t" 	k="23" />
<hkern g1="comma,period,quotesinglbase,quotedblbase" 	g2="V" 	k="115" />
<hkern g1="comma,period,quotesinglbase,quotedblbase" 	g2="quoteright,quotedblright" 	k="236" />
<hkern g1="comma,period,quotesinglbase,quotedblbase" 	g2="v" 	k="55" />
<hkern g1="comma,period,quotesinglbase,quotedblbase" 	g2="f" 	k="16" />
<hkern g1="comma,period,quotesinglbase,quotedblbase" 	g2="quoteleft,quotedblleft" 	k="252" />
<hkern g1="comma,period,quotesinglbase,quotedblbase" 	g2="seven" 	k="39" />
<hkern g1="quoteleft,quotedblleft" 	g2="A,Aogonek" 	k="90" />
<hkern g1="quoteleft,quotedblleft" 	g2="J" 	k="156" />
<hkern g1="quoteleft,quotedblleft" 	g2="d,g,q" 	k="33" />
<hkern g1="quoteleft,quotedblleft" 	g2="c,e,o,oacute,cacute,eogonek" 	k="23" />
<hkern g1="quoteleft,quotedblleft" 	g2="comma,period,quotesinglbase,quotedblbase,ellipsis" 	k="219" />
<hkern g1="quoteright,quotedblright" 	g2="A,Aogonek" 	k="94" />
<hkern g1="quoteright,quotedblright" 	g2="J" 	k="156" />
<hkern g1="quoteright,quotedblright" 	g2="d,g,q" 	k="35" />
<hkern g1="quoteright,quotedblright" 	g2="c,e,o,oacute,cacute,eogonek" 	k="25" />
<hkern g1="quoteright,quotedblright" 	g2="comma,period,quotesinglbase,quotedblbase,ellipsis" 	k="221" />
<hkern g1="quoteright,quotedblright" 	g2="guillemotleft,guilsinglleft" 	k="25" />
<hkern g1="quotedbl,quotesingle" 	g2="A,Aogonek" 	k="102" />
<hkern g1="quotedbl,quotesingle" 	g2="J" 	k="156" />
<hkern g1="quotedbl,quotesingle" 	g2="d,g,q" 	k="53" />
<hkern g1="quotedbl,quotesingle" 	g2="c,e,o,oacute,cacute,eogonek" 	k="43" />
<hkern g1="quotedbl,quotesingle" 	g2="s,sacute" 	k="33" />
<hkern g1="quotedbl,quotesingle" 	g2="comma,period,quotesinglbase,quotedblbase,ellipsis" 	k="242" />
<hkern g1="quotedbl,quotesingle" 	g2="guillemotleft,guilsinglleft" 	k="41" />
<hkern g1="quotedbl,quotesingle" 	g2="slash" 	k="186" />
<hkern g1="quotedbl,quotesingle" 	g2="at" 	k="39" />
<hkern g1="quotedbl,quotesingle" 	g2="five" 	k="35" />
<hkern g1="quotedbl,quotesingle" 	g2="four" 	k="147" />
<hkern g1="quotedbl,quotesingle" 	g2="nine" 	k="20" />
<hkern g1="quotedbl,quotesingle" 	g2="space" 	k="37" />
<hkern g1="space" 	g2="A,Aogonek" 	k="63" />
<hkern g1="space" 	g2="J" 	k="61" />
<hkern g1="space" 	g2="W" 	k="70" />
<hkern g1="space" 	g2="Y" 	k="74" />
<hkern g1="space" 	g2="w" 	k="55" />
<hkern g1="space" 	g2="y" 	k="53" />
<hkern g1="space" 	g2="T" 	k="59" />
<hkern g1="space" 	g2="quotedbl,quotesingle" 	k="37" />
<hkern g1="A,Aogonek" 	g2="C,G,O,Q,Oacute,Cacute" 	k="55" />
<hkern g1="A,Aogonek" 	g2="S,Sacute" 	k="10" />
<hkern g1="A,Aogonek" 	g2="W" 	k="115" />
<hkern g1="A,Aogonek" 	g2="Y" 	k="133" />
<hkern g1="A,Aogonek" 	g2="a,aogonek" 	k="18" />
<hkern g1="A,Aogonek" 	g2="d,g,q" 	k="33" />
<hkern g1="A,Aogonek" 	g2="c,e,o,oacute,cacute,eogonek" 	k="35" />
<hkern g1="A,Aogonek" 	g2="u" 	k="18" />
<hkern g1="A,Aogonek" 	g2="w" 	k="74" />
<hkern g1="A,Aogonek" 	g2="y" 	k="66" />
<hkern g1="A,Aogonek" 	g2="T" 	k="127" />
<hkern g1="A,Aogonek" 	g2="U" 	k="55" />
<hkern g1="A,Aogonek" 	g2="quotedbl,quotesingle" 	k="102" />
<hkern g1="A,Aogonek" 	g2="t" 	k="63" />
<hkern g1="A,Aogonek" 	g2="V" 	k="111" />
<hkern g1="A,Aogonek" 	g2="quoteright,quotedblright" 	k="104" />
<hkern g1="A,Aogonek" 	g2="v" 	k="61" />
<hkern g1="A,Aogonek" 	g2="f" 	k="39" />
<hkern g1="A,Aogonek" 	g2="quoteleft,quotedblleft" 	k="109" />
<hkern g1="A,Aogonek" 	g2="guillemotleft,guilsinglleft" 	k="20" />
<hkern g1="A,Aogonek" 	g2="slash" 	k="-39" />
<hkern g1="A,Aogonek" 	g2="space" 	k="63" />
<hkern g1="A,Aogonek" 	g2="ampersand" 	k="25" />
<hkern g1="A,Aogonek" 	g2="asterisk" 	k="102" />
<hkern g1="A,Aogonek" 	g2="backslash" 	k="113" />
<hkern g1="A,Aogonek" 	g2="bracketright" 	k="-10" />
<hkern g1="A,Aogonek" 	g2="copyright" 	k="35" />
<hkern g1="A,Aogonek" 	g2="hyphen,endash,emdash" 	k="20" />
<hkern g1="A,Aogonek" 	g2="l,lslash" 	k="14" />
<hkern g1="A,Aogonek" 	g2="parenright" 	k="-43" />
<hkern g1="A,Aogonek" 	g2="registered" 	k="35" />
<hkern g1="A,Aogonek" 	g2="trademark" 	k="109" />
<hkern g1="B" 	g2="A,Aogonek" 	k="27" />
<hkern g1="B" 	g2="W" 	k="45" />
<hkern g1="B" 	g2="Y" 	k="59" />
<hkern g1="B" 	g2="d,g,q" 	k="10" />
<hkern g1="B" 	g2="m,n,p,r,nacute" 	k="10" />
<hkern g1="B" 	g2="c,e,o,oacute,cacute,eogonek" 	k="10" />
<hkern g1="B" 	g2="s,sacute" 	k="20" />
<hkern g1="B" 	g2="u" 	k="10" />
<hkern g1="B" 	g2="w" 	k="25" />
<hkern g1="B" 	g2="y" 	k="23" />
<hkern g1="B" 	g2="z,zacute,zdotaccent" 	k="14" />
<hkern g1="B" 	g2="T" 	k="25" />
<hkern g1="B" 	g2="t" 	k="25" />
<hkern g1="B" 	g2="f" 	k="27" />
<hkern g1="C,Cacute" 	g2="A,Aogonek" 	k="23" />
<hkern g1="C,Cacute" 	g2="C,G,O,Q,Oacute,Cacute" 	k="16" />
<hkern g1="C,Cacute" 	g2="W" 	k="25" />
<hkern g1="C,Cacute" 	g2="Y" 	k="37" />
<hkern g1="C,Cacute" 	g2="d,g,q" 	k="14" />
<hkern g1="C,Cacute" 	g2="m,n,p,r,nacute" 	k="10" />
<hkern g1="C,Cacute" 	g2="c,e,o,oacute,cacute,eogonek" 	k="14" />
<hkern g1="C,Cacute" 	g2="s,sacute" 	k="18" />
<hkern g1="C,Cacute" 	g2="u" 	k="10" />
<hkern g1="C,Cacute" 	g2="w" 	k="10" />
<hkern g1="C,Cacute" 	g2="y" 	k="12" />
<hkern g1="C,Cacute" 	g2="z,zacute,zdotaccent" 	k="12" />
<hkern g1="C,Cacute" 	g2="t" 	k="16" />
<hkern g1="C,Cacute" 	g2="V" 	k="25" />
<hkern g1="C,Cacute" 	g2="X" 	k="10" />
<hkern g1="C,Cacute" 	g2="f" 	k="25" />
<hkern g1="C,Cacute" 	g2="asterisk" 	k="-51" />
<hkern g1="C,Cacute" 	g2="trademark" 	k="-35" />
<hkern g1="D" 	g2="A,Aogonek" 	k="53" />
<hkern g1="D" 	g2="J" 	k="49" />
<hkern g1="D" 	g2="S,Sacute" 	k="12" />
<hkern g1="D" 	g2="W" 	k="55" />
<hkern g1="D" 	g2="Y" 	k="78" />
<hkern g1="D" 	g2="a,aogonek" 	k="18" />
<hkern g1="D" 	g2="m,n,p,r,nacute" 	k="12" />
<hkern g1="D" 	g2="s,sacute" 	k="16" />
<hkern g1="D" 	g2="u" 	k="10" />
<hkern g1="D" 	g2="w" 	k="10" />
<hkern g1="D" 	g2="y" 	k="14" />
<hkern g1="D" 	g2="z,zacute,zdotaccent" 	k="14" />
<hkern g1="D" 	g2="T" 	k="27" />
<hkern g1="D" 	g2="Z,Zacute,Zdotaccent" 	k="20" />
<hkern g1="D" 	g2="b,h,k" 	k="10" />
<hkern g1="D" 	g2="i,j" 	k="10" />
<hkern g1="D" 	g2="V" 	k="51" />
<hkern g1="D" 	g2="X" 	k="57" />
<hkern g1="D" 	g2="x" 	k="20" />
<hkern g1="D" 	g2="slash" 	k="47" />
<hkern g1="D" 	g2="backslash" 	k="33" />
<hkern g1="D" 	g2="parenright" 	k="27" />
<hkern g1="E,Eogonek" 	g2="C,G,O,Q,Oacute,Cacute" 	k="23" />
<hkern g1="E,Eogonek" 	g2="S,Sacute" 	k="12" />
<hkern g1="E,Eogonek" 	g2="d,g,q" 	k="20" />
<hkern g1="E,Eogonek" 	g2="c,e,o,oacute,cacute,eogonek" 	k="20" />
<hkern g1="E,Eogonek" 	g2="u" 	k="10" />
<hkern g1="E,Eogonek" 	g2="w" 	k="12" />
<hkern g1="E,Eogonek" 	g2="y" 	k="12" />
<hkern g1="E,Eogonek" 	g2="t" 	k="16" />
<hkern g1="E,Eogonek" 	g2="f" 	k="25" />
<hkern g1="F" 	g2="A,Aogonek" 	k="98" />
<hkern g1="F" 	g2="J" 	k="137" />
<hkern g1="F" 	g2="C,G,O,Q,Oacute,Cacute" 	k="23" />
<hkern g1="F" 	g2="S,Sacute" 	k="23" />
<hkern g1="F" 	g2="a,aogonek" 	k="47" />
<hkern g1="F" 	g2="d,g,q" 	k="51" />
<hkern g1="F" 	g2="m,n,p,r,nacute" 	k="27" />
<hkern g1="F" 	g2="c,e,o,oacute,cacute,eogonek" 	k="51" />
<hkern g1="F" 	g2="s,sacute" 	k="61" />
<hkern g1="F" 	g2="u" 	k="23" />
<hkern g1="F" 	g2="z,zacute,zdotaccent" 	k="25" />
<hkern g1="F" 	g2="f" 	k="23" />
<hkern g1="F" 	g2="comma,period,quotesinglbase,quotedblbase,ellipsis" 	k="70" />
<hkern g1="G" 	g2="W" 	k="53" />
<hkern g1="G" 	g2="Y" 	k="70" />
<hkern g1="G" 	g2="w" 	k="31" />
<hkern g1="G" 	g2="y" 	k="27" />
<hkern g1="G" 	g2="T" 	k="27" />
<hkern g1="G" 	g2="t" 	k="16" />
<hkern g1="G" 	g2="V" 	k="51" />
<hkern g1="G" 	g2="v" 	k="23" />
<hkern g1="G" 	g2="f" 	k="12" />
<hkern g1="G" 	g2="backslash" 	k="25" />
<hkern g1="H,I,M,N,Nacute" 	g2="a,aogonek" 	k="16" />
<hkern g1="H,I,M,N,Nacute" 	g2="d,g,q" 	k="18" />
<hkern g1="H,I,M,N,Nacute" 	g2="c,e,o,oacute,cacute,eogonek" 	k="20" />
<hkern g1="H,I,M,N,Nacute" 	g2="s,sacute" 	k="14" />
<hkern g1="H,I,M,N,Nacute" 	g2="y" 	k="10" />
<hkern g1="H,I,M,N,Nacute" 	g2="z,zacute,zdotaccent" 	k="12" />
<hkern g1="H,I,M,N,Nacute" 	g2="t" 	k="18" />
<hkern g1="H,I,M,N,Nacute" 	g2="f" 	k="18" />
<hkern g1="J" 	g2="A,Aogonek" 	k="37" />
<hkern g1="J" 	g2="J" 	k="29" />
<hkern g1="J" 	g2="a,aogonek" 	k="23" />
<hkern g1="J" 	g2="d,g,q" 	k="18" />
<hkern g1="J" 	g2="m,n,p,r,nacute" 	k="14" />
<hkern g1="J" 	g2="c,e,o,oacute,cacute,eogonek" 	k="20" />
<hkern g1="J" 	g2="s,sacute" 	k="27" />
<hkern g1="J" 	g2="u" 	k="16" />
<hkern g1="J" 	g2="z,zacute,zdotaccent" 	k="18" />
<hkern g1="J" 	g2="b,h,k" 	k="10" />
<hkern g1="J" 	g2="i,j" 	k="10" />
<hkern g1="J" 	g2="t" 	k="14" />
<hkern g1="J" 	g2="x" 	k="12" />
<hkern g1="J" 	g2="f" 	k="16" />
<hkern g1="J" 	g2="slash" 	k="31" />
<hkern g1="J" 	g2="l,lslash" 	k="10" />
<hkern g1="K" 	g2="J" 	k="-12" />
<hkern g1="K" 	g2="C,G,O,Q,Oacute,Cacute" 	k="80" />
<hkern g1="K" 	g2="S,Sacute" 	k="23" />
<hkern g1="K" 	g2="a,aogonek" 	k="16" />
<hkern g1="K" 	g2="d,g,q" 	k="68" />
<hkern g1="K" 	g2="c,e,o,oacute,cacute,eogonek" 	k="72" />
<hkern g1="K" 	g2="u" 	k="33" />
<hkern g1="K" 	g2="w" 	k="92" />
<hkern g1="K" 	g2="y" 	k="80" />
<hkern g1="K" 	g2="t" 	k="47" />
<hkern g1="K" 	g2="v" 	k="82" />
<hkern g1="K" 	g2="f" 	k="49" />
<hkern g1="K" 	g2="guillemotleft,guilsinglleft" 	k="20" />
<hkern g1="K" 	g2="slash" 	k="-66" />
<hkern g1="K" 	g2="space" 	k="25" />
<hkern g1="K" 	g2="asterisk" 	k="-51" />
<hkern g1="K" 	g2="backslash" 	k="-29" />
<hkern g1="K" 	g2="bracketright" 	k="-39" />
<hkern g1="K" 	g2="copyright" 	k="29" />
<hkern g1="K" 	g2="hyphen,endash,emdash" 	k="41" />
<hkern g1="K" 	g2="parenright" 	k="-72" />
<hkern g1="K" 	g2="registered" 	k="29" />
<hkern g1="K" 	g2="trademark" 	k="-35" />
<hkern g1="K" 	g2="braceright" 	k="-37" />
<hkern g1="K" 	g2="guillemotright,guilsinglright" 	k="-12" />
<hkern g1="L,Lslash" 	g2="C,G,O,Q,Oacute,Cacute" 	k="29" />
<hkern g1="L,Lslash" 	g2="W" 	k="174" />
<hkern g1="L,Lslash" 	g2="Y" 	k="188" />
<hkern g1="L,Lslash" 	g2="w" 	k="123" />
<hkern g1="L,Lslash" 	g2="y" 	k="92" />
<hkern g1="L,Lslash" 	g2="T" 	k="180" />
<hkern g1="L,Lslash" 	g2="U" 	k="35" />
<hkern g1="L,Lslash" 	g2="quotedbl,quotesingle" 	k="186" />
<hkern g1="L,Lslash" 	g2="t" 	k="53" />
<hkern g1="L,Lslash" 	g2="V" 	k="156" />
<hkern g1="L,Lslash" 	g2="quoteright,quotedblright" 	k="186" />
<hkern g1="L,Lslash" 	g2="v" 	k="88" />
<hkern g1="L,Lslash" 	g2="f" 	k="45" />
<hkern g1="L,Lslash" 	g2="quoteleft,quotedblleft" 	k="188" />
<hkern g1="L,Lslash" 	g2="space" 	k="57" />
<hkern g1="L,Lslash" 	g2="asterisk" 	k="190" />
<hkern g1="L,Lslash" 	g2="backslash" 	k="158" />
<hkern g1="L,Lslash" 	g2="trademark" 	k="188" />
<hkern g1="O,Q,Oacute" 	g2="A,Aogonek" 	k="55" />
<hkern g1="O,Q,Oacute" 	g2="J" 	k="49" />
<hkern g1="O,Q,Oacute" 	g2="S,Sacute" 	k="12" />
<hkern g1="O,Q,Oacute" 	g2="W" 	k="57" />
<hkern g1="O,Q,Oacute" 	g2="Y" 	k="80" />
<hkern g1="O,Q,Oacute" 	g2="a,aogonek" 	k="18" />
<hkern g1="O,Q,Oacute" 	g2="m,n,p,r,nacute" 	k="12" />
<hkern g1="O,Q,Oacute" 	g2="s,sacute" 	k="14" />
<hkern g1="O,Q,Oacute" 	g2="u" 	k="10" />
<hkern g1="O,Q,Oacute" 	g2="w" 	k="10" />
<hkern g1="O,Q,Oacute" 	g2="z,zacute,zdotaccent" 	k="14" />
<hkern g1="O,Q,Oacute" 	g2="T" 	k="31" />
<hkern g1="O,Q,Oacute" 	g2="Z,Zacute,Zdotaccent" 	k="23" />
<hkern g1="O,Q,Oacute" 	g2="b,h,k" 	k="10" />
<hkern g1="O,Q,Oacute" 	g2="i,j" 	k="10" />
<hkern g1="O,Q,Oacute" 	g2="V" 	k="53" />
<hkern g1="O,Q,Oacute" 	g2="X" 	k="59" />
<hkern g1="O,Q,Oacute" 	g2="x" 	k="27" />
<hkern g1="O,Q,Oacute" 	g2="slash" 	k="47" />
<hkern g1="O,Q,Oacute" 	g2="backslash" 	k="37" />
<hkern g1="O,Q,Oacute" 	g2="parenright" 	k="29" />
<hkern g1="P" 	g2="A,Aogonek" 	k="113" />
<hkern g1="P" 	g2="J" 	k="162" />
<hkern g1="P" 	g2="W" 	k="23" />
<hkern g1="P" 	g2="Y" 	k="35" />
<hkern g1="P" 	g2="a,aogonek" 	k="23" />
<hkern g1="P" 	g2="d,g,q" 	k="23" />
<hkern g1="P" 	g2="c,e,o,oacute,cacute,eogonek" 	k="25" />
<hkern g1="P" 	g2="s,sacute" 	k="20" />
<hkern g1="P" 	g2="w" 	k="-27" />
<hkern g1="P" 	g2="y" 	k="-35" />
<hkern g1="P" 	g2="Z,Zacute,Zdotaccent" 	k="10" />
<hkern g1="P" 	g2="comma,period,quotesinglbase,quotedblbase,ellipsis" 	k="115" />
<hkern g1="P" 	g2="guillemotleft,guilsinglleft" 	k="23" />
<hkern g1="P" 	g2="hyphen,endash,emdash" 	k="16" />
<hkern g1="R" 	g2="C,G,O,Q,Oacute,Cacute" 	k="25" />
<hkern g1="R" 	g2="W" 	k="68" />
<hkern g1="R" 	g2="Y" 	k="86" />
<hkern g1="R" 	g2="a,aogonek" 	k="29" />
<hkern g1="R" 	g2="d,g,q" 	k="47" />
<hkern g1="R" 	g2="m,n,p,r,nacute" 	k="14" />
<hkern g1="R" 	g2="c,e,o,oacute,cacute,eogonek" 	k="49" />
<hkern g1="R" 	g2="u" 	k="27" />
<hkern g1="R" 	g2="w" 	k="29" />
<hkern g1="R" 	g2="y" 	k="27" />
<hkern g1="R" 	g2="T" 	k="37" />
<hkern g1="R" 	g2="U" 	k="20" />
<hkern g1="R" 	g2="b,h,k" 	k="12" />
<hkern g1="R" 	g2="i,j" 	k="14" />
<hkern g1="R" 	g2="t" 	k="31" />
<hkern g1="R" 	g2="V" 	k="66" />
<hkern g1="R" 	g2="quoteright,quotedblright" 	k="16" />
<hkern g1="R" 	g2="v" 	k="25" />
<hkern g1="R" 	g2="f" 	k="27" />
<hkern g1="R" 	g2="guillemotleft,guilsinglleft" 	k="20" />
<hkern g1="R" 	g2="slash" 	k="-18" />
<hkern g1="R" 	g2="backslash" 	k="43" />
<hkern g1="R" 	g2="l,lslash" 	k="23" />
<hkern g1="R" 	g2="parenright" 	k="-23" />
<hkern g1="R" 	g2="trademark" 	k="20" />
<hkern g1="S,Sacute" 	g2="A,Aogonek" 	k="29" />
<hkern g1="S,Sacute" 	g2="W" 	k="29" />
<hkern g1="S,Sacute" 	g2="Y" 	k="39" />
<hkern g1="S,Sacute" 	g2="a,aogonek" 	k="10" />
<hkern g1="S,Sacute" 	g2="m,n,p,r,nacute" 	k="16" />
<hkern g1="S,Sacute" 	g2="s,sacute" 	k="20" />
<hkern g1="S,Sacute" 	g2="u" 	k="14" />
<hkern g1="S,Sacute" 	g2="w" 	k="43" />
<hkern g1="S,Sacute" 	g2="y" 	k="37" />
<hkern g1="S,Sacute" 	g2="z,zacute,zdotaccent" 	k="18" />
<hkern g1="S,Sacute" 	g2="b,h,k" 	k="10" />
<hkern g1="S,Sacute" 	g2="i,j" 	k="10" />
<hkern g1="S,Sacute" 	g2="t" 	k="33" />
<hkern g1="S,Sacute" 	g2="V" 	k="29" />
<hkern g1="S,Sacute" 	g2="X" 	k="16" />
<hkern g1="S,Sacute" 	g2="v" 	k="37" />
<hkern g1="S,Sacute" 	g2="x" 	k="27" />
<hkern g1="S,Sacute" 	g2="f" 	k="29" />
<hkern g1="S,Sacute" 	g2="l,lslash" 	k="10" />
<hkern g1="T" 	g2="A,Aogonek" 	k="127" />
<hkern g1="T" 	g2="J" 	k="172" />
<hkern g1="T" 	g2="C,G,O,Q,Oacute,Cacute" 	k="29" />
<hkern g1="T" 	g2="S,Sacute" 	k="10" />
<hkern g1="T" 	g2="a,aogonek" 	k="131" />
<hkern g1="T" 	g2="d,g,q" 	k="150" />
<hkern g1="T" 	g2="m,n,p,r,nacute" 	k="39" />
<hkern g1="T" 	g2="c,e,o,oacute,cacute,eogonek" 	k="154" />
<hkern g1="T" 	g2="s,sacute" 	k="147" />
<hkern g1="T" 	g2="u" 	k="88" />
<hkern g1="T" 	g2="w" 	k="47" />
<hkern g1="T" 	g2="y" 	k="41" />
<hkern g1="T" 	g2="z,zacute,zdotaccent" 	k="86" />
<hkern g1="T" 	g2="v" 	k="47" />
<hkern g1="T" 	g2="x" 	k="45" />
<hkern g1="T" 	g2="f" 	k="66" />
<hkern g1="T" 	g2="comma,period,quotesinglbase,quotedblbase,ellipsis" 	k="119" />
<hkern g1="T" 	g2="guillemotleft,guilsinglleft" 	k="84" />
<hkern g1="T" 	g2="slash" 	k="100" />
<hkern g1="T" 	g2="space" 	k="59" />
<hkern g1="T" 	g2="asterisk" 	k="-47" />
<hkern g1="T" 	g2="hyphen,endash,emdash" 	k="117" />
<hkern g1="T" 	g2="parenright" 	k="-12" />
<hkern g1="T" 	g2="trademark" 	k="-12" />
<hkern g1="U" 	g2="A,Aogonek" 	k="53" />
<hkern g1="U" 	g2="J" 	k="55" />
<hkern g1="U" 	g2="a,aogonek" 	k="29" />
<hkern g1="U" 	g2="d,g,q" 	k="23" />
<hkern g1="U" 	g2="m,n,p,r,nacute" 	k="23" />
<hkern g1="U" 	g2="c,e,o,oacute,cacute,eogonek" 	k="23" />
<hkern g1="U" 	g2="s,sacute" 	k="31" />
<hkern g1="U" 	g2="u" 	k="18" />
<hkern g1="U" 	g2="z,zacute,zdotaccent" 	k="23" />
<hkern g1="U" 	g2="b,h,k" 	k="12" />
<hkern g1="U" 	g2="i,j" 	k="12" />
<hkern g1="U" 	g2="t" 	k="12" />
<hkern g1="U" 	g2="x" 	k="12" />
<hkern g1="U" 	g2="f" 	k="16" />
<hkern g1="U" 	g2="comma,period,quotesinglbase,quotedblbase,ellipsis" 	k="20" />
<hkern g1="U" 	g2="slash" 	k="47" />
<hkern g1="U" 	g2="l,lslash" 	k="10" />
<hkern g1="V" 	g2="A,Aogonek" 	k="111" />
<hkern g1="V" 	g2="J" 	k="164" />
<hkern g1="V" 	g2="C,G,O,Q,Oacute,Cacute" 	k="55" />
<hkern g1="V" 	g2="S,Sacute" 	k="43" />
<hkern g1="V" 	g2="a,aogonek" 	k="113" />
<hkern g1="V" 	g2="d,g,q" 	k="115" />
<hkern g1="V" 	g2="m,n,p,r,nacute" 	k="86" />
<hkern g1="V" 	g2="c,e,o,oacute,cacute,eogonek" 	k="121" />
<hkern g1="V" 	g2="s,sacute" 	k="111" />
<hkern g1="V" 	g2="u" 	k="80" />
<hkern g1="V" 	g2="w" 	k="20" />
<hkern g1="V" 	g2="y" 	k="20" />
<hkern g1="V" 	g2="z,zacute,zdotaccent" 	k="72" />
<hkern g1="V" 	g2="t" 	k="31" />
<hkern g1="V" 	g2="quoteright,quotedblright" 	k="-14" />
<hkern g1="V" 	g2="f" 	k="63" />
<hkern g1="V" 	g2="quoteleft,quotedblleft" 	k="-12" />
<hkern g1="V" 	g2="comma,period,quotesinglbase,quotedblbase,ellipsis" 	k="113" />
<hkern g1="V" 	g2="guillemotleft,guilsinglleft" 	k="72" />
<hkern g1="V" 	g2="hyphen,endash,emdash" 	k="68" />
<hkern g1="V" 	g2="guillemotright,guilsinglright" 	k="37" />
<hkern g1="V" 	g2="colon,semicolon" 	k="39" />
<hkern g1="W" 	g2="A,Aogonek" 	k="115" />
<hkern g1="W" 	g2="J" 	k="164" />
<hkern g1="W" 	g2="C,G,O,Q,Oacute,Cacute" 	k="57" />
<hkern g1="W" 	g2="S,Sacute" 	k="45" />
<hkern g1="W" 	g2="a,aogonek" 	k="111" />
<hkern g1="W" 	g2="d,g,q" 	k="125" />
<hkern g1="W" 	g2="m,n,p,r,nacute" 	k="90" />
<hkern g1="W" 	g2="c,e,o,oacute,cacute,eogonek" 	k="131" />
<hkern g1="W" 	g2="s,sacute" 	k="119" />
<hkern g1="W" 	g2="u" 	k="84" />
<hkern g1="W" 	g2="w" 	k="23" />
<hkern g1="W" 	g2="y" 	k="23" />
<hkern g1="W" 	g2="z,zacute,zdotaccent" 	k="76" />
<hkern g1="W" 	g2="t" 	k="31" />
<hkern g1="W" 	g2="quoteright,quotedblright" 	k="-18" />
<hkern g1="W" 	g2="v" 	k="25" />
<hkern g1="W" 	g2="x" 	k="31" />
<hkern g1="W" 	g2="f" 	k="68" />
<hkern g1="W" 	g2="quoteleft,quotedblleft" 	k="-18" />
<hkern g1="W" 	g2="comma,period,quotesinglbase,quotedblbase,ellipsis" 	k="121" />
<hkern g1="W" 	g2="guillemotleft,guilsinglleft" 	k="76" />
<hkern g1="W" 	g2="slash" 	k="127" />
<hkern g1="W" 	g2="space" 	k="70" />
<hkern g1="W" 	g2="ampersand" 	k="31" />
<hkern g1="W" 	g2="asterisk" 	k="-68" />
<hkern g1="W" 	g2="backslash" 	k="-47" />
<hkern g1="W" 	g2="bracketright" 	k="-14" />
<hkern g1="W" 	g2="copyright" 	k="35" />
<hkern g1="W" 	g2="hyphen,endash,emdash" 	k="72" />
<hkern g1="W" 	g2="parenright" 	k="-53" />
<hkern g1="W" 	g2="registered" 	k="35" />
<hkern g1="W" 	g2="trademark" 	k="-51" />
<hkern g1="W" 	g2="braceright" 	k="-12" />
<hkern g1="W" 	g2="guillemotright,guilsinglright" 	k="39" />
<hkern g1="W" 	g2="colon,semicolon" 	k="41" />
<hkern g1="X" 	g2="C,G,O,Q,Oacute,Cacute" 	k="61" />
<hkern g1="X" 	g2="S,Sacute" 	k="12" />
<hkern g1="X" 	g2="a,aogonek" 	k="29" />
<hkern g1="X" 	g2="d,g,q" 	k="80" />
<hkern g1="X" 	g2="m,n,p,r,nacute" 	k="23" />
<hkern g1="X" 	g2="c,e,o,oacute,cacute,eogonek" 	k="86" />
<hkern g1="X" 	g2="u" 	k="47" />
<hkern g1="X" 	g2="w" 	k="68" />
<hkern g1="X" 	g2="y" 	k="61" />
<hkern g1="X" 	g2="t" 	k="43" />
<hkern g1="X" 	g2="quoteright,quotedblright" 	k="-20" />
<hkern g1="X" 	g2="f" 	k="57" />
<hkern g1="X" 	g2="quoteleft,quotedblleft" 	k="-20" />
<hkern g1="X" 	g2="guillemotleft,guilsinglleft" 	k="29" />
<hkern g1="X" 	g2="hyphen,endash,emdash" 	k="45" />
<hkern g1="Y" 	g2="A,Aogonek" 	k="133" />
<hkern g1="Y" 	g2="J" 	k="174" />
<hkern g1="Y" 	g2="C,G,O,Q,Oacute,Cacute" 	k="78" />
<hkern g1="Y" 	g2="S,Sacute" 	k="59" />
<hkern g1="Y" 	g2="a,aogonek" 	k="143" />
<hkern g1="Y" 	g2="d,g,q" 	k="152" />
<hkern g1="Y" 	g2="m,n,p,r,nacute" 	k="106" />
<hkern g1="Y" 	g2="c,e,o,oacute,cacute,eogonek" 	k="158" />
<hkern g1="Y" 	g2="s,sacute" 	k="160" />
<hkern g1="Y" 	g2="u" 	k="106" />
<hkern g1="Y" 	g2="w" 	k="51" />
<hkern g1="Y" 	g2="y" 	k="45" />
<hkern g1="Y" 	g2="z,zacute,zdotaccent" 	k="109" />
<hkern g1="Y" 	g2="t" 	k="43" />
<hkern g1="Y" 	g2="quoteright,quotedblright" 	k="-29" />
<hkern g1="Y" 	g2="v" 	k="55" />
<hkern g1="Y" 	g2="x" 	k="55" />
<hkern g1="Y" 	g2="f" 	k="88" />
<hkern g1="Y" 	g2="quoteleft,quotedblleft" 	k="-27" />
<hkern g1="Y" 	g2="comma,period,quotesinglbase,quotedblbase,ellipsis" 	k="139" />
<hkern g1="Y" 	g2="guillemotleft,guilsinglleft" 	k="104" />
<hkern g1="Y" 	g2="slash" 	k="121" />
<hkern g1="Y" 	g2="space" 	k="76" />
<hkern g1="Y" 	g2="ampersand" 	k="39" />
<hkern g1="Y" 	g2="asterisk" 	k="-74" />
<hkern g1="Y" 	g2="backslash" 	k="-53" />
<hkern g1="Y" 	g2="bracketright" 	k="-23" />
<hkern g1="Y" 	g2="copyright" 	k="49" />
<hkern g1="Y" 	g2="hyphen,endash,emdash" 	k="100" />
<hkern g1="Y" 	g2="parenright" 	k="-61" />
<hkern g1="Y" 	g2="registered" 	k="49" />
<hkern g1="Y" 	g2="trademark" 	k="-61" />
<hkern g1="Y" 	g2="braceright" 	k="-20" />
<hkern g1="Y" 	g2="guillemotright,guilsinglright" 	k="61" />
<hkern g1="Y" 	g2="colon,semicolon" 	k="59" />
<hkern g1="Z,Zacute,Zdotaccent" 	g2="C,G,O,Q,Oacute,Cacute" 	k="20" />
<hkern g1="Z,Zacute,Zdotaccent" 	g2="a,aogonek" 	k="12" />
<hkern g1="Z,Zacute,Zdotaccent" 	g2="d,g,q" 	k="25" />
<hkern g1="Z,Zacute,Zdotaccent" 	g2="m,n,p,r,nacute" 	k="14" />
<hkern g1="Z,Zacute,Zdotaccent" 	g2="c,e,o,oacute,cacute,eogonek" 	k="25" />
<hkern g1="Z,Zacute,Zdotaccent" 	g2="s,sacute" 	k="10" />
<hkern g1="Z,Zacute,Zdotaccent" 	g2="u" 	k="18" />
<hkern g1="Z,Zacute,Zdotaccent" 	g2="w" 	k="18" />
<hkern g1="Z,Zacute,Zdotaccent" 	g2="y" 	k="18" />
<hkern g1="Z,Zacute,Zdotaccent" 	g2="t" 	k="29" />
<hkern g1="Z,Zacute,Zdotaccent" 	g2="v" 	k="18" />
<hkern g1="Z,Zacute,Zdotaccent" 	g2="f" 	k="39" />
<hkern g1="a,aogonek" 	g2="C,G,O,Q,Oacute,Cacute" 	k="23" />
<hkern g1="a,aogonek" 	g2="Y" 	k="160" />
<hkern g1="a,aogonek" 	g2="w" 	k="63" />
<hkern g1="a,aogonek" 	g2="y" 	k="45" />
<hkern g1="a,aogonek" 	g2="T" 	k="143" />
<hkern g1="a,aogonek" 	g2="U" 	k="39" />
<hkern g1="a,aogonek" 	g2="quotedbl,quotesingle" 	k="61" />
<hkern g1="a,aogonek" 	g2="t" 	k="20" />
<hkern g1="a,aogonek" 	g2="quoteright,quotedblright" 	k="63" />
<hkern g1="a,aogonek" 	g2="v" 	k="47" />
<hkern g1="a,aogonek" 	g2="f" 	k="10" />
<hkern g1="a,aogonek" 	g2="quoteleft,quotedblleft" 	k="74" />
<hkern g1="a,aogonek" 	g2="asterisk" 	k="61" />
<hkern g1="a,aogonek" 	g2="backslash" 	k="106" />
<hkern g1="a,aogonek" 	g2="trademark" 	k="78" />
<hkern g1="a,aogonek" 	g2="B,D,E,F,H,I,K,L,M,N,P,R,Eogonek,Lslash,Nacute" 	k="10" />
<hkern g1="b,p" 	g2="A,Aogonek" 	k="31" />
<hkern g1="b,p" 	g2="J" 	k="18" />
<hkern g1="b,p" 	g2="S,Sacute" 	k="25" />
<hkern g1="b,p" 	g2="W" 	k="125" />
<hkern g1="b,p" 	g2="Y" 	k="150" />
<hkern g1="b,p" 	g2="s,sacute" 	k="8" />
<hkern g1="b,p" 	g2="w" 	k="41" />
<hkern g1="b,p" 	g2="y" 	k="31" />
<hkern g1="b,p" 	g2="z,zacute,zdotaccent" 	k="12" />
<hkern g1="b,p" 	g2="T" 	k="150" />
<hkern g1="b,p" 	g2="U" 	k="23" />
<hkern g1="b,p" 	g2="Z,Zacute,Zdotaccent" 	k="33" />
<hkern g1="b,p" 	g2="quotedbl,quotesingle" 	k="53" />
<hkern g1="b,p" 	g2="t" 	k="14" />
<hkern g1="b,p" 	g2="V" 	k="117" />
<hkern g1="b,p" 	g2="X" 	k="80" />
<hkern g1="b,p" 	g2="quoteright,quotedblright" 	k="53" />
<hkern g1="b,p" 	g2="v" 	k="29" />
<hkern g1="b,p" 	g2="x" 	k="41" />
<hkern g1="b,p" 	g2="quoteleft,quotedblleft" 	k="63" />
<hkern g1="b,p" 	g2="asterisk" 	k="51" />
<hkern g1="b,p" 	g2="backslash" 	k="80" />
<hkern g1="b,p" 	g2="parenright" 	k="33" />
<hkern g1="b,p" 	g2="trademark" 	k="63" />
<hkern g1="b,p" 	g2="B,D,E,F,H,I,K,L,M,N,P,R,Eogonek,Lslash,Nacute" 	k="18" />
<hkern g1="c,cacute" 	g2="A,Aogonek" 	k="14" />
<hkern g1="c,cacute" 	g2="C,G,O,Q,Oacute,Cacute" 	k="12" />
<hkern g1="c,cacute" 	g2="Y" 	k="131" />
<hkern g1="c,cacute" 	g2="d,g,q" 	k="10" />
<hkern g1="c,cacute" 	g2="c,e,o,oacute,cacute,eogonek" 	k="10" />
<hkern g1="c,cacute" 	g2="s,sacute" 	k="10" />
<hkern g1="c,cacute" 	g2="w" 	k="20" />
<hkern g1="c,cacute" 	g2="y" 	k="18" />
<hkern g1="c,cacute" 	g2="T" 	k="135" />
<hkern g1="c,cacute" 	g2="U" 	k="14" />
<hkern g1="c,cacute" 	g2="quoteright,quotedblright" 	k="18" />
<hkern g1="c,cacute" 	g2="v" 	k="12" />
<hkern g1="c,cacute" 	g2="x" 	k="10" />
<hkern g1="c,cacute" 	g2="quoteleft,quotedblleft" 	k="25" />
<hkern g1="c,cacute" 	g2="asterisk" 	k="23" />
<hkern g1="c,cacute" 	g2="backslash" 	k="61" />
<hkern g1="c,cacute" 	g2="trademark" 	k="37" />
<hkern g1="d" 	g2="C,G,O,Q,Oacute,Cacute" 	k="23" />
<hkern g1="d" 	g2="Y" 	k="31" />
<hkern g1="d" 	g2="w" 	k="20" />
<hkern g1="d" 	g2="y" 	k="12" />
<hkern g1="d" 	g2="T" 	k="29" />
<hkern g1="d" 	g2="U" 	k="27" />
<hkern g1="d" 	g2="t" 	k="12" />
<hkern g1="d" 	g2="v" 	k="16" />
<hkern g1="e,eogonek" 	g2="A,Aogonek" 	k="31" />
<hkern g1="e,eogonek" 	g2="J" 	k="20" />
<hkern g1="e,eogonek" 	g2="S,Sacute" 	k="23" />
<hkern g1="e,eogonek" 	g2="W" 	k="121" />
<hkern g1="e,eogonek" 	g2="Y" 	k="178" />
<hkern g1="e,eogonek" 	g2="w" 	k="39" />
<hkern g1="e,eogonek" 	g2="y" 	k="31" />
<hkern g1="e,eogonek" 	g2="z,zacute,zdotaccent" 	k="12" />
<hkern g1="e,eogonek" 	g2="T" 	k="170" />
<hkern g1="e,eogonek" 	g2="U" 	k="18" />
<hkern g1="e,eogonek" 	g2="Z,Zacute,Zdotaccent" 	k="33" />
<hkern g1="e,eogonek" 	g2="quotedbl,quotesingle" 	k="37" />
<hkern g1="e,eogonek" 	g2="t" 	k="12" />
<hkern g1="e,eogonek" 	g2="V" 	k="113" />
<hkern g1="e,eogonek" 	g2="X" 	k="63" />
<hkern g1="e,eogonek" 	g2="quoteright,quotedblright" 	k="39" />
<hkern g1="e,eogonek" 	g2="v" 	k="27" />
<hkern g1="e,eogonek" 	g2="x" 	k="39" />
<hkern g1="e,eogonek" 	g2="quoteleft,quotedblleft" 	k="45" />
<hkern g1="e,eogonek" 	g2="asterisk" 	k="43" />
<hkern g1="e,eogonek" 	g2="backslash" 	k="78" />
<hkern g1="e,eogonek" 	g2="parenright" 	k="31" />
<hkern g1="e,eogonek" 	g2="trademark" 	k="51" />
<hkern g1="e,eogonek" 	g2="B,D,E,F,H,I,K,L,M,N,P,R,Eogonek,Lslash,Nacute" 	k="16" />
<hkern g1="f" 	g2="A,Aogonek" 	k="72" />
<hkern g1="f" 	g2="Y" 	k="-117" />
<hkern g1="f" 	g2="a,aogonek" 	k="16" />
<hkern g1="f" 	g2="T" 	k="-72" />
<hkern g1="f" 	g2="quoteright,quotedblright" 	k="-20" />
<hkern g1="f" 	g2="quoteleft,quotedblleft" 	k="-20" />
<hkern g1="f" 	g2="comma,period,quotesinglbase,quotedblbase,ellipsis" 	k="51" />
<hkern g1="h" 	g2="C,G,O,Q,Oacute,Cacute" 	k="12" />
<hkern g1="h" 	g2="Y" 	k="129" />
<hkern g1="h" 	g2="w" 	k="18" />
<hkern g1="h" 	g2="y" 	k="12" />
<hkern g1="h" 	g2="T" 	k="127" />
<hkern g1="h" 	g2="U" 	k="29" />
<hkern g1="h" 	g2="quotedbl,quotesingle" 	k="33" />
<hkern g1="h" 	g2="quoteright,quotedblright" 	k="39" />
<hkern g1="h" 	g2="v" 	k="12" />
<hkern g1="h" 	g2="quoteleft,quotedblleft" 	k="43" />
<hkern g1="h" 	g2="asterisk" 	k="35" />
<hkern g1="h" 	g2="backslash" 	k="70" />
<hkern g1="h" 	g2="trademark" 	k="53" />
<hkern g1="i,j" 	g2="C,G,O,Q,Oacute,Cacute" 	k="12" />
<hkern g1="i,j" 	g2="S,Sacute" 	k="10" />
<hkern g1="i,j" 	g2="U" 	k="12" />
<hkern g1="i,j" 	g2="Z,Zacute,Zdotaccent" 	k="12" />
<hkern g1="k" 	g2="C,G,O,Q,Oacute,Cacute" 	k="35" />
<hkern g1="k" 	g2="Y" 	k="66" />
<hkern g1="k" 	g2="a,aogonek" 	k="23" />
<hkern g1="k" 	g2="d,g,q" 	k="49" />
<hkern g1="k" 	g2="c,e,o,oacute,cacute,eogonek" 	k="53" />
<hkern g1="k" 	g2="s,sacute" 	k="10" />
<hkern g1="k" 	g2="T" 	k="53" />
<hkern g1="k" 	g2="U" 	k="16" />
<hkern g1="k" 	g2="f" 	k="10" />
<hkern g1="k" 	g2="guillemotleft,guilsinglleft" 	k="41" />
<hkern g1="k" 	g2="slash" 	k="-41" />
<hkern g1="k" 	g2="asterisk" 	k="-41" />
<hkern g1="k" 	g2="bracketright" 	k="-12" />
<hkern g1="k" 	g2="hyphen,endash,emdash" 	k="41" />
<hkern g1="k" 	g2="parenright" 	k="-45" />
<hkern g1="k" 	g2="braceright" 	k="-10" />
<hkern g1="l,lslash" 	g2="C,G,O,Q,Oacute,Cacute" 	k="53" />
<hkern g1="l,lslash" 	g2="Y" 	k="123" />
<hkern g1="l,lslash" 	g2="d,g,q" 	k="12" />
<hkern g1="l,lslash" 	g2="c,e,o,oacute,cacute,eogonek" 	k="12" />
<hkern g1="l,lslash" 	g2="w" 	k="84" />
<hkern g1="l,lslash" 	g2="y" 	k="70" />
<hkern g1="l,lslash" 	g2="T" 	k="96" />
<hkern g1="l,lslash" 	g2="U" 	k="70" />
<hkern g1="l,lslash" 	g2="quotedbl,quotesingle" 	k="51" />
<hkern g1="l,lslash" 	g2="t" 	k="41" />
<hkern g1="l,lslash" 	g2="quoteright,quotedblright" 	k="51" />
<hkern g1="l,lslash" 	g2="v" 	k="68" />
<hkern g1="l,lslash" 	g2="f" 	k="31" />
<hkern g1="l,lslash" 	g2="quoteleft,quotedblleft" 	k="51" />
<hkern g1="l,lslash" 	g2="space" 	k="41" />
<hkern g1="l,lslash" 	g2="asterisk" 	k="51" />
<hkern g1="l,lslash" 	g2="backslash" 	k="41" />
<hkern g1="l,lslash" 	g2="parenright" 	k="-18" />
<hkern g1="l,lslash" 	g2="trademark" 	k="51" />
<hkern g1="l,lslash" 	g2="B,D,E,F,H,I,K,L,M,N,P,R,Eogonek,Lslash,Nacute" 	k="14" />
<hkern g1="m,n,nacute" 	g2="C,G,O,Q,Oacute,Cacute" 	k="12" />
<hkern g1="m,n,nacute" 	g2="S,Sacute" 	k="12" />
<hkern g1="m,n,nacute" 	g2="W" 	k="111" />
<hkern g1="m,n,nacute" 	g2="Y" 	k="129" />
<hkern g1="m,n,nacute" 	g2="w" 	k="18" />
<hkern g1="m,n,nacute" 	g2="y" 	k="12" />
<hkern g1="m,n,nacute" 	g2="T" 	k="127" />
<hkern g1="m,n,nacute" 	g2="U" 	k="29" />
<hkern g1="m,n,nacute" 	g2="Z,Zacute,Zdotaccent" 	k="18" />
<hkern g1="m,n,nacute" 	g2="quotedbl,quotesingle" 	k="23" />
<hkern g1="m,n,nacute" 	g2="V" 	k="104" />
<hkern g1="m,n,nacute" 	g2="X" 	k="20" />
<hkern g1="m,n,nacute" 	g2="quoteright,quotedblright" 	k="29" />
<hkern g1="m,n,nacute" 	g2="v" 	k="12" />
<hkern g1="m,n,nacute" 	g2="quoteleft,quotedblleft" 	k="33" />
<hkern g1="m,n,nacute" 	g2="asterisk" 	k="27" />
<hkern g1="m,n,nacute" 	g2="backslash" 	k="70" />
<hkern g1="m,n,nacute" 	g2="trademark" 	k="43" />
<hkern g1="o,oacute" 	g2="A,Aogonek" 	k="33" />
<hkern g1="o,oacute" 	g2="Y" 	k="158" />
<hkern g1="o,oacute" 	g2="s,sacute" 	k="8" />
<hkern g1="o,oacute" 	g2="w" 	k="43" />
<hkern g1="o,oacute" 	g2="y" 	k="33" />
<hkern g1="o,oacute" 	g2="z,zacute,zdotaccent" 	k="14" />
<hkern g1="o,oacute" 	g2="T" 	k="156" />
<hkern g1="o,oacute" 	g2="U" 	k="23" />
<hkern g1="o,oacute" 	g2="quotedbl,quotesingle" 	k="43" />
<hkern g1="o,oacute" 	g2="t" 	k="14" />
<hkern g1="o,oacute" 	g2="quoteright,quotedblright" 	k="43" />
<hkern g1="o,oacute" 	g2="v" 	k="31" />
<hkern g1="o,oacute" 	g2="x" 	k="45" />
<hkern g1="o,oacute" 	g2="f" 	k="8" />
<hkern g1="o,oacute" 	g2="quoteleft,quotedblleft" 	k="55" />
<hkern g1="o,oacute" 	g2="asterisk" 	k="47" />
<hkern g1="o,oacute" 	g2="backslash" 	k="80" />
<hkern g1="o,oacute" 	g2="parenright" 	k="35" />
<hkern g1="o,oacute" 	g2="trademark" 	k="55" />
<hkern g1="o,oacute" 	g2="B,D,E,F,H,I,K,L,M,N,P,R,Eogonek,Lslash,Nacute" 	k="20" />
<hkern g1="r" 	g2="A,Aogonek" 	k="94" />
<hkern g1="r" 	g2="Y" 	k="59" />
<hkern g1="r" 	g2="a,aogonek" 	k="14" />
<hkern g1="r" 	g2="d,g,q" 	k="8" />
<hkern g1="r" 	g2="c,e,o,oacute,cacute,eogonek" 	k="10" />
<hkern g1="r" 	g2="T" 	k="53" />
<hkern g1="r" 	g2="comma,period,quotesinglbase,quotedblbase,ellipsis" 	k="90" />
<hkern g1="r" 	g2="guillemotleft,guilsinglleft" 	k="25" />
<hkern g1="r" 	g2="slash" 	k="72" />
<hkern g1="r" 	g2="space" 	k="39" />
<hkern g1="r" 	g2="parenright" 	k="29" />
<hkern g1="r" 	g2="B,D,E,F,H,I,K,L,M,N,P,R,Eogonek,Lslash,Nacute" 	k="12" />
<hkern g1="s,sacute" 	g2="A,Aogonek" 	k="16" />
<hkern g1="s,sacute" 	g2="C,G,O,Q,Oacute,Cacute" 	k="16" />
<hkern g1="s,sacute" 	g2="Y" 	k="121" />
<hkern g1="s,sacute" 	g2="w" 	k="23" />
<hkern g1="s,sacute" 	g2="y" 	k="23" />
<hkern g1="s,sacute" 	g2="T" 	k="106" />
<hkern g1="s,sacute" 	g2="U" 	k="23" />
<hkern g1="s,sacute" 	g2="t" 	k="8" />
<hkern g1="s,sacute" 	g2="v" 	k="14" />
<hkern g1="s,sacute" 	g2="x" 	k="14" />
<hkern g1="s,sacute" 	g2="f" 	k="12" />
<hkern g1="s,sacute" 	g2="backslash" 	k="55" />
<hkern g1="s,sacute" 	g2="trademark" 	k="35" />
<hkern g1="s,sacute" 	g2="B,D,E,F,H,I,K,L,M,N,P,R,Eogonek,Lslash,Nacute" 	k="12" />
<hkern g1="t" 	g2="C,G,O,Q,Oacute,Cacute" 	k="20" />
<hkern g1="t" 	g2="Y" 	k="117" />
<hkern g1="t" 	g2="d,g,q" 	k="10" />
<hkern g1="t" 	g2="c,e,o,oacute,cacute,eogonek" 	k="12" />
<hkern g1="t" 	g2="w" 	k="10" />
<hkern g1="t" 	g2="y" 	k="8" />
<hkern g1="t" 	g2="T" 	k="51" />
<hkern g1="t" 	g2="U" 	k="27" />
<hkern g1="t" 	g2="t" 	k="10" />
<hkern g1="t" 	g2="v" 	k="8" />
<hkern g1="t" 	g2="f" 	k="8" />
<hkern g1="t" 	g2="backslash" 	k="43" />
<hkern g1="t" 	g2="trademark" 	k="29" />
<hkern g1="t" 	g2="B,D,E,F,H,I,K,L,M,N,P,R,Eogonek,Lslash,Nacute" 	k="10" />
<hkern g1="u" 	g2="C,G,O,Q,Oacute,Cacute" 	k="23" />
<hkern g1="u" 	g2="Y" 	k="135" />
<hkern g1="u" 	g2="w" 	k="20" />
<hkern g1="u" 	g2="y" 	k="12" />
<hkern g1="u" 	g2="T" 	k="94" />
<hkern g1="u" 	g2="U" 	k="29" />
<hkern g1="u" 	g2="t" 	k="12" />
<hkern g1="u" 	g2="quoteright,quotedblright" 	k="25" />
<hkern g1="u" 	g2="v" 	k="16" />
<hkern g1="u" 	g2="quoteleft,quotedblleft" 	k="20" />
<hkern g1="u" 	g2="asterisk" 	k="20" />
<hkern g1="u" 	g2="backslash" 	k="63" />
<hkern g1="u" 	g2="trademark" 	k="35" />
<hkern g1="v" 	g2="A,Aogonek" 	k="61" />
<hkern g1="v" 	g2="Y" 	k="57" />
<hkern g1="v" 	g2="a,aogonek" 	k="23" />
<hkern g1="v" 	g2="d,g,q" 	k="29" />
<hkern g1="v" 	g2="c,e,o,oacute,cacute,eogonek" 	k="31" />
<hkern g1="v" 	g2="s,sacute" 	k="27" />
<hkern g1="v" 	g2="T" 	k="49" />
<hkern g1="v" 	g2="comma,period,quotesinglbase,quotedblbase,ellipsis" 	k="55" />
<hkern g1="v" 	g2="guillemotleft,guilsinglleft" 	k="29" />
<hkern g1="v" 	g2="hyphen,endash,emdash" 	k="20" />
<hkern g1="w" 	g2="A,Aogonek" 	k="74" />
<hkern g1="w" 	g2="C,G,O,Q,Oacute,Cacute" 	k="10" />
<hkern g1="w" 	g2="Y" 	k="51" />
<hkern g1="w" 	g2="a,aogonek" 	k="31" />
<hkern g1="w" 	g2="d,g,q" 	k="39" />
<hkern g1="w" 	g2="c,e,o,oacute,cacute,eogonek" 	k="43" />
<hkern g1="w" 	g2="s,sacute" 	k="37" />
<hkern g1="w" 	g2="T" 	k="47" />
<hkern g1="w" 	g2="comma,period,quotesinglbase,quotedblbase,ellipsis" 	k="76" />
<hkern g1="w" 	g2="guillemotleft,guilsinglleft" 	k="43" />
<hkern g1="w" 	g2="slash" 	k="76" />
<hkern g1="w" 	g2="space" 	k="55" />
<hkern g1="w" 	g2="asterisk" 	k="-49" />
<hkern g1="w" 	g2="backslash" 	k="23" />
<hkern g1="w" 	g2="hyphen,endash,emdash" 	k="31" />
<hkern g1="w" 	g2="parenright" 	k="27" />
<hkern g1="x" 	g2="C,G,O,Q,Oacute,Cacute" 	k="27" />
<hkern g1="x" 	g2="Y" 	k="57" />
<hkern g1="x" 	g2="a,aogonek" 	k="16" />
<hkern g1="x" 	g2="d,g,q" 	k="41" />
<hkern g1="x" 	g2="c,e,o,oacute,cacute,eogonek" 	k="45" />
<hkern g1="x" 	g2="s,sacute" 	k="8" />
<hkern g1="x" 	g2="T" 	k="45" />
<hkern g1="x" 	g2="U" 	k="12" />
<hkern g1="x" 	g2="f" 	k="8" />
<hkern g1="x" 	g2="guillemotleft,guilsinglleft" 	k="41" />
<hkern g1="x" 	g2="hyphen,endash,emdash" 	k="37" />
<hkern g1="y" 	g2="A,Aogonek" 	k="57" />
<hkern g1="y" 	g2="Y" 	k="68" />
<hkern g1="y" 	g2="a,aogonek" 	k="23" />
<hkern g1="y" 	g2="d,g,q" 	k="29" />
<hkern g1="y" 	g2="c,e,o,oacute,cacute,eogonek" 	k="31" />
<hkern g1="y" 	g2="s,sacute" 	k="27" />
<hkern g1="y" 	g2="T" 	k="55" />
<hkern g1="y" 	g2="comma,period,quotesinglbase,quotedblbase,ellipsis" 	k="51" />
<hkern g1="y" 	g2="guillemotleft,guilsinglleft" 	k="27" />
<hkern g1="y" 	g2="slash" 	k="47" />
<hkern g1="y" 	g2="space" 	k="47" />
<hkern g1="y" 	g2="backslash" 	k="23" />
<hkern g1="y" 	g2="hyphen,endash,emdash" 	k="18" />
<hkern g1="y" 	g2="parenright" 	k="25" />
<hkern g1="z,zacute,zdotaccent" 	g2="C,G,O,Q,Oacute,Cacute" 	k="14" />
<hkern g1="z,zacute,zdotaccent" 	g2="Y" 	k="106" />
<hkern g1="z,zacute,zdotaccent" 	g2="d,g,q" 	k="12" />
<hkern g1="z,zacute,zdotaccent" 	g2="c,e,o,oacute,cacute,eogonek" 	k="14" />
<hkern g1="z,zacute,zdotaccent" 	g2="T" 	k="82" />
<hkern g1="z,zacute,zdotaccent" 	g2="U" 	k="23" />
<hkern g1="z,zacute,zdotaccent" 	g2="backslash" 	k="39" />
<hkern g1="z,zacute,zdotaccent" 	g2="B,D,E,F,H,I,K,L,M,N,P,R,Eogonek,Lslash,Nacute" 	k="12" />
<hkern g1="four" 	g2="quotedbl,quotesingle" 	k="33" />
<hkern g1="nine" 	g2="quotedbl,quotesingle" 	k="35" />
<hkern g1="one" 	g2="quotedbl,quotesingle" 	k="49" />
<hkern g1="seven" 	g2="comma,period,quotesinglbase,quotedblbase,ellipsis" 	k="109" />
<hkern g1="g,q" 	g2="backslash" 	k="47" />
<hkern g1="g,q" 	g2="trademark" 	k="18" />
</font>
</defs></svg> 